<?xml version="1.0" encoding="UTF-8"?>
<svg xmlns="http://www.w3.org/2000/svg" xmlns:xlink="http://www.w3.org/1999/xlink" fill-opacity="1" color-rendering="auto" color-interpolation="auto" stroke="black" text-rendering="auto" stroke-linecap="square" width="1465" stroke-miterlimit="10" stroke-opacity="1" shape-rendering="auto" fill="black" stroke-dasharray="none" font-weight="normal" stroke-width="1" height="1114" font-family="'Dialog'" font-style="normal" stroke-linejoin="miter" font-size="12" stroke-dashoffset="0" image-rendering="auto">
  <!--Generated by ySVG 2.5-->
  <defs id="genericDefs"/>
  <g>
    <defs id="defs1">
      <linearGradient x1="1297.3566" gradientUnits="userSpaceOnUse" x2="1302.8593" y1="371.7636" y2="393.9441" id="linearGradient1" spreadMethod="pad">
        <stop stop-opacity="0.8627" stop-color="rgb(255,255,255)" offset="0%"/>
        <stop stop-opacity="0.1255" stop-color="rgb(255,255,255)" offset="100%"/>
      </linearGradient>
      <linearGradient x1="1354.1057" gradientUnits="userSpaceOnUse" x2="1395.022" y1="923.8111" y2="959.6854" id="linearGradient2" spreadMethod="reflect">
        <stop stop-opacity="1" stop-color="rgb(232,238,247)" offset="0%"/>
        <stop stop-opacity="1" stop-color="rgb(183,201,227)" offset="100%"/>
      </linearGradient>
      <linearGradient x1="1395.6682" gradientUnits="userSpaceOnUse" x2="1434.1057" y1="924.3423" y2="961.0551" id="linearGradient3" spreadMethod="reflect">
        <stop stop-opacity="1" stop-color="rgb(232,238,247)" offset="0%"/>
        <stop stop-opacity="1" stop-color="rgb(183,201,227)" offset="100%"/>
      </linearGradient>
      <linearGradient x1="1256.8245" gradientUnits="userSpaceOnUse" x2="1286.4244" y1="778.5111" y2="799.3111" id="linearGradient4" spreadMethod="reflect">
        <stop stop-opacity="1" stop-color="rgb(232,238,247)" offset="0%"/>
        <stop stop-opacity="1" stop-color="rgb(183,201,227)" offset="100%"/>
      </linearGradient>
      <linearGradient x1="1226.4244" gradientUnits="userSpaceOnUse" x2="1256.8245" y1="778.5111" y2="799.3111" id="linearGradient5" spreadMethod="reflect">
        <stop stop-opacity="1" stop-color="rgb(232,238,247)" offset="0%"/>
        <stop stop-opacity="1" stop-color="rgb(183,201,227)" offset="100%"/>
      </linearGradient>
      <linearGradient x1="1286.8245" gradientUnits="userSpaceOnUse" x2="1316.4244" y1="778.5111" y2="799.3111" id="linearGradient6" spreadMethod="reflect">
        <stop stop-opacity="1" stop-color="rgb(232,238,247)" offset="0%"/>
        <stop stop-opacity="1" stop-color="rgb(183,201,227)" offset="100%"/>
      </linearGradient>
      <linearGradient x1="1257.3369" gradientUnits="userSpaceOnUse" x2="1286.937" y1="836.8486" y2="857.6486" id="linearGradient7" spreadMethod="reflect">
        <stop stop-opacity="1" stop-color="rgb(232,238,247)" offset="0%"/>
        <stop stop-opacity="1" stop-color="rgb(183,201,227)" offset="100%"/>
      </linearGradient>
      <linearGradient x1="1226.937" gradientUnits="userSpaceOnUse" x2="1257.3369" y1="836.8486" y2="857.6486" id="linearGradient8" spreadMethod="reflect">
        <stop stop-opacity="1" stop-color="rgb(232,238,247)" offset="0%"/>
        <stop stop-opacity="1" stop-color="rgb(183,201,227)" offset="100%"/>
      </linearGradient>
      <linearGradient x1="1287.3369" gradientUnits="userSpaceOnUse" x2="1316.937" y1="836.8486" y2="857.6486" id="linearGradient9" spreadMethod="reflect">
        <stop stop-opacity="1" stop-color="rgb(232,238,247)" offset="0%"/>
        <stop stop-opacity="1" stop-color="rgb(183,201,227)" offset="100%"/>
      </linearGradient>
      <linearGradient x1="1248.412" gradientUnits="userSpaceOnUse" x2="1278.012" y1="1226.7736" y2="1247.5736" id="linearGradient10" spreadMethod="reflect">
        <stop stop-opacity="1" stop-color="rgb(232,238,247)" offset="0%"/>
        <stop stop-opacity="1" stop-color="rgb(183,201,227)" offset="100%"/>
      </linearGradient>
      <linearGradient x1="1218.012" gradientUnits="userSpaceOnUse" x2="1248.412" y1="1226.7736" y2="1247.5736" id="linearGradient11" spreadMethod="reflect">
        <stop stop-opacity="1" stop-color="rgb(232,238,247)" offset="0%"/>
        <stop stop-opacity="1" stop-color="rgb(183,201,227)" offset="100%"/>
      </linearGradient>
      <linearGradient x1="1278.412" gradientUnits="userSpaceOnUse" x2="1308.012" y1="1226.7736" y2="1247.5736" id="linearGradient12" spreadMethod="reflect">
        <stop stop-opacity="1" stop-color="rgb(232,238,247)" offset="0%"/>
        <stop stop-opacity="1" stop-color="rgb(183,201,227)" offset="100%"/>
      </linearGradient>
      <linearGradient x1="1249.2119" gradientUnits="userSpaceOnUse" x2="1278.812" y1="1289.9736" y2="1310.7736" id="linearGradient13" spreadMethod="reflect">
        <stop stop-opacity="1" stop-color="rgb(232,238,247)" offset="0%"/>
        <stop stop-opacity="1" stop-color="rgb(183,201,227)" offset="100%"/>
      </linearGradient>
      <linearGradient x1="1218.812" gradientUnits="userSpaceOnUse" x2="1249.2119" y1="1289.9736" y2="1310.7736" id="linearGradient14" spreadMethod="reflect">
        <stop stop-opacity="1" stop-color="rgb(232,238,247)" offset="0%"/>
        <stop stop-opacity="1" stop-color="rgb(183,201,227)" offset="100%"/>
      </linearGradient>
      <linearGradient x1="1279.2119" gradientUnits="userSpaceOnUse" x2="1308.812" y1="1289.9736" y2="1310.7736" id="linearGradient15" spreadMethod="reflect">
        <stop stop-opacity="1" stop-color="rgb(232,238,247)" offset="0%"/>
        <stop stop-opacity="1" stop-color="rgb(183,201,227)" offset="100%"/>
      </linearGradient>
      <linearGradient x1="1514.312" gradientUnits="userSpaceOnUse" x2="1574.312" y1="637.7236" y2="677.7236" id="linearGradient16" spreadMethod="reflect">
        <stop stop-opacity="1" stop-color="rgb(232,238,247)" offset="0%"/>
        <stop stop-opacity="1" stop-color="rgb(183,201,227)" offset="100%"/>
      </linearGradient>
      <linearGradient x1="1525.512" gradientUnits="userSpaceOnUse" x2="1585.512" y1="1109.7236" y2="1149.7236" id="linearGradient17" spreadMethod="reflect">
        <stop stop-opacity="1" stop-color="rgb(232,238,247)" offset="0%"/>
        <stop stop-opacity="1" stop-color="rgb(183,201,227)" offset="100%"/>
      </linearGradient>
      <linearGradient x1="1375.656" gradientUnits="userSpaceOnUse" x2="1395.176" y1="816.5304" y2="829.548" id="linearGradient18" spreadMethod="reflect">
        <stop stop-opacity="1" stop-color="rgb(232,238,247)" offset="0%"/>
        <stop stop-opacity="1" stop-color="rgb(183,201,227)" offset="100%"/>
      </linearGradient>
      <linearGradient x1="1394.296" gradientUnits="userSpaceOnUse" x2="1413.816" y1="816.5304" y2="829.548" id="linearGradient19" spreadMethod="reflect">
        <stop stop-opacity="1" stop-color="rgb(232,238,247)" offset="0%"/>
        <stop stop-opacity="1" stop-color="rgb(183,201,227)" offset="100%"/>
      </linearGradient>
      <linearGradient x1="1354.28" gradientUnits="userSpaceOnUse" x2="1373.8" y1="669.8618" y2="681.6618" id="linearGradient20" spreadMethod="reflect">
        <stop stop-opacity="1" stop-color="rgb(232,238,247)" offset="0%"/>
        <stop stop-opacity="1" stop-color="rgb(183,201,227)" offset="100%"/>
      </linearGradient>
      <linearGradient x1="1372.92" gradientUnits="userSpaceOnUse" x2="1392.4399" y1="669.8618" y2="681.6618" id="linearGradient21" spreadMethod="reflect">
        <stop stop-opacity="1" stop-color="rgb(232,238,247)" offset="0%"/>
        <stop stop-opacity="1" stop-color="rgb(183,201,227)" offset="100%"/>
      </linearGradient>
      <linearGradient x1="1423.1331" gradientUnits="userSpaceOnUse" x2="1442.6531" y1="817.2157" y2="830.2333" id="linearGradient22" spreadMethod="reflect">
        <stop stop-opacity="1" stop-color="rgb(232,238,247)" offset="0%"/>
        <stop stop-opacity="1" stop-color="rgb(183,201,227)" offset="100%"/>
      </linearGradient>
      <linearGradient x1="1441.7731" gradientUnits="userSpaceOnUse" x2="1461.2931" y1="817.2157" y2="830.2333" id="linearGradient23" spreadMethod="reflect">
        <stop stop-opacity="1" stop-color="rgb(232,238,247)" offset="0%"/>
        <stop stop-opacity="1" stop-color="rgb(183,201,227)" offset="100%"/>
      </linearGradient>
      <linearGradient x1="1402.5601" gradientUnits="userSpaceOnUse" x2="1422.08" y1="670.7236" y2="682.5236" id="linearGradient24" spreadMethod="reflect">
        <stop stop-opacity="1" stop-color="rgb(232,238,247)" offset="0%"/>
        <stop stop-opacity="1" stop-color="rgb(183,201,227)" offset="100%"/>
      </linearGradient>
      <linearGradient x1="1421.2" gradientUnits="userSpaceOnUse" x2="1440.72" y1="670.7236" y2="682.5236" id="linearGradient25" spreadMethod="reflect">
        <stop stop-opacity="1" stop-color="rgb(232,238,247)" offset="0%"/>
        <stop stop-opacity="1" stop-color="rgb(183,201,227)" offset="100%"/>
      </linearGradient>
      <linearGradient x1="1490.812" gradientUnits="userSpaceOnUse" x2="1510.332" y1="817.8352" y2="830.8528" id="linearGradient26" spreadMethod="reflect">
        <stop stop-opacity="1" stop-color="rgb(232,238,247)" offset="0%"/>
        <stop stop-opacity="1" stop-color="rgb(183,201,227)" offset="100%"/>
      </linearGradient>
      <linearGradient x1="1509.452" gradientUnits="userSpaceOnUse" x2="1528.972" y1="817.8352" y2="830.8528" id="linearGradient27" spreadMethod="reflect">
        <stop stop-opacity="1" stop-color="rgb(232,238,247)" offset="0%"/>
        <stop stop-opacity="1" stop-color="rgb(183,201,227)" offset="100%"/>
      </linearGradient>
      <linearGradient x1="1538.2891" gradientUnits="userSpaceOnUse" x2="1557.8091" y1="818.5205" y2="831.5381" id="linearGradient28" spreadMethod="reflect">
        <stop stop-opacity="1" stop-color="rgb(232,238,247)" offset="0%"/>
        <stop stop-opacity="1" stop-color="rgb(183,201,227)" offset="100%"/>
      </linearGradient>
      <linearGradient x1="1556.9291" gradientUnits="userSpaceOnUse" x2="1576.4491" y1="818.5205" y2="831.5381" id="linearGradient29" spreadMethod="reflect">
        <stop stop-opacity="1" stop-color="rgb(232,238,247)" offset="0%"/>
        <stop stop-opacity="1" stop-color="rgb(183,201,227)" offset="100%"/>
      </linearGradient>
      <linearGradient x1="1441.312" gradientUnits="userSpaceOnUse" x2="1460.832" y1="1260.3352" y2="1273.3528" id="linearGradient30" spreadMethod="reflect">
        <stop stop-opacity="1" stop-color="rgb(232,238,247)" offset="0%"/>
        <stop stop-opacity="1" stop-color="rgb(183,201,227)" offset="100%"/>
      </linearGradient>
      <linearGradient x1="1459.952" gradientUnits="userSpaceOnUse" x2="1479.472" y1="1260.3352" y2="1273.3528" id="linearGradient31" spreadMethod="reflect">
        <stop stop-opacity="1" stop-color="rgb(232,238,247)" offset="0%"/>
        <stop stop-opacity="1" stop-color="rgb(183,201,227)" offset="100%"/>
      </linearGradient>
      <linearGradient x1="1488.7891" gradientUnits="userSpaceOnUse" x2="1508.3091" y1="1261.0205" y2="1274.0381" id="linearGradient32" spreadMethod="reflect">
        <stop stop-opacity="1" stop-color="rgb(232,238,247)" offset="0%"/>
        <stop stop-opacity="1" stop-color="rgb(183,201,227)" offset="100%"/>
      </linearGradient>
      <linearGradient x1="1507.4291" gradientUnits="userSpaceOnUse" x2="1526.9491" y1="1261.0205" y2="1274.0381" id="linearGradient33" spreadMethod="reflect">
        <stop stop-opacity="1" stop-color="rgb(232,238,247)" offset="0%"/>
        <stop stop-opacity="1" stop-color="rgb(183,201,227)" offset="100%"/>
      </linearGradient>
      <linearGradient x1="1447.9614" gradientUnits="userSpaceOnUse" x2="1488.8777" y1="926.3722" y2="962.2465" id="linearGradient34" spreadMethod="reflect">
        <stop stop-opacity="1" stop-color="rgb(232,238,247)" offset="0%"/>
        <stop stop-opacity="1" stop-color="rgb(183,201,227)" offset="100%"/>
      </linearGradient>
      <linearGradient x1="1489.5239" gradientUnits="userSpaceOnUse" x2="1527.9614" y1="926.9034" y2="963.6161" id="linearGradient35" spreadMethod="reflect">
        <stop stop-opacity="1" stop-color="rgb(232,238,247)" offset="0%"/>
        <stop stop-opacity="1" stop-color="rgb(183,201,227)" offset="100%"/>
      </linearGradient>
      <linearGradient x1="1537.6729" gradientUnits="userSpaceOnUse" x2="1578.5891" y1="926.7444" y2="962.6187" id="linearGradient36" spreadMethod="reflect">
        <stop stop-opacity="1" stop-color="rgb(232,238,247)" offset="0%"/>
        <stop stop-opacity="1" stop-color="rgb(183,201,227)" offset="100%"/>
      </linearGradient>
      <linearGradient x1="1579.2354" gradientUnits="userSpaceOnUse" x2="1617.6729" y1="927.2756" y2="963.9883" id="linearGradient37" spreadMethod="reflect">
        <stop stop-opacity="1" stop-color="rgb(232,238,247)" offset="0%"/>
        <stop stop-opacity="1" stop-color="rgb(183,201,227)" offset="100%"/>
      </linearGradient>
      <linearGradient x1="1444.2114" gradientUnits="userSpaceOnUse" x2="1485.1277" y1="1384.6222" y2="1420.4965" id="linearGradient38" spreadMethod="reflect">
        <stop stop-opacity="1" stop-color="rgb(232,238,247)" offset="0%"/>
        <stop stop-opacity="1" stop-color="rgb(183,201,227)" offset="100%"/>
      </linearGradient>
      <linearGradient x1="1485.7739" gradientUnits="userSpaceOnUse" x2="1524.2114" y1="1385.1534" y2="1421.8661" id="linearGradient39" spreadMethod="reflect">
        <stop stop-opacity="1" stop-color="rgb(232,238,247)" offset="0%"/>
        <stop stop-opacity="1" stop-color="rgb(183,201,227)" offset="100%"/>
      </linearGradient>
      <clipPath clipPathUnits="userSpaceOnUse" id="clipPath1">
        <path d="M0 0 L1465 0 L1465 1114 L0 1114 L0 0 Z"/>
      </clipPath>
      <clipPath clipPathUnits="userSpaceOnUse" id="clipPath2">
        <path d="M373 356 L1838 356 L1838 1470 L373 1470 L373 356 Z"/>
      </clipPath>
    </defs>
    <g fill="white" text-rendering="geometricPrecision" shape-rendering="geometricPrecision" transform="translate(-373,-356)" stroke="white">
      <rect x="373" width="1465" height="1114" y="356" clip-path="url(#clipPath2)" stroke="none"/>
    </g>
    <g fill="url(#linearGradient1)" text-rendering="geometricPrecision" shape-rendering="geometricPrecision" transform="matrix(1,0,0,1,-373,-356)" stroke="url(#linearGradient1)">
      <path d="M1298.1066 374.7636 Q1298.1066 372.5136 1300.3566 372.5136 L1366.9415 372.5136 Q1369.1915 372.5136 1369.1915 374.7636 Q1369.1915 377.0136 1335.899 386.0136 Q1302.6066 395.0136 1300.3566 395.0136 Q1298.1066 395.0136 1298.1066 392.7636 Z" clip-path="url(#clipPath2)" stroke="none"/>
    </g>
    <g font-size="10" stroke-linecap="butt" transform="matrix(1,0,0,1,-373,-356)" text-rendering="geometricPrecision" font-family="sans-serif" shape-rendering="geometricPrecision" stroke-miterlimit="1.45">
      <text x="1232.3625" xml:space="preserve" y="764.6279" clip-path="url(#clipPath2)" stroke="none">Mutation Queue</text>
    </g>
    <g font-size="18" stroke-linecap="butt" transform="matrix(1,0,0,1,-373,-356)" text-rendering="geometricPrecision" font-family="sans-serif" shape-rendering="geometricPrecision" stroke-miterlimit="1.45">
      <text x="1343.8448" xml:space="preserve" y="623.4729" clip-path="url(#clipPath2)" stroke="none">Indexer Node1</text>
      <rect fill="none" x="1193.8713" width="476.7969" height="404.6094" y="584.4111" clip-path="url(#clipPath2)"/>
    </g>
    <g fill="rgb(255,204,0)" text-rendering="geometricPrecision" shape-rendering="geometricPrecision" transform="matrix(1,0,0,1,-373,-356)" stroke="rgb(255,204,0)">
      <rect x="1339.7307" width="119.0625" height="80" y="639.7236" clip-path="url(#clipPath2)" stroke="none"/>
    </g>
    <g text-rendering="geometricPrecision" stroke-miterlimit="1.45" shape-rendering="geometricPrecision" font-family="sans-serif" transform="matrix(1,0,0,1,-373,-356)" stroke-linecap="butt">
      <text x="1356.0549" xml:space="preserve" y="657.3251" clip-path="url(#clipPath2)" stroke="none">Index Manager</text>
      <rect fill="none" x="1339.7307" width="119.0625" height="80" y="639.7236" clip-path="url(#clipPath2)"/>
    </g>
    <g fill="rgb(255,204,0)" text-rendering="geometricPrecision" shape-rendering="geometricPrecision" transform="matrix(1,0,0,1,-373,-356)" stroke="rgb(255,204,0)">
      <rect x="1350.5215" width="270.1467" height="145.625" y="764.4111" clip-path="url(#clipPath2)" stroke="none"/>
    </g>
    <g text-rendering="geometricPrecision" stroke-miterlimit="1.45" shape-rendering="geometricPrecision" font-family="sans-serif" transform="matrix(1,0,0,1,-373,-356)" stroke-linecap="butt">
      <text x="1463.546" xml:space="preserve" y="782.0126" clip-path="url(#clipPath2)" stroke="none">Indexer</text>
      <rect fill="none" x="1350.5215" width="270.1467" height="145.625" y="764.4111" clip-path="url(#clipPath2)"/>
    </g>
    <g fill="url(#linearGradient2)" text-rendering="geometricPrecision" shape-rendering="geometricPrecision" transform="matrix(1,0,0,1,-373,-356)" stroke="url(#linearGradient2)">
      <path d="M1354.1057 930.986 C1355.3333 923.8111 1393.7946 923.8111 1395.022 930.986 L1395.022 952.5106 C1393.7946 959.6854 1355.3333 959.6854 1354.1057 952.5106 Z" clip-path="url(#clipPath2)" stroke="none"/>
    </g>
    <g text-rendering="geometricPrecision" stroke-miterlimit="1.45" shape-rendering="geometricPrecision" transform="matrix(1,0,0,1,-373,-356)" stroke-linecap="butt">
      <path fill="none" d="M1354.1057 930.986 C1355.3333 923.8111 1393.7946 923.8111 1395.022 930.986 L1395.022 952.5106 C1393.7946 959.6854 1355.3333 959.6854 1354.1057 952.5106 Z" clip-path="url(#clipPath2)"/>
      <path fill="none" d="M1395.022 930.986 C1393.7946 938.1608 1355.3333 938.1608 1354.1057 930.986" clip-path="url(#clipPath2)"/>
      <text x="1362.5887" font-size="10" y="949.5779" clip-path="url(#clipPath2)" font-family="sans-serif" stroke="none" xml:space="preserve">I1(FI)</text>
    </g>
    <g fill="url(#linearGradient3)" text-rendering="geometricPrecision" shape-rendering="geometricPrecision" transform="matrix(1,0,0,1,-373,-356)" stroke="url(#linearGradient3)">
      <path d="M1395.6682 931.6849 C1396.8213 924.3423 1432.9526 924.3423 1434.1057 931.6849 L1434.1057 953.7125 C1432.9526 961.0551 1396.8213 961.0551 1395.6682 953.7125 Z" clip-path="url(#clipPath2)" stroke="none"/>
    </g>
    <g text-rendering="geometricPrecision" stroke-miterlimit="1.45" shape-rendering="geometricPrecision" transform="matrix(1,0,0,1,-373,-356)" stroke-linecap="butt">
      <path fill="none" d="M1395.6682 931.6849 C1396.8213 924.3423 1432.9526 924.3423 1434.1057 931.6849 L1434.1057 953.7125 C1432.9526 961.0551 1396.8213 961.0551 1395.6682 953.7125 Z" clip-path="url(#clipPath2)"/>
      <path fill="none" d="M1434.1057 931.6849 C1432.9526 939.0274 1396.8213 939.0274 1395.6682 931.6849" clip-path="url(#clipPath2)"/>
      <text x="1402.7166" font-size="10" y="950.5676" clip-path="url(#clipPath2)" font-family="sans-serif" stroke="none" xml:space="preserve">I1(BI)</text>
    </g>
    <g fill="url(#linearGradient4)" text-rendering="geometricPrecision" shape-rendering="geometricPrecision" transform="matrix(1,0,0,1,-373,-356)" stroke="url(#linearGradient4)">
      <rect x="1256.8245" width="29.6" height="20.8" y="778.5111" clip-path="url(#clipPath2)" stroke="none"/>
    </g>
    <g text-rendering="geometricPrecision" stroke-miterlimit="1.45" shape-rendering="geometricPrecision" transform="matrix(1,0,0,1,-373,-356)" stroke-linecap="butt">
      <rect fill="none" x="1256.8245" width="29.6" height="20.8" y="778.5111" clip-path="url(#clipPath2)"/>
      <path fill="none" d="M1266.8245 778.5111 L1266.8245 799.3111 M1276.4244 778.5111 L1276.4244 799.3111 M1266.8245 778.5111 Z" clip-path="url(#clipPath2)"/>
    </g>
    <g fill="url(#linearGradient5)" text-rendering="geometricPrecision" shape-rendering="geometricPrecision" transform="matrix(1,0,0,1,-373,-356)" stroke="url(#linearGradient5)">
      <rect x="1226.4245" width="30.4" height="20.8" y="778.5111" clip-path="url(#clipPath2)" stroke="none"/>
    </g>
    <g text-rendering="geometricPrecision" stroke-miterlimit="1.45" shape-rendering="geometricPrecision" transform="matrix(1,0,0,1,-373,-356)" stroke-linecap="butt">
      <rect fill="none" x="1226.4245" width="30.4" height="20.8" y="778.5111" clip-path="url(#clipPath2)"/>
      <path fill="none" d="M1236.4244 778.5111 L1236.4244 799.3111 M1246.8245 778.5111 L1246.8245 799.3111 M1236.4244 778.5111 Z" clip-path="url(#clipPath2)"/>
    </g>
    <g fill="url(#linearGradient6)" text-rendering="geometricPrecision" shape-rendering="geometricPrecision" transform="matrix(1,0,0,1,-373,-356)" stroke="url(#linearGradient6)">
      <rect x="1286.8245" width="29.6" height="20.8" y="778.5111" clip-path="url(#clipPath2)" stroke="none"/>
    </g>
    <g text-rendering="geometricPrecision" stroke-miterlimit="1.45" shape-rendering="geometricPrecision" transform="matrix(1,0,0,1,-373,-356)" stroke-linecap="butt">
      <rect fill="none" x="1286.8245" width="29.6" height="20.8" y="778.5111" clip-path="url(#clipPath2)"/>
      <path fill="none" d="M1296.8245 778.5111 L1296.8245 799.3111 M1306.4244 778.5111 L1306.4244 799.3111 M1296.8245 778.5111 Z" clip-path="url(#clipPath2)"/>
    </g>
    <g fill="url(#linearGradient7)" text-rendering="geometricPrecision" shape-rendering="geometricPrecision" transform="matrix(1,0,0,1,-373,-356)" stroke="url(#linearGradient7)">
      <rect x="1257.337" width="29.6" height="20.8" y="836.8486" clip-path="url(#clipPath2)" stroke="none"/>
    </g>
    <g text-rendering="geometricPrecision" stroke-miterlimit="1.45" shape-rendering="geometricPrecision" transform="matrix(1,0,0,1,-373,-356)" stroke-linecap="butt">
      <rect fill="none" x="1257.337" width="29.6" height="20.8" y="836.8486" clip-path="url(#clipPath2)"/>
      <path fill="none" d="M1267.3369 836.8486 L1267.3369 857.6486 M1276.937 836.8486 L1276.937 857.6486 M1267.3369 836.8486 Z" clip-path="url(#clipPath2)"/>
    </g>
    <g fill="url(#linearGradient8)" text-rendering="geometricPrecision" shape-rendering="geometricPrecision" transform="matrix(1,0,0,1,-373,-356)" stroke="url(#linearGradient8)">
      <rect x="1226.937" width="30.4" height="20.8" y="836.8486" clip-path="url(#clipPath2)" stroke="none"/>
    </g>
    <g text-rendering="geometricPrecision" stroke-miterlimit="1.45" shape-rendering="geometricPrecision" transform="matrix(1,0,0,1,-373,-356)" stroke-linecap="butt">
      <rect fill="none" x="1226.937" width="30.4" height="20.8" y="836.8486" clip-path="url(#clipPath2)"/>
      <path fill="none" d="M1236.937 836.8486 L1236.937 857.6486 M1247.3369 836.8486 L1247.3369 857.6486 M1236.937 836.8486 Z" clip-path="url(#clipPath2)"/>
    </g>
    <g fill="url(#linearGradient9)" text-rendering="geometricPrecision" shape-rendering="geometricPrecision" transform="matrix(1,0,0,1,-373,-356)" stroke="url(#linearGradient9)">
      <rect x="1287.337" width="29.6" height="20.8" y="836.8486" clip-path="url(#clipPath2)" stroke="none"/>
    </g>
    <g text-rendering="geometricPrecision" stroke-miterlimit="1.45" shape-rendering="geometricPrecision" transform="matrix(1,0,0,1,-373,-356)" stroke-linecap="butt">
      <rect fill="none" x="1287.337" width="29.6" height="20.8" y="836.8486" clip-path="url(#clipPath2)"/>
      <path fill="none" d="M1297.3369 836.8486 L1297.3369 857.6486 M1306.937 836.8486 L1306.937 857.6486 M1297.3369 836.8486 Z" clip-path="url(#clipPath2)"/>
    </g>
    <g font-size="18" stroke-linecap="butt" transform="matrix(1,0,0,1,-373,-356)" text-rendering="geometricPrecision" font-family="sans-serif" shape-rendering="geometricPrecision" stroke-miterlimit="1.45">
      <text x="1345.9736" xml:space="preserve" y="1073.0264" clip-path="url(#clipPath2)" stroke="none">Indexer Node2</text>
      <rect fill="none" x="1195.8245" width="477.1875" height="421.1458" y="1033.1611" clip-path="url(#clipPath2)"/>
    </g>
    <g fill="gray" text-rendering="geometricPrecision" shape-rendering="geometricPrecision" transform="matrix(1,0,0,1,-373,-356)" stroke="gray">
      <rect x="1344.7307" width="119.0625" height="80" y="1089.7236" clip-path="url(#clipPath2)" stroke="none"/>
    </g>
    <g text-rendering="geometricPrecision" stroke-miterlimit="1.45" shape-rendering="geometricPrecision" font-family="sans-serif" transform="matrix(1,0,0,1,-373,-356)" stroke-linecap="butt">
      <text x="1361.0549" xml:space="preserve" y="1134.2588" clip-path="url(#clipPath2)" stroke="none">Index Manager</text>
      <rect fill="none" x="1344.7307" width="119.0625" height="80" y="1089.7236" clip-path="url(#clipPath2)"/>
    </g>
    <g fill="rgb(255,204,0)" text-rendering="geometricPrecision" shape-rendering="geometricPrecision" transform="matrix(1,0,0,1,-373,-356)" stroke="rgb(255,204,0)">
      <rect x="1353.4807" width="266.5625" height="163.75" y="1195.9736" clip-path="url(#clipPath2)" stroke="none"/>
    </g>
    <g text-rendering="geometricPrecision" stroke-miterlimit="1.45" shape-rendering="geometricPrecision" font-family="sans-serif" transform="matrix(1,0,0,1,-373,-356)" stroke-linecap="butt">
      <text x="1464.7131" xml:space="preserve" y="1213.5752" clip-path="url(#clipPath2)" stroke="none">Indexer</text>
      <rect fill="none" x="1353.4807" width="266.5625" height="163.75" y="1195.9736" clip-path="url(#clipPath2)"/>
    </g>
    <g fill="url(#linearGradient10)" text-rendering="geometricPrecision" shape-rendering="geometricPrecision" transform="matrix(1,0,0,1,-373,-356)" stroke="url(#linearGradient10)">
      <rect x="1248.412" width="29.6" height="20.8" y="1226.7736" clip-path="url(#clipPath2)" stroke="none"/>
    </g>
    <g text-rendering="geometricPrecision" stroke-miterlimit="1.45" shape-rendering="geometricPrecision" transform="matrix(1,0,0,1,-373,-356)" stroke-linecap="butt">
      <rect fill="none" x="1248.412" width="29.6" height="20.8" y="1226.7736" clip-path="url(#clipPath2)"/>
      <path fill="none" d="M1258.412 1226.7736 L1258.412 1247.5736 M1268.012 1226.7736 L1268.012 1247.5736 M1258.412 1226.7736 Z" clip-path="url(#clipPath2)"/>
    </g>
    <g fill="url(#linearGradient11)" text-rendering="geometricPrecision" shape-rendering="geometricPrecision" transform="matrix(1,0,0,1,-373,-356)" stroke="url(#linearGradient11)">
      <rect x="1218.012" width="30.4" height="20.8" y="1226.7736" clip-path="url(#clipPath2)" stroke="none"/>
    </g>
    <g text-rendering="geometricPrecision" stroke-miterlimit="1.45" shape-rendering="geometricPrecision" transform="matrix(1,0,0,1,-373,-356)" stroke-linecap="butt">
      <rect fill="none" x="1218.012" width="30.4" height="20.8" y="1226.7736" clip-path="url(#clipPath2)"/>
      <path fill="none" d="M1228.012 1226.7736 L1228.012 1247.5736 M1238.412 1226.7736 L1238.412 1247.5736 M1228.012 1226.7736 Z" clip-path="url(#clipPath2)"/>
    </g>
    <g fill="url(#linearGradient12)" text-rendering="geometricPrecision" shape-rendering="geometricPrecision" transform="matrix(1,0,0,1,-373,-356)" stroke="url(#linearGradient12)">
      <rect x="1278.412" width="29.6" height="20.8" y="1226.7736" clip-path="url(#clipPath2)" stroke="none"/>
    </g>
    <g text-rendering="geometricPrecision" stroke-miterlimit="1.45" shape-rendering="geometricPrecision" transform="matrix(1,0,0,1,-373,-356)" stroke-linecap="butt">
      <rect fill="none" x="1278.412" width="29.6" height="20.8" y="1226.7736" clip-path="url(#clipPath2)"/>
      <path fill="none" d="M1288.412 1226.7736 L1288.412 1247.5736 M1298.012 1226.7736 L1298.012 1247.5736 M1288.412 1226.7736 Z" clip-path="url(#clipPath2)"/>
    </g>
    <g fill="url(#linearGradient13)" text-rendering="geometricPrecision" shape-rendering="geometricPrecision" transform="matrix(1,0,0,1,-373,-356)" stroke="url(#linearGradient13)">
      <rect x="1249.212" width="29.6" height="20.8" y="1289.9736" clip-path="url(#clipPath2)" stroke="none"/>
    </g>
    <g text-rendering="geometricPrecision" stroke-miterlimit="1.45" shape-rendering="geometricPrecision" transform="matrix(1,0,0,1,-373,-356)" stroke-linecap="butt">
      <rect fill="none" x="1249.212" width="29.6" height="20.8" y="1289.9736" clip-path="url(#clipPath2)"/>
      <path fill="none" d="M1259.2119 1289.9736 L1259.2119 1310.7736 M1268.812 1289.9736 L1268.812 1310.7736 M1259.2119 1289.9736 Z" clip-path="url(#clipPath2)"/>
    </g>
    <g fill="url(#linearGradient14)" text-rendering="geometricPrecision" shape-rendering="geometricPrecision" transform="matrix(1,0,0,1,-373,-356)" stroke="url(#linearGradient14)">
      <rect x="1218.812" width="30.4" height="20.8" y="1289.9736" clip-path="url(#clipPath2)" stroke="none"/>
    </g>
    <g text-rendering="geometricPrecision" stroke-miterlimit="1.45" shape-rendering="geometricPrecision" transform="matrix(1,0,0,1,-373,-356)" stroke-linecap="butt">
      <rect fill="none" x="1218.812" width="30.4" height="20.8" y="1289.9736" clip-path="url(#clipPath2)"/>
      <path fill="none" d="M1228.812 1289.9736 L1228.812 1310.7736 M1239.2119 1289.9736 L1239.2119 1310.7736 M1228.812 1289.9736 Z" clip-path="url(#clipPath2)"/>
    </g>
    <g fill="url(#linearGradient15)" text-rendering="geometricPrecision" shape-rendering="geometricPrecision" transform="matrix(1,0,0,1,-373,-356)" stroke="url(#linearGradient15)">
      <rect x="1279.212" width="29.6" height="20.8" y="1289.9736" clip-path="url(#clipPath2)" stroke="none"/>
    </g>
    <g text-rendering="geometricPrecision" stroke-miterlimit="1.45" shape-rendering="geometricPrecision" transform="matrix(1,0,0,1,-373,-356)" stroke-linecap="butt">
      <rect fill="none" x="1279.212" width="29.6" height="20.8" y="1289.9736" clip-path="url(#clipPath2)"/>
      <path fill="none" d="M1289.2119 1289.9736 L1289.2119 1310.7736 M1298.812 1289.9736 L1298.812 1310.7736 M1289.2119 1289.9736 Z" clip-path="url(#clipPath2)"/>
    </g>
    <g font-size="10" stroke-linecap="butt" transform="matrix(1,0,0,1,-373,-356)" text-rendering="geometricPrecision" font-family="sans-serif" shape-rendering="geometricPrecision" stroke-miterlimit="1.45">
      <text x="1226.7375" xml:space="preserve" y="1216.0029" clip-path="url(#clipPath2)" stroke="none">Mutation Queue</text>
      <text x="1224.5134" xml:space="preserve" y="1279.7529" clip-path="url(#clipPath2)" stroke="none">Catchup Queue</text>
      <text x="1232.8884" xml:space="preserve" y="826.7529" clip-path="url(#clipPath2)" stroke="none">Catchup Queue</text>
      <text x="617.6011" xml:space="preserve" font-size="18" y="626.5466" clip-path="url(#clipPath2)" stroke="none">KVNode1</text>
      <rect fill="none" x="388.4286" width="538.9583" height="407.1875" y="579.7236" clip-path="url(#clipPath2)"/>
    </g>
    <g fill="rgb(255,204,0)" text-rendering="geometricPrecision" shape-rendering="geometricPrecision" transform="matrix(1,0,0,1,-373,-356)" stroke="rgb(255,204,0)">
      <rect x="407.6995" width="160.625" height="310.9375" y="636.2861" clip-path="url(#clipPath2)" stroke="none"/>
    </g>
    <g text-rendering="geometricPrecision" stroke-miterlimit="1.45" shape-rendering="geometricPrecision" font-family="sans-serif" transform="matrix(1,0,0,1,-373,-356)" stroke-linecap="butt">
      <text x="457.8127" xml:space="preserve" y="653.8876" clip-path="url(#clipPath2)" stroke="none">ep-engine</text>
      <rect fill="none" x="407.6995" width="160.625" height="310.9375" y="636.2861" clip-path="url(#clipPath2)"/>
    </g>
    <g fill="rgb(255,204,0)" text-rendering="geometricPrecision" shape-rendering="geometricPrecision" transform="matrix(1,0,0,1,-373,-356)" stroke="rgb(255,204,0)">
      <rect x="636.762" width="123.125" height="210" y="691.5986" clip-path="url(#clipPath2)" stroke="none"/>
    </g>
    <g text-rendering="geometricPrecision" stroke-miterlimit="1.45" shape-rendering="geometricPrecision" font-family="sans-serif" transform="matrix(1,0,0,1,-373,-356)" stroke-linecap="butt">
      <text x="672.2415" xml:space="preserve" y="709.2001" clip-path="url(#clipPath2)" stroke="none">Projector</text>
      <rect fill="none" x="636.762" width="123.125" height="210" y="691.5986" clip-path="url(#clipPath2)"/>
    </g>
    <g fill="rgb(255,204,0)" text-rendering="geometricPrecision" shape-rendering="geometricPrecision" transform="matrix(1,0,0,1,-373,-356)" stroke="rgb(255,204,0)">
      <rect x="814.887" width="95" height="72.5" y="760.3486" clip-path="url(#clipPath2)" stroke="none"/>
    </g>
    <g text-rendering="geometricPrecision" stroke-miterlimit="1.45" shape-rendering="geometricPrecision" font-family="sans-serif" transform="matrix(1,0,0,1,-373,-356)" stroke-linecap="butt">
      <text x="843.1418" xml:space="preserve" y="801.1337" clip-path="url(#clipPath2)" stroke="none">Router</text>
      <rect fill="none" x="814.887" width="95" height="72.5" y="760.3486" clip-path="url(#clipPath2)"/>
    </g>
    <g fill="url(#linearGradient16)" text-rendering="geometricPrecision" shape-rendering="geometricPrecision" transform="matrix(1,0,0,1,-373,-356)" stroke="url(#linearGradient16)">
      <path d="M1514.312 645.7236 C1516.1119 637.7236 1572.512 637.7236 1574.312 645.7236 L1574.312 669.7236 C1572.512 677.7236 1516.1119 677.7236 1514.312 669.7236 Z" clip-path="url(#clipPath2)" stroke="none"/>
    </g>
    <g text-rendering="geometricPrecision" stroke-miterlimit="1.45" shape-rendering="geometricPrecision" transform="matrix(1,0,0,1,-373,-356)" stroke-linecap="butt">
      <path fill="none" d="M1514.312 645.7236 C1516.1119 637.7236 1572.512 637.7236 1574.312 645.7236 L1574.312 669.7236 C1572.512 677.7236 1516.1119 677.7236 1514.312 669.7236 Z" clip-path="url(#clipPath2)"/>
      <path fill="none" d="M1574.312 645.7236 C1572.512 653.7236 1516.1119 653.7236 1514.312 645.7236" clip-path="url(#clipPath2)"/>
      <text x="1517.5962" xml:space="preserve" y="662.2587" font-family="sans-serif" clip-path="url(#clipPath2)" stroke="none">Metadata</text>
    </g>
    <g fill="url(#linearGradient17)" text-rendering="geometricPrecision" shape-rendering="geometricPrecision" transform="matrix(1,0,0,1,-373,-356)" stroke="url(#linearGradient17)">
      <path d="M1525.512 1117.7236 C1527.312 1109.7236 1583.7119 1109.7236 1585.512 1117.7236 L1585.512 1141.7236 C1583.7119 1149.7236 1527.312 1149.7236 1525.512 1141.7236 Z" clip-path="url(#clipPath2)" stroke="none"/>
    </g>
    <g text-rendering="geometricPrecision" stroke-miterlimit="1.45" shape-rendering="geometricPrecision" transform="matrix(1,0,0,1,-373,-356)" stroke-linecap="butt">
      <path fill="none" d="M1525.512 1117.7236 C1527.312 1109.7236 1583.7119 1109.7236 1585.512 1117.7236 L1585.512 1141.7236 C1583.7119 1149.7236 1527.312 1149.7236 1525.512 1141.7236 Z" clip-path="url(#clipPath2)"/>
      <path fill="none" d="M1585.512 1117.7236 C1583.7119 1125.7236 1527.312 1125.7236 1525.512 1117.7236" clip-path="url(#clipPath2)"/>
      <text x="1528.7961" xml:space="preserve" y="1134.2588" font-family="sans-serif" clip-path="url(#clipPath2)" stroke="none">Metadata</text>
    </g>
    <g fill="rgb(204,255,204)" text-rendering="geometricPrecision" shape-rendering="geometricPrecision" transform="matrix(1,0,0,1,-373,-356)" stroke="rgb(204,255,204)">
      <rect x="455.1275" width="25" height="28.75" y="701.5668" clip-path="url(#clipPath2)" stroke="none"/>
    </g>
    <g text-rendering="geometricPrecision" stroke-miterlimit="1.45" shape-rendering="geometricPrecision" font-family="sans-serif" transform="matrix(1,0,0,1,-373,-356)" stroke-linecap="butt">
      <text x="456.9517" xml:space="preserve" y="720.4769" clip-path="url(#clipPath2)" stroke="none">vb1</text>
      <rect fill="none" x="455.1275" width="25" height="28.75" y="701.5668" clip-path="url(#clipPath2)"/>
    </g>
    <g fill="rgb(204,255,204)" text-rendering="geometricPrecision" shape-rendering="geometricPrecision" transform="matrix(1,0,0,1,-373,-356)" stroke="rgb(204,255,204)">
      <rect x="495.0815" width="25" height="28.75" y="702.4998" clip-path="url(#clipPath2)" stroke="none"/>
    </g>
    <g text-rendering="geometricPrecision" stroke-miterlimit="1.45" shape-rendering="geometricPrecision" font-family="sans-serif" transform="matrix(1,0,0,1,-373,-356)" stroke-linecap="butt">
      <text x="496.9057" xml:space="preserve" y="721.41" clip-path="url(#clipPath2)" stroke="none">vb2</text>
      <rect fill="none" x="495.0815" width="25" height="28.75" y="702.4998" clip-path="url(#clipPath2)"/>
    </g>
    <g fill="silver" text-rendering="geometricPrecision" shape-rendering="geometricPrecision" transform="matrix(1,0,0,1,-373,-356)" stroke="silver">
      <rect x="455.0715" width="25" height="28.75" y="747.9738" clip-path="url(#clipPath2)" stroke="none"/>
    </g>
    <g text-rendering="geometricPrecision" stroke-miterlimit="1.45" shape-rendering="geometricPrecision" font-family="sans-serif" transform="matrix(1,0,0,1,-373,-356)" stroke-linecap="butt">
      <text x="456.8957" xml:space="preserve" y="766.884" clip-path="url(#clipPath2)" stroke="none">vb3</text>
      <rect fill="none" x="455.0715" width="25" height="28.75" y="747.9738" clip-path="url(#clipPath2)"/>
    </g>
    <g fill="silver" text-rendering="geometricPrecision" shape-rendering="geometricPrecision" transform="matrix(1,0,0,1,-373,-356)" stroke="silver">
      <rect x="494.5755" width="25" height="28.75" y="748.9068" clip-path="url(#clipPath2)" stroke="none"/>
    </g>
    <g text-rendering="geometricPrecision" stroke-miterlimit="1.45" shape-rendering="geometricPrecision" font-family="sans-serif" transform="matrix(1,0,0,1,-373,-356)" stroke-linecap="butt">
      <text x="496.3997" xml:space="preserve" y="767.817" clip-path="url(#clipPath2)" stroke="none">vb4</text>
      <rect fill="none" x="494.5755" width="25" height="28.75" y="748.9068" clip-path="url(#clipPath2)"/>
    </g>
    <g fill="url(#linearGradient18)" text-rendering="geometricPrecision" shape-rendering="geometricPrecision" transform="matrix(1,0,0,1,-373,-356)" stroke="url(#linearGradient18)">
      <rect x="1375.656" width="19.52" height="13.0176" y="816.5304" clip-path="url(#clipPath2)" stroke="none"/>
    </g>
    <g text-rendering="geometricPrecision" stroke-miterlimit="1.45" shape-rendering="geometricPrecision" transform="matrix(1,0,0,1,-373,-356)" stroke-linecap="butt">
      <rect fill="none" x="1375.656" width="19.52" height="13.0176" y="816.5304" clip-path="url(#clipPath2)"/>
      <path fill="none" d="M1385.416 816.5304 L1385.416 829.548 M1385.416 816.5304 L1385.416 829.548 M1385.416 816.5304 Z" clip-path="url(#clipPath2)"/>
    </g>
    <g fill="url(#linearGradient19)" text-rendering="geometricPrecision" shape-rendering="geometricPrecision" transform="matrix(1,0,0,1,-373,-356)" stroke="url(#linearGradient19)">
      <rect x="1394.296" width="19.52" height="13.0176" y="816.5304" clip-path="url(#clipPath2)" stroke="none"/>
    </g>
    <g text-rendering="geometricPrecision" stroke-miterlimit="1.45" shape-rendering="geometricPrecision" transform="matrix(1,0,0,1,-373,-356)" stroke-linecap="butt">
      <rect fill="none" x="1394.296" width="19.52" height="13.0176" y="816.5304" clip-path="url(#clipPath2)"/>
      <path fill="none" d="M1404.056 816.5304 L1404.056 829.548 M1404.056 816.5304 L1404.056 829.548 M1404.056 816.5304 Z" clip-path="url(#clipPath2)"/>
    </g>
    <g font-size="8" stroke-linecap="butt" transform="matrix(1,0,0,1,-373,-356)" text-rendering="geometricPrecision" font-family="sans-serif" shape-rendering="geometricPrecision" stroke-miterlimit="1.45">
      <text x="1379.416" xml:space="preserve" y="809.4702" clip-path="url(#clipPath2)" stroke="none">B1(HWT)</text>
    </g>
    <g fill="url(#linearGradient20)" text-rendering="geometricPrecision" shape-rendering="geometricPrecision" transform="matrix(1,0,0,1,-373,-356)" stroke="url(#linearGradient20)">
      <rect x="1354.28" width="19.52" height="11.8" y="669.8618" clip-path="url(#clipPath2)" stroke="none"/>
    </g>
    <g text-rendering="geometricPrecision" stroke-miterlimit="1.45" shape-rendering="geometricPrecision" transform="matrix(1,0,0,1,-373,-356)" stroke-linecap="butt">
      <rect fill="none" x="1354.28" width="19.52" height="11.8" y="669.8618" clip-path="url(#clipPath2)"/>
      <path fill="none" d="M1364.04 669.8618 L1364.04 681.6618 M1364.04 669.8618 L1364.04 681.6618 M1364.04 669.8618 Z" clip-path="url(#clipPath2)"/>
    </g>
    <g fill="url(#linearGradient21)" text-rendering="geometricPrecision" shape-rendering="geometricPrecision" transform="matrix(1,0,0,1,-373,-356)" stroke="url(#linearGradient21)">
      <rect x="1372.92" width="19.52" height="11.8" y="669.8618" clip-path="url(#clipPath2)" stroke="none"/>
    </g>
    <g text-rendering="geometricPrecision" stroke-miterlimit="1.45" shape-rendering="geometricPrecision" transform="matrix(1,0,0,1,-373,-356)" stroke-linecap="butt">
      <rect fill="none" x="1372.92" width="19.52" height="11.8" y="669.8618" clip-path="url(#clipPath2)"/>
      <path fill="none" d="M1382.6801 669.8618 L1382.6801 681.6618 M1382.6801 669.8618 L1382.6801 681.6618 M1382.6801 669.8618 Z" clip-path="url(#clipPath2)"/>
    </g>
    <g font-size="10" stroke-linecap="butt" transform="matrix(1,0,0,1,-373,-356)" text-rendering="geometricPrecision" font-family="sans-serif" shape-rendering="geometricPrecision" stroke-miterlimit="1.45">
      <text x="1358.356" xml:space="preserve" y="695.1611" clip-path="url(#clipPath2)" stroke="none">B1(ST)</text>
    </g>
    <g fill="url(#linearGradient22)" text-rendering="geometricPrecision" shape-rendering="geometricPrecision" transform="matrix(1,0,0,1,-373,-356)" stroke="url(#linearGradient22)">
      <rect x="1423.1331" width="19.52" height="13.0176" y="817.2157" clip-path="url(#clipPath2)" stroke="none"/>
    </g>
    <g text-rendering="geometricPrecision" stroke-miterlimit="1.45" shape-rendering="geometricPrecision" transform="matrix(1,0,0,1,-373,-356)" stroke-linecap="butt">
      <rect fill="none" x="1423.1331" width="19.52" height="13.0176" y="817.2157" clip-path="url(#clipPath2)"/>
      <path fill="none" d="M1432.8931 817.2157 L1432.8931 830.2333 M1432.8931 817.2157 L1432.8931 830.2333 M1432.8931 817.2157 Z" clip-path="url(#clipPath2)"/>
    </g>
    <g fill="url(#linearGradient23)" text-rendering="geometricPrecision" shape-rendering="geometricPrecision" transform="matrix(1,0,0,1,-373,-356)" stroke="url(#linearGradient23)">
      <rect x="1441.7731" width="19.52" height="13.0176" y="817.2157" clip-path="url(#clipPath2)" stroke="none"/>
    </g>
    <g text-rendering="geometricPrecision" stroke-miterlimit="1.45" shape-rendering="geometricPrecision" transform="matrix(1,0,0,1,-373,-356)" stroke-linecap="butt">
      <rect fill="none" x="1441.7731" width="19.52" height="13.0176" y="817.2157" clip-path="url(#clipPath2)"/>
      <path fill="none" d="M1451.5331 817.2157 L1451.5331 830.2333 M1451.5331 817.2157 L1451.5331 830.2333 M1451.5331 817.2157 Z" clip-path="url(#clipPath2)"/>
    </g>
    <g font-size="8" stroke-linecap="butt" transform="matrix(1,0,0,1,-373,-356)" text-rendering="geometricPrecision" font-family="sans-serif" shape-rendering="geometricPrecision" stroke-miterlimit="1.45">
      <text x="1430.8848" xml:space="preserve" y="810.4575" clip-path="url(#clipPath2)" stroke="none">B1(ST)</text>
    </g>
    <g fill="rgb(204,255,204)" text-rendering="geometricPrecision" shape-rendering="geometricPrecision" transform="matrix(1,0,0,1,-373,-356)" stroke="rgb(204,255,204)">
      <rect x="652.9425" width="96.5625" height="21.25" y="735.3143" clip-path="url(#clipPath2)" stroke="none"/>
    </g>
    <g text-rendering="geometricPrecision" stroke-miterlimit="1.45" shape-rendering="geometricPrecision" font-family="sans-serif" transform="matrix(1,0,0,1,-373,-356)" stroke-linecap="butt">
      <text x="657.4865" xml:space="preserve" y="750.4744" clip-path="url(#clipPath2)" stroke="none">B1(vb1) stream</text>
      <rect fill="none" x="652.9425" width="96.5625" height="21.25" y="735.3143" clip-path="url(#clipPath2)"/>
    </g>
    <g fill="rgb(204,255,204)" text-rendering="geometricPrecision" shape-rendering="geometricPrecision" transform="matrix(1,0,0,1,-373,-356)" stroke="rgb(204,255,204)">
      <rect x="653.0725" width="96.5625" height="20" y="768.8093" clip-path="url(#clipPath2)" stroke="none"/>
    </g>
    <g text-rendering="geometricPrecision" stroke-miterlimit="1.45" shape-rendering="geometricPrecision" font-family="sans-serif" transform="matrix(1,0,0,1,-373,-356)" stroke-linecap="butt">
      <text x="657.6165" xml:space="preserve" y="783.3445" clip-path="url(#clipPath2)" stroke="none">B1(vb2) stream</text>
      <rect fill="none" x="653.0725" width="96.5625" height="20" y="768.8093" clip-path="url(#clipPath2)"/>
      <text x="465.4372" xml:space="preserve" y="1145.6016" clip-path="url(#clipPath2)" stroke="none">Bucket1</text>
      <rect fill="none" x="438.4167" width="100.3125" height="112.8125" y="1128" clip-path="url(#clipPath2)"/>
    </g>
    <g fill="rgb(204,255,204)" text-rendering="geometricPrecision" shape-rendering="geometricPrecision" transform="matrix(1,0,0,1,-373,-356)" stroke="rgb(204,255,204)">
      <rect x="459.2251" width="25" height="28.75" y="841.3875" clip-path="url(#clipPath2)" stroke="none"/>
    </g>
    <g text-rendering="geometricPrecision" stroke-miterlimit="1.45" shape-rendering="geometricPrecision" font-family="sans-serif" transform="matrix(1,0,0,1,-373,-356)" stroke-linecap="butt">
      <text x="461.0493" xml:space="preserve" y="860.2977" clip-path="url(#clipPath2)" stroke="none">vb3</text>
      <rect fill="none" x="459.2251" width="25" height="28.75" y="841.3875" clip-path="url(#clipPath2)"/>
    </g>
    <g fill="rgb(204,255,204)" text-rendering="geometricPrecision" shape-rendering="geometricPrecision" transform="matrix(1,0,0,1,-373,-356)" stroke="rgb(204,255,204)">
      <rect x="495.4291" width="25" height="28.75" y="842.3205" clip-path="url(#clipPath2)" stroke="none"/>
    </g>
    <g text-rendering="geometricPrecision" stroke-miterlimit="1.45" shape-rendering="geometricPrecision" font-family="sans-serif" transform="matrix(1,0,0,1,-373,-356)" stroke-linecap="butt">
      <text x="497.2533" xml:space="preserve" y="861.2307" clip-path="url(#clipPath2)" stroke="none">vb4</text>
      <rect fill="none" x="495.4291" width="25" height="28.75" y="842.3205" clip-path="url(#clipPath2)"/>
    </g>
    <g fill="silver" text-rendering="geometricPrecision" shape-rendering="geometricPrecision" transform="matrix(1,0,0,1,-373,-356)" stroke="silver">
      <rect x="458.7191" width="25" height="28.75" y="889.1445" clip-path="url(#clipPath2)" stroke="none"/>
    </g>
    <g text-rendering="geometricPrecision" stroke-miterlimit="1.45" shape-rendering="geometricPrecision" font-family="sans-serif" transform="matrix(1,0,0,1,-373,-356)" stroke-linecap="butt">
      <text x="460.5433" xml:space="preserve" y="908.0546" clip-path="url(#clipPath2)" stroke="none">vb1</text>
      <rect fill="none" x="458.7191" width="25" height="28.75" y="889.1445" clip-path="url(#clipPath2)"/>
    </g>
    <g fill="silver" text-rendering="geometricPrecision" shape-rendering="geometricPrecision" transform="matrix(1,0,0,1,-373,-356)" stroke="silver">
      <rect x="498.6731" width="25" height="28.75" y="888.8275" clip-path="url(#clipPath2)" stroke="none"/>
    </g>
    <g text-rendering="geometricPrecision" stroke-miterlimit="1.45" shape-rendering="geometricPrecision" font-family="sans-serif" transform="matrix(1,0,0,1,-373,-356)" stroke-linecap="butt">
      <text x="500.4973" xml:space="preserve" y="907.7377" clip-path="url(#clipPath2)" stroke="none">vb2</text>
      <rect fill="none" x="498.6731" width="25" height="28.75" y="888.8275" clip-path="url(#clipPath2)"/>
      <text x="471.7914" xml:space="preserve" y="1286.2891" clip-path="url(#clipPath2)" stroke="none">Bucket2</text>
      <rect fill="none" x="444.7708" width="100.3125" height="112.8125" y="1268.6875" clip-path="url(#clipPath2)"/>
    </g>
    <g fill="rgb(204,255,204)" text-rendering="geometricPrecision" shape-rendering="geometricPrecision" transform="matrix(1,0,0,1,-373,-356)" stroke="rgb(204,255,204)">
      <rect x="650.76" width="96.5625" height="21.25" y="818.4411" clip-path="url(#clipPath2)" stroke="none"/>
    </g>
    <g text-rendering="geometricPrecision" stroke-miterlimit="1.45" shape-rendering="geometricPrecision" font-family="sans-serif" transform="matrix(1,0,0,1,-373,-356)" stroke-linecap="butt">
      <text x="655.304" xml:space="preserve" y="833.6013" clip-path="url(#clipPath2)" stroke="none">B2(vb3) stream</text>
      <rect fill="none" x="650.76" width="96.5625" height="21.25" y="818.4411" clip-path="url(#clipPath2)"/>
    </g>
    <g fill="rgb(204,255,204)" text-rendering="geometricPrecision" shape-rendering="geometricPrecision" transform="matrix(1,0,0,1,-373,-356)" stroke="rgb(204,255,204)">
      <rect x="650.89" width="96.5625" height="20" y="851.9361" clip-path="url(#clipPath2)" stroke="none"/>
    </g>
    <g text-rendering="geometricPrecision" stroke-miterlimit="1.45" shape-rendering="geometricPrecision" font-family="sans-serif" transform="matrix(1,0,0,1,-373,-356)" stroke-linecap="butt">
      <text x="655.434" xml:space="preserve" y="866.4713" clip-path="url(#clipPath2)" stroke="none">B2(vb4) stream</text>
      <rect fill="none" x="650.89" width="96.5625" height="20" y="851.9361" clip-path="url(#clipPath2)"/>
      <text x="619.5923" xml:space="preserve" font-size="18" y="1081.9576" clip-path="url(#clipPath2)" stroke="none">KVNode2</text>
      <rect fill="none" x="390.4198" width="538.9583" height="407.1875" y="1035.1347" clip-path="url(#clipPath2)"/>
    </g>
    <g fill="rgb(255,204,0)" text-rendering="geometricPrecision" shape-rendering="geometricPrecision" transform="matrix(1,0,0,1,-373,-356)" stroke="rgb(255,204,0)">
      <rect x="409.6906" width="160.625" height="310.9375" y="1091.6972" clip-path="url(#clipPath2)" stroke="none"/>
    </g>
    <g text-rendering="geometricPrecision" stroke-miterlimit="1.45" shape-rendering="geometricPrecision" font-family="sans-serif" transform="matrix(1,0,0,1,-373,-356)" stroke-linecap="butt">
      <text x="459.8039" xml:space="preserve" y="1109.2987" clip-path="url(#clipPath2)" stroke="none">ep-engine</text>
      <rect fill="none" x="409.6906" width="160.625" height="310.9375" y="1091.6972" clip-path="url(#clipPath2)"/>
    </g>
    <g fill="rgb(255,204,0)" text-rendering="geometricPrecision" shape-rendering="geometricPrecision" transform="matrix(1,0,0,1,-373,-356)" stroke="rgb(255,204,0)">
      <rect x="638.7531" width="123.125" height="210" y="1147.0097" clip-path="url(#clipPath2)" stroke="none"/>
    </g>
    <g text-rendering="geometricPrecision" stroke-miterlimit="1.45" shape-rendering="geometricPrecision" font-family="sans-serif" transform="matrix(1,0,0,1,-373,-356)" stroke-linecap="butt">
      <text x="674.2326" xml:space="preserve" y="1164.6112" clip-path="url(#clipPath2)" stroke="none">Projector</text>
      <rect fill="none" x="638.7531" width="123.125" height="210" y="1147.0097" clip-path="url(#clipPath2)"/>
    </g>
    <g fill="rgb(255,204,0)" text-rendering="geometricPrecision" shape-rendering="geometricPrecision" transform="matrix(1,0,0,1,-373,-356)" stroke="rgb(255,204,0)">
      <rect x="816.8781" width="95" height="72.5" y="1215.7597" clip-path="url(#clipPath2)" stroke="none"/>
    </g>
    <g text-rendering="geometricPrecision" stroke-miterlimit="1.45" shape-rendering="geometricPrecision" font-family="sans-serif" transform="matrix(1,0,0,1,-373,-356)" stroke-linecap="butt">
      <text x="845.133" xml:space="preserve" y="1256.5448" clip-path="url(#clipPath2)" stroke="none">Router</text>
      <rect fill="none" x="816.8781" width="95" height="72.5" y="1215.7597" clip-path="url(#clipPath2)"/>
    </g>
    <g fill="rgb(204,255,204)" text-rendering="geometricPrecision" shape-rendering="geometricPrecision" transform="matrix(1,0,0,1,-373,-356)" stroke="rgb(204,255,204)">
      <rect x="457.1186" width="25" height="28.75" y="1156.9779" clip-path="url(#clipPath2)" stroke="none"/>
    </g>
    <g text-rendering="geometricPrecision" stroke-miterlimit="1.45" shape-rendering="geometricPrecision" font-family="sans-serif" transform="matrix(1,0,0,1,-373,-356)" stroke-linecap="butt">
      <text x="458.9428" xml:space="preserve" y="1175.8881" clip-path="url(#clipPath2)" stroke="none">vb3</text>
      <rect fill="none" x="457.1186" width="25" height="28.75" y="1156.9779" clip-path="url(#clipPath2)"/>
    </g>
    <g fill="rgb(204,255,204)" text-rendering="geometricPrecision" shape-rendering="geometricPrecision" transform="matrix(1,0,0,1,-373,-356)" stroke="rgb(204,255,204)">
      <rect x="497.0726" width="25" height="28.75" y="1157.9109" clip-path="url(#clipPath2)" stroke="none"/>
    </g>
    <g text-rendering="geometricPrecision" stroke-miterlimit="1.45" shape-rendering="geometricPrecision" font-family="sans-serif" transform="matrix(1,0,0,1,-373,-356)" stroke-linecap="butt">
      <text x="498.8969" xml:space="preserve" y="1176.821" clip-path="url(#clipPath2)" stroke="none">vb4</text>
      <rect fill="none" x="497.0726" width="25" height="28.75" y="1157.9109" clip-path="url(#clipPath2)"/>
    </g>
    <g fill="silver" text-rendering="geometricPrecision" shape-rendering="geometricPrecision" transform="matrix(1,0,0,1,-373,-356)" stroke="silver">
      <rect x="457.0626" width="25" height="28.75" y="1203.3849" clip-path="url(#clipPath2)" stroke="none"/>
    </g>
    <g text-rendering="geometricPrecision" stroke-miterlimit="1.45" shape-rendering="geometricPrecision" font-family="sans-serif" transform="matrix(1,0,0,1,-373,-356)" stroke-linecap="butt">
      <text x="458.8868" xml:space="preserve" y="1222.295" clip-path="url(#clipPath2)" stroke="none">vb1</text>
      <rect fill="none" x="457.0626" width="25" height="28.75" y="1203.3849" clip-path="url(#clipPath2)"/>
    </g>
    <g fill="silver" text-rendering="geometricPrecision" shape-rendering="geometricPrecision" transform="matrix(1,0,0,1,-373,-356)" stroke="silver">
      <rect x="496.5666" width="25" height="28.75" y="1204.3179" clip-path="url(#clipPath2)" stroke="none"/>
    </g>
    <g text-rendering="geometricPrecision" stroke-miterlimit="1.45" shape-rendering="geometricPrecision" font-family="sans-serif" transform="matrix(1,0,0,1,-373,-356)" stroke-linecap="butt">
      <text x="498.3908" xml:space="preserve" y="1223.228" clip-path="url(#clipPath2)" stroke="none">vb2</text>
      <rect fill="none" x="496.5666" width="25" height="28.75" y="1204.3179" clip-path="url(#clipPath2)"/>
    </g>
    <g fill="rgb(204,255,204)" text-rendering="geometricPrecision" shape-rendering="geometricPrecision" transform="matrix(1,0,0,1,-373,-356)" stroke="rgb(204,255,204)">
      <rect x="654.9336" width="96.5625" height="21.25" y="1190.7254" clip-path="url(#clipPath2)" stroke="none"/>
    </g>
    <g text-rendering="geometricPrecision" stroke-miterlimit="1.45" shape-rendering="geometricPrecision" font-family="sans-serif" transform="matrix(1,0,0,1,-373,-356)" stroke-linecap="butt">
      <text x="659.4776" xml:space="preserve" y="1205.8855" clip-path="url(#clipPath2)" stroke="none">B1(vb3) stream</text>
      <rect fill="none" x="654.9336" width="96.5625" height="21.25" y="1190.7254" clip-path="url(#clipPath2)"/>
    </g>
    <g fill="rgb(204,255,204)" text-rendering="geometricPrecision" shape-rendering="geometricPrecision" transform="matrix(1,0,0,1,-373,-356)" stroke="rgb(204,255,204)">
      <rect x="655.0636" width="96.5625" height="20" y="1224.2204" clip-path="url(#clipPath2)" stroke="none"/>
    </g>
    <g text-rendering="geometricPrecision" stroke-miterlimit="1.45" shape-rendering="geometricPrecision" font-family="sans-serif" transform="matrix(1,0,0,1,-373,-356)" stroke-linecap="butt">
      <text x="659.6076" xml:space="preserve" y="1238.7555" clip-path="url(#clipPath2)" stroke="none">B1(vb4) stream</text>
      <rect fill="none" x="655.0636" width="96.5625" height="20" y="1224.2204" clip-path="url(#clipPath2)"/>
    </g>
    <g fill="rgb(204,255,204)" text-rendering="geometricPrecision" shape-rendering="geometricPrecision" transform="matrix(1,0,0,1,-373,-356)" stroke="rgb(204,255,204)">
      <rect x="461.2162" width="25" height="28.75" y="1296.7986" clip-path="url(#clipPath2)" stroke="none"/>
    </g>
    <g text-rendering="geometricPrecision" stroke-miterlimit="1.45" shape-rendering="geometricPrecision" font-family="sans-serif" transform="matrix(1,0,0,1,-373,-356)" stroke-linecap="butt">
      <text x="463.0404" xml:space="preserve" y="1315.7087" clip-path="url(#clipPath2)" stroke="none">vb1</text>
      <rect fill="none" x="461.2162" width="25" height="28.75" y="1296.7986" clip-path="url(#clipPath2)"/>
    </g>
    <g fill="rgb(204,255,204)" text-rendering="geometricPrecision" shape-rendering="geometricPrecision" transform="matrix(1,0,0,1,-373,-356)" stroke="rgb(204,255,204)">
      <rect x="497.4202" width="25" height="28.75" y="1297.7316" clip-path="url(#clipPath2)" stroke="none"/>
    </g>
    <g text-rendering="geometricPrecision" stroke-miterlimit="1.45" shape-rendering="geometricPrecision" font-family="sans-serif" transform="matrix(1,0,0,1,-373,-356)" stroke-linecap="butt">
      <text x="499.2444" xml:space="preserve" y="1316.6417" clip-path="url(#clipPath2)" stroke="none">vb2</text>
      <rect fill="none" x="497.4202" width="25" height="28.75" y="1297.7316" clip-path="url(#clipPath2)"/>
    </g>
    <g fill="silver" text-rendering="geometricPrecision" shape-rendering="geometricPrecision" transform="matrix(1,0,0,1,-373,-356)" stroke="silver">
      <rect x="460.7102" width="25" height="28.75" y="1344.5556" clip-path="url(#clipPath2)" stroke="none"/>
    </g>
    <g text-rendering="geometricPrecision" stroke-miterlimit="1.45" shape-rendering="geometricPrecision" font-family="sans-serif" transform="matrix(1,0,0,1,-373,-356)" stroke-linecap="butt">
      <text x="462.5344" xml:space="preserve" y="1363.4657" clip-path="url(#clipPath2)" stroke="none">vb3</text>
      <rect fill="none" x="460.7102" width="25" height="28.75" y="1344.5556" clip-path="url(#clipPath2)"/>
    </g>
    <g fill="silver" text-rendering="geometricPrecision" shape-rendering="geometricPrecision" transform="matrix(1,0,0,1,-373,-356)" stroke="silver">
      <rect x="500.6642" width="25" height="28.75" y="1344.2386" clip-path="url(#clipPath2)" stroke="none"/>
    </g>
    <g text-rendering="geometricPrecision" stroke-miterlimit="1.45" shape-rendering="geometricPrecision" font-family="sans-serif" transform="matrix(1,0,0,1,-373,-356)" stroke-linecap="butt">
      <text x="502.4884" xml:space="preserve" y="1363.1488" clip-path="url(#clipPath2)" stroke="none">vb4</text>
      <rect fill="none" x="500.6642" width="25" height="28.75" y="1344.2386" clip-path="url(#clipPath2)"/>
    </g>
    <g fill="rgb(204,255,204)" text-rendering="geometricPrecision" shape-rendering="geometricPrecision" transform="matrix(1,0,0,1,-373,-356)" stroke="rgb(204,255,204)">
      <rect x="652.7511" width="96.5625" height="21.25" y="1273.8522" clip-path="url(#clipPath2)" stroke="none"/>
    </g>
    <g text-rendering="geometricPrecision" stroke-miterlimit="1.45" shape-rendering="geometricPrecision" font-family="sans-serif" transform="matrix(1,0,0,1,-373,-356)" stroke-linecap="butt">
      <text x="657.2951" xml:space="preserve" y="1289.0123" clip-path="url(#clipPath2)" stroke="none">B2(vb1) stream</text>
      <rect fill="none" x="652.7511" width="96.5625" height="21.25" y="1273.8522" clip-path="url(#clipPath2)"/>
    </g>
    <g fill="rgb(204,255,204)" text-rendering="geometricPrecision" shape-rendering="geometricPrecision" transform="matrix(1,0,0,1,-373,-356)" stroke="rgb(204,255,204)">
      <rect x="652.8811" width="96.5625" height="20" y="1307.3472" clip-path="url(#clipPath2)" stroke="none"/>
    </g>
    <g text-rendering="geometricPrecision" stroke-miterlimit="1.45" shape-rendering="geometricPrecision" font-family="sans-serif" transform="matrix(1,0,0,1,-373,-356)" stroke-linecap="butt">
      <text x="657.425" xml:space="preserve" y="1321.8823" clip-path="url(#clipPath2)" stroke="none">B2(vb2) stream</text>
      <rect fill="none" x="652.8811" width="96.5625" height="20" y="1307.3472" clip-path="url(#clipPath2)"/>
      <text x="455.6253" xml:space="preserve" y="691.4766" clip-path="url(#clipPath2)" stroke="none">Bucket(B1)</text>
      <rect fill="none" x="435.9583" width="100.3125" height="112.8125" y="673.875" clip-path="url(#clipPath2)"/>
      <text x="458.8545" xml:space="preserve" y="830.6016" clip-path="url(#clipPath2)" stroke="none">Bucket(B2)</text>
      <rect fill="none" x="439.1875" width="100.3125" height="112.8125" y="813" clip-path="url(#clipPath2)"/>
      <text x="458.1461" xml:space="preserve" y="1145.4766" clip-path="url(#clipPath2)" stroke="none">Bucket(B1)</text>
      <rect fill="none" x="438.4792" width="100.3125" height="112.8125" y="1127.875" clip-path="url(#clipPath2)"/>
      <text x="459.042" xml:space="preserve" y="1286.8516" clip-path="url(#clipPath2)" stroke="none">Bucket(B2)</text>
      <rect fill="none" x="439.375" width="100.3125" height="112.8125" y="1269.25" clip-path="url(#clipPath2)"/>
    </g>
    <g fill="url(#linearGradient24)" text-rendering="geometricPrecision" shape-rendering="geometricPrecision" transform="matrix(1,0,0,1,-373,-356)" stroke="url(#linearGradient24)">
      <rect x="1402.56" width="19.52" height="11.8" y="670.7236" clip-path="url(#clipPath2)" stroke="none"/>
    </g>
    <g text-rendering="geometricPrecision" stroke-miterlimit="1.45" shape-rendering="geometricPrecision" transform="matrix(1,0,0,1,-373,-356)" stroke-linecap="butt">
      <rect fill="none" x="1402.56" width="19.52" height="11.8" y="670.7236" clip-path="url(#clipPath2)"/>
      <path fill="none" d="M1412.3199 670.7236 L1412.3199 682.5236 M1412.3199 670.7236 L1412.3199 682.5236 M1412.3199 670.7236 Z" clip-path="url(#clipPath2)"/>
    </g>
    <g fill="url(#linearGradient25)" text-rendering="geometricPrecision" shape-rendering="geometricPrecision" transform="matrix(1,0,0,1,-373,-356)" stroke="url(#linearGradient25)">
      <rect x="1421.2" width="19.52" height="11.8" y="670.7236" clip-path="url(#clipPath2)" stroke="none"/>
    </g>
    <g text-rendering="geometricPrecision" stroke-miterlimit="1.45" shape-rendering="geometricPrecision" transform="matrix(1,0,0,1,-373,-356)" stroke-linecap="butt">
      <rect fill="none" x="1421.2" width="19.52" height="11.8" y="670.7236" clip-path="url(#clipPath2)"/>
      <path fill="none" d="M1430.96 670.7236 L1430.96 682.5236 M1430.96 670.7236 L1430.96 682.5236 M1430.96 670.7236 Z" clip-path="url(#clipPath2)"/>
    </g>
    <g font-size="10" stroke-linecap="butt" transform="matrix(1,0,0,1,-373,-356)" text-rendering="geometricPrecision" font-family="sans-serif" shape-rendering="geometricPrecision" stroke-miterlimit="1.45">
      <text x="1406.636" xml:space="preserve" y="696.0229" clip-path="url(#clipPath2)" stroke="none">B2(ST)</text>
    </g>
    <g fill="url(#linearGradient26)" text-rendering="geometricPrecision" shape-rendering="geometricPrecision" transform="matrix(1,0,0,1,-373,-356)" stroke="url(#linearGradient26)">
      <rect x="1490.812" width="19.52" height="13.0176" y="817.8352" clip-path="url(#clipPath2)" stroke="none"/>
    </g>
    <g text-rendering="geometricPrecision" stroke-miterlimit="1.45" shape-rendering="geometricPrecision" transform="matrix(1,0,0,1,-373,-356)" stroke-linecap="butt">
      <rect fill="none" x="1490.812" width="19.52" height="13.0176" y="817.8352" clip-path="url(#clipPath2)"/>
      <path fill="none" d="M1500.572 817.8352 L1500.572 830.8528 M1500.572 817.8352 L1500.572 830.8528 M1500.572 817.8352 Z" clip-path="url(#clipPath2)"/>
    </g>
    <g fill="url(#linearGradient27)" text-rendering="geometricPrecision" shape-rendering="geometricPrecision" transform="matrix(1,0,0,1,-373,-356)" stroke="url(#linearGradient27)">
      <rect x="1509.452" width="19.52" height="13.0176" y="817.8352" clip-path="url(#clipPath2)" stroke="none"/>
    </g>
    <g text-rendering="geometricPrecision" stroke-miterlimit="1.45" shape-rendering="geometricPrecision" transform="matrix(1,0,0,1,-373,-356)" stroke-linecap="butt">
      <rect fill="none" x="1509.452" width="19.52" height="13.0176" y="817.8352" clip-path="url(#clipPath2)"/>
      <path fill="none" d="M1519.212 817.8352 L1519.212 830.8528 M1519.212 817.8352 L1519.212 830.8528 M1519.212 817.8352 Z" clip-path="url(#clipPath2)"/>
    </g>
    <g font-size="8" stroke-linecap="butt" transform="matrix(1,0,0,1,-373,-356)" text-rendering="geometricPrecision" font-family="sans-serif" shape-rendering="geometricPrecision" stroke-miterlimit="1.45">
      <text x="1494.572" xml:space="preserve" y="810.775" clip-path="url(#clipPath2)" stroke="none">B2(HWT)</text>
    </g>
    <g fill="url(#linearGradient28)" text-rendering="geometricPrecision" shape-rendering="geometricPrecision" transform="matrix(1,0,0,1,-373,-356)" stroke="url(#linearGradient28)">
      <rect x="1538.2891" width="19.52" height="13.0176" y="818.5205" clip-path="url(#clipPath2)" stroke="none"/>
    </g>
    <g text-rendering="geometricPrecision" stroke-miterlimit="1.45" shape-rendering="geometricPrecision" transform="matrix(1,0,0,1,-373,-356)" stroke-linecap="butt">
      <rect fill="none" x="1538.2891" width="19.52" height="13.0176" y="818.5205" clip-path="url(#clipPath2)"/>
      <path fill="none" d="M1548.0491 818.5205 L1548.0491 831.5381 M1548.0491 818.5205 L1548.0491 831.5381 M1548.0491 818.5205 Z" clip-path="url(#clipPath2)"/>
    </g>
    <g fill="url(#linearGradient29)" text-rendering="geometricPrecision" shape-rendering="geometricPrecision" transform="matrix(1,0,0,1,-373,-356)" stroke="url(#linearGradient29)">
      <rect x="1556.9291" width="19.52" height="13.0176" y="818.5205" clip-path="url(#clipPath2)" stroke="none"/>
    </g>
    <g text-rendering="geometricPrecision" stroke-miterlimit="1.45" shape-rendering="geometricPrecision" transform="matrix(1,0,0,1,-373,-356)" stroke-linecap="butt">
      <rect fill="none" x="1556.9291" width="19.52" height="13.0176" y="818.5205" clip-path="url(#clipPath2)"/>
      <path fill="none" d="M1566.6891 818.5205 L1566.6891 831.5381 M1566.6891 818.5205 L1566.6891 831.5381 M1566.6891 818.5205 Z" clip-path="url(#clipPath2)"/>
    </g>
    <g font-size="8" stroke-linecap="butt" transform="matrix(1,0,0,1,-373,-356)" text-rendering="geometricPrecision" font-family="sans-serif" shape-rendering="geometricPrecision" stroke-miterlimit="1.45">
      <text x="1544.7908" xml:space="preserve" y="811.7622" clip-path="url(#clipPath2)" stroke="none">B2(ST)</text>
    </g>
    <g fill="rgb(204,255,204)" text-rendering="geometricPrecision" shape-rendering="geometricPrecision" transform="matrix(1,0,0,1,-373,-356)" stroke="rgb(204,255,204)">
      <rect x="1380.2167" width="33.2" height="30.8" y="844.65" clip-path="url(#clipPath2)" stroke="none"/>
    </g>
    <g text-rendering="geometricPrecision" stroke-miterlimit="1.45" shape-rendering="geometricPrecision" font-family="sans-serif" transform="matrix(1,0,0,1,-373,-356)" stroke-linecap="butt">
      <text x="1391.2942" xml:space="preserve" y="864.5851" clip-path="url(#clipPath2)" stroke="none">I1</text>
      <rect fill="none" x="1380.2167" width="33.2" height="30.8" y="844.65" clip-path="url(#clipPath2)"/>
    </g>
    <g fill="rgb(204,255,204)" text-rendering="geometricPrecision" shape-rendering="geometricPrecision" transform="matrix(1,0,0,1,-373,-356)" stroke="rgb(204,255,204)">
      <rect x="1426.2333" width="33.2" height="30.8" y="844.7" clip-path="url(#clipPath2)" stroke="none"/>
    </g>
    <g text-rendering="geometricPrecision" stroke-miterlimit="1.45" shape-rendering="geometricPrecision" font-family="sans-serif" transform="matrix(1,0,0,1,-373,-356)" stroke-linecap="butt">
      <text x="1437.3109" xml:space="preserve" y="864.6351" clip-path="url(#clipPath2)" stroke="none">I2</text>
      <rect fill="none" x="1426.2333" width="33.2" height="30.8" y="844.7" clip-path="url(#clipPath2)"/>
    </g>
    <g fill="rgb(204,255,204)" text-rendering="geometricPrecision" shape-rendering="geometricPrecision" transform="matrix(1,0,0,1,-373,-356)" stroke="rgb(204,255,204)">
      <rect x="1515.4667" width="33.2" height="30.8" y="844" clip-path="url(#clipPath2)" stroke="none"/>
    </g>
    <g text-rendering="geometricPrecision" stroke-miterlimit="1.45" shape-rendering="geometricPrecision" font-family="sans-serif" transform="matrix(1,0,0,1,-373,-356)" stroke-linecap="butt">
      <text x="1526.5442" xml:space="preserve" y="863.9352" clip-path="url(#clipPath2)" stroke="none">I3</text>
      <rect fill="none" x="1515.4667" width="33.2" height="30.8" y="844" clip-path="url(#clipPath2)"/>
      <rect fill="none" x="1371.4167" width="95.6" height="94.8" y="789.35" clip-path="url(#clipPath2)"/>
      <rect fill="none" x="1485.6333" width="95.6" height="94.8" y="791.3" clip-path="url(#clipPath2)"/>
    </g>
    <g fill="url(#linearGradient30)" text-rendering="geometricPrecision" shape-rendering="geometricPrecision" transform="matrix(1,0,0,1,-373,-356)" stroke="url(#linearGradient30)">
      <rect x="1441.312" width="19.52" height="13.0176" y="1260.3352" clip-path="url(#clipPath2)" stroke="none"/>
    </g>
    <g text-rendering="geometricPrecision" stroke-miterlimit="1.45" shape-rendering="geometricPrecision" transform="matrix(1,0,0,1,-373,-356)" stroke-linecap="butt">
      <rect fill="none" x="1441.312" width="19.52" height="13.0176" y="1260.3352" clip-path="url(#clipPath2)"/>
      <path fill="none" d="M1451.072 1260.3352 L1451.072 1273.3528 M1451.072 1260.3352 L1451.072 1273.3528 M1451.072 1260.3352 Z" clip-path="url(#clipPath2)"/>
    </g>
    <g fill="url(#linearGradient31)" text-rendering="geometricPrecision" shape-rendering="geometricPrecision" transform="matrix(1,0,0,1,-373,-356)" stroke="url(#linearGradient31)">
      <rect x="1459.952" width="19.52" height="13.0176" y="1260.3352" clip-path="url(#clipPath2)" stroke="none"/>
    </g>
    <g text-rendering="geometricPrecision" stroke-miterlimit="1.45" shape-rendering="geometricPrecision" transform="matrix(1,0,0,1,-373,-356)" stroke-linecap="butt">
      <rect fill="none" x="1459.952" width="19.52" height="13.0176" y="1260.3352" clip-path="url(#clipPath2)"/>
      <path fill="none" d="M1469.712 1260.3352 L1469.712 1273.3528 M1469.712 1260.3352 L1469.712 1273.3528 M1469.712 1260.3352 Z" clip-path="url(#clipPath2)"/>
    </g>
    <g font-size="8" stroke-linecap="butt" transform="matrix(1,0,0,1,-373,-356)" text-rendering="geometricPrecision" font-family="sans-serif" shape-rendering="geometricPrecision" stroke-miterlimit="1.45">
      <text x="1445.072" xml:space="preserve" y="1253.275" clip-path="url(#clipPath2)" stroke="none">B2(HWT)</text>
    </g>
    <g fill="url(#linearGradient32)" text-rendering="geometricPrecision" shape-rendering="geometricPrecision" transform="matrix(1,0,0,1,-373,-356)" stroke="url(#linearGradient32)">
      <rect x="1488.7891" width="19.52" height="13.0176" y="1261.0205" clip-path="url(#clipPath2)" stroke="none"/>
    </g>
    <g text-rendering="geometricPrecision" stroke-miterlimit="1.45" shape-rendering="geometricPrecision" transform="matrix(1,0,0,1,-373,-356)" stroke-linecap="butt">
      <rect fill="none" x="1488.7891" width="19.52" height="13.0176" y="1261.0205" clip-path="url(#clipPath2)"/>
      <path fill="none" d="M1498.5491 1261.0205 L1498.5491 1274.0381 M1498.5491 1261.0205 L1498.5491 1274.0381 M1498.5491 1261.0205 Z" clip-path="url(#clipPath2)"/>
    </g>
    <g fill="url(#linearGradient33)" text-rendering="geometricPrecision" shape-rendering="geometricPrecision" transform="matrix(1,0,0,1,-373,-356)" stroke="url(#linearGradient33)">
      <rect x="1507.4291" width="19.52" height="13.0176" y="1261.0205" clip-path="url(#clipPath2)" stroke="none"/>
    </g>
    <g text-rendering="geometricPrecision" stroke-miterlimit="1.45" shape-rendering="geometricPrecision" transform="matrix(1,0,0,1,-373,-356)" stroke-linecap="butt">
      <rect fill="none" x="1507.4291" width="19.52" height="13.0176" y="1261.0205" clip-path="url(#clipPath2)"/>
      <path fill="none" d="M1517.1891 1261.0205 L1517.1891 1274.0381 M1517.1891 1261.0205 L1517.1891 1274.0381 M1517.1891 1261.0205 Z" clip-path="url(#clipPath2)"/>
    </g>
    <g font-size="8" stroke-linecap="butt" transform="matrix(1,0,0,1,-373,-356)" text-rendering="geometricPrecision" font-family="sans-serif" shape-rendering="geometricPrecision" stroke-miterlimit="1.45">
      <text x="1496.5408" xml:space="preserve" y="1254.2622" clip-path="url(#clipPath2)" stroke="none">B2(ST)</text>
    </g>
    <g fill="rgb(204,255,204)" text-rendering="geometricPrecision" shape-rendering="geometricPrecision" transform="matrix(1,0,0,1,-373,-356)" stroke="rgb(204,255,204)">
      <rect x="1465.8727" width="33.2" height="30.8" y="1288.4548" clip-path="url(#clipPath2)" stroke="none"/>
    </g>
    <g text-rendering="geometricPrecision" stroke-miterlimit="1.45" shape-rendering="geometricPrecision" font-family="sans-serif" transform="matrix(1,0,0,1,-373,-356)" stroke-linecap="butt">
      <text x="1476.9502" xml:space="preserve" y="1308.3899" clip-path="url(#clipPath2)" stroke="none">I4</text>
      <rect fill="none" x="1465.8727" width="33.2" height="30.8" y="1288.4548" clip-path="url(#clipPath2)"/>
      <rect fill="none" x="1435.8333" width="95.6" height="94.8" y="1234.7" clip-path="url(#clipPath2)"/>
    </g>
    <g fill="url(#linearGradient34)" text-rendering="geometricPrecision" shape-rendering="geometricPrecision" transform="matrix(1,0,0,1,-373,-356)" stroke="url(#linearGradient34)">
      <path d="M1447.9614 933.5471 C1449.189 926.3722 1487.6503 926.3722 1488.8777 933.5471 L1488.8777 955.0717 C1487.6503 962.2465 1449.189 962.2465 1447.9614 955.0717 Z" clip-path="url(#clipPath2)" stroke="none"/>
    </g>
    <g text-rendering="geometricPrecision" stroke-miterlimit="1.45" shape-rendering="geometricPrecision" transform="matrix(1,0,0,1,-373,-356)" stroke-linecap="butt">
      <path fill="none" d="M1447.9614 933.5471 C1449.189 926.3722 1487.6503 926.3722 1488.8777 933.5471 L1488.8777 955.0717 C1487.6503 962.2465 1449.189 962.2465 1447.9614 955.0717 Z" clip-path="url(#clipPath2)"/>
      <path fill="none" d="M1488.8777 933.5471 C1487.6503 940.7219 1449.189 940.7219 1447.9614 933.5471" clip-path="url(#clipPath2)"/>
      <text x="1456.4445" font-size="10" y="952.139" clip-path="url(#clipPath2)" font-family="sans-serif" stroke="none" xml:space="preserve">I2(FI)</text>
    </g>
    <g fill="url(#linearGradient35)" text-rendering="geometricPrecision" shape-rendering="geometricPrecision" transform="matrix(1,0,0,1,-373,-356)" stroke="url(#linearGradient35)">
      <path d="M1489.5239 934.246 C1490.677 926.9034 1526.8083 926.9034 1527.9614 934.246 L1527.9614 956.2736 C1526.8083 963.6161 1490.677 963.6161 1489.5239 956.2736 Z" clip-path="url(#clipPath2)" stroke="none"/>
    </g>
    <g text-rendering="geometricPrecision" stroke-miterlimit="1.45" shape-rendering="geometricPrecision" transform="matrix(1,0,0,1,-373,-356)" stroke-linecap="butt">
      <path fill="none" d="M1489.5239 934.246 C1490.677 926.9034 1526.8083 926.9034 1527.9614 934.246 L1527.9614 956.2736 C1526.8083 963.6161 1490.677 963.6161 1489.5239 956.2736 Z" clip-path="url(#clipPath2)"/>
      <path fill="none" d="M1527.9614 934.246 C1526.8083 941.5885 1490.677 941.5885 1489.5239 934.246" clip-path="url(#clipPath2)"/>
      <text x="1496.5723" font-size="10" y="953.1287" clip-path="url(#clipPath2)" font-family="sans-serif" stroke="none" xml:space="preserve">I2(BI)</text>
    </g>
    <g fill="url(#linearGradient36)" text-rendering="geometricPrecision" shape-rendering="geometricPrecision" transform="matrix(1,0,0,1,-373,-356)" stroke="url(#linearGradient36)">
      <path d="M1537.6729 933.9193 C1538.9004 926.7444 1577.3617 926.7444 1578.5891 933.9193 L1578.5891 955.4438 C1577.3617 962.6187 1538.9004 962.6187 1537.6729 955.4438 Z" clip-path="url(#clipPath2)" stroke="none"/>
    </g>
    <g text-rendering="geometricPrecision" stroke-miterlimit="1.45" shape-rendering="geometricPrecision" transform="matrix(1,0,0,1,-373,-356)" stroke-linecap="butt">
      <path fill="none" d="M1537.6729 933.9193 C1538.9004 926.7444 1577.3617 926.7444 1578.5891 933.9193 L1578.5891 955.4438 C1577.3617 962.6187 1538.9004 962.6187 1537.6729 955.4438 Z" clip-path="url(#clipPath2)"/>
      <path fill="none" d="M1578.5891 933.9193 C1577.3617 941.0941 1538.9004 941.0941 1537.6729 933.9193" clip-path="url(#clipPath2)"/>
      <text x="1546.1559" font-size="10" y="952.5112" clip-path="url(#clipPath2)" font-family="sans-serif" stroke="none" xml:space="preserve">I3(FI)</text>
    </g>
    <g fill="url(#linearGradient37)" text-rendering="geometricPrecision" shape-rendering="geometricPrecision" transform="matrix(1,0,0,1,-373,-356)" stroke="url(#linearGradient37)">
      <path d="M1579.2354 934.6182 C1580.3884 927.2756 1616.5198 927.2756 1617.6729 934.6182 L1617.6729 956.6458 C1616.5198 963.9883 1580.3884 963.9883 1579.2354 956.6458 Z" clip-path="url(#clipPath2)" stroke="none"/>
    </g>
    <g text-rendering="geometricPrecision" stroke-miterlimit="1.45" shape-rendering="geometricPrecision" transform="matrix(1,0,0,1,-373,-356)" stroke-linecap="butt">
      <path fill="none" d="M1579.2354 934.6182 C1580.3884 927.2756 1616.5198 927.2756 1617.6729 934.6182 L1617.6729 956.6458 C1616.5198 963.9883 1580.3884 963.9883 1579.2354 956.6458 Z" clip-path="url(#clipPath2)"/>
      <path fill="none" d="M1617.6729 934.6182 C1616.5198 941.9607 1580.3884 941.9607 1579.2354 934.6182" clip-path="url(#clipPath2)"/>
      <text x="1586.2837" font-size="10" y="953.5009" clip-path="url(#clipPath2)" font-family="sans-serif" stroke="none" xml:space="preserve">I3(BI)</text>
    </g>
    <g fill="url(#linearGradient38)" text-rendering="geometricPrecision" shape-rendering="geometricPrecision" transform="matrix(1,0,0,1,-373,-356)" stroke="url(#linearGradient38)">
      <path d="M1444.2114 1391.797 C1445.439 1384.6222 1483.9003 1384.6222 1485.1277 1391.797 L1485.1277 1413.3217 C1483.9003 1420.4965 1445.439 1420.4965 1444.2114 1413.3217 Z" clip-path="url(#clipPath2)" stroke="none"/>
    </g>
    <g text-rendering="geometricPrecision" stroke-miterlimit="1.45" shape-rendering="geometricPrecision" transform="matrix(1,0,0,1,-373,-356)" stroke-linecap="butt">
      <path fill="none" d="M1444.2114 1391.797 C1445.439 1384.6222 1483.9003 1384.6222 1485.1277 1391.797 L1485.1277 1413.3217 C1483.9003 1420.4965 1445.439 1420.4965 1444.2114 1413.3217 Z" clip-path="url(#clipPath2)"/>
      <path fill="none" d="M1485.1277 1391.797 C1483.9003 1398.9719 1445.439 1398.9719 1444.2114 1391.797" clip-path="url(#clipPath2)"/>
      <text x="1452.6945" font-size="10" y="1410.389" clip-path="url(#clipPath2)" font-family="sans-serif" stroke="none" xml:space="preserve">I4(FI)</text>
    </g>
    <g fill="url(#linearGradient39)" text-rendering="geometricPrecision" shape-rendering="geometricPrecision" transform="matrix(1,0,0,1,-373,-356)" stroke="url(#linearGradient39)">
      <path d="M1485.7739 1392.496 C1486.927 1385.1534 1523.0583 1385.1534 1524.2114 1392.496 L1524.2114 1414.5236 C1523.0583 1421.8661 1486.927 1421.8661 1485.7739 1414.5236 Z" clip-path="url(#clipPath2)" stroke="none"/>
    </g>
    <g text-rendering="geometricPrecision" stroke-miterlimit="1.45" shape-rendering="geometricPrecision" transform="matrix(1,0,0,1,-373,-356)" stroke-linecap="butt">
      <path fill="none" d="M1485.7739 1392.496 C1486.927 1385.1534 1523.0583 1385.1534 1524.2114 1392.496 L1524.2114 1414.5236 C1523.0583 1421.8661 1486.927 1421.8661 1485.7739 1414.5236 Z" clip-path="url(#clipPath2)"/>
      <path fill="none" d="M1524.2114 1392.496 C1523.0583 1399.8385 1486.927 1399.8385 1485.7739 1392.496" clip-path="url(#clipPath2)"/>
      <text x="1492.8223" font-size="10" y="1411.3787" clip-path="url(#clipPath2)" font-family="sans-serif" stroke="none" xml:space="preserve">I4(BI)</text>
    </g>
    <g text-rendering="geometricPrecision" stroke-miterlimit="1.45" shape-rendering="geometricPrecision" font-family="sans-serif" transform="matrix(1,0,0,1,-373,-356)" stroke-linecap="butt">
      <text x="595.7263" xml:space="preserve" y="785.2592" clip-path="url(#clipPath2)" stroke="none">1</text>
      <ellipse rx="11.922" fill="none" ry="10.3829" clip-path="url(#clipPath2)" cx="599.5202" cy="780.724"/>
      <text x="596.0933" xml:space="preserve" y="1238.1204" clip-path="url(#clipPath2)" stroke="none">1</text>
      <ellipse rx="11.922" fill="none" ry="10.3829" clip-path="url(#clipPath2)" cx="599.8873" cy="1233.5853"/>
      <text x="781.1223" xml:space="preserve" y="789.0048" clip-path="url(#clipPath2)" stroke="none">2</text>
      <ellipse rx="11.922" fill="none" ry="10.3829" clip-path="url(#clipPath2)" cx="784.9162" cy="784.4697"/>
      <text x="783.2494" xml:space="preserve" y="1243.2938" clip-path="url(#clipPath2)" stroke="none">2</text>
      <ellipse rx="11.922" fill="none" ry="10.3829" clip-path="url(#clipPath2)" cx="787.0434" cy="1238.7587"/>
      <text x="1060.7927" xml:space="preserve" y="777.3574" clip-path="url(#clipPath2)" stroke="none">3</text>
      <ellipse rx="11.922" fill="none" ry="10.3829" clip-path="url(#clipPath2)" cx="1064.5867" cy="772.8223"/>
      <text x="1061.2263" xml:space="preserve" y="1231.7273" clip-path="url(#clipPath2)" stroke="none">3</text>
      <ellipse rx="11.922" fill="none" ry="10.3829" clip-path="url(#clipPath2)" cx="1065.0202" cy="1227.1922"/>
      <text x="1055.6135" xml:space="preserve" y="982.9875" clip-path="url(#clipPath2)" stroke="none">3</text>
      <ellipse rx="11.922" fill="none" ry="10.3829" clip-path="url(#clipPath2)" cx="1059.4075" cy="978.4523"/>
      <text x="1130.1917" xml:space="preserve" y="720.3748" clip-path="url(#clipPath2)" stroke="none">4</text>
      <ellipse rx="11.922" fill="none" ry="10.3829" clip-path="url(#clipPath2)" cx="1133.9855" cy="715.8396"/>
      <text x="1060.6598" xml:space="preserve" y="846.7389" clip-path="url(#clipPath2)" stroke="none">4</text>
      <ellipse rx="11.922" fill="none" ry="10.3829" clip-path="url(#clipPath2)" cx="1064.4538" cy="842.2038"/>
      <text x="1328.5095" xml:space="preserve" y="777.791" clip-path="url(#clipPath2)" stroke="none">5</text>
      <ellipse rx="11.922" fill="none" ry="10.3829" clip-path="url(#clipPath2)" cx="1332.3035" cy="773.2558"/>
      <text x="1321.7291" xml:space="preserve" y="1225.8141" clip-path="url(#clipPath2)" stroke="none">5</text>
      <ellipse rx="11.922" fill="none" ry="10.3829" clip-path="url(#clipPath2)" cx="1325.5231" cy="1221.2789"/>
      <text x="1327.3014" xml:space="preserve" y="835.895" clip-path="url(#clipPath2)" stroke="none">6</text>
      <ellipse rx="11.922" fill="none" ry="10.3829" clip-path="url(#clipPath2)" cx="1331.0954" cy="831.3598"/>
      <text x="1718.5038" xml:space="preserve" y="1039.8604" clip-path="url(#clipPath2)" stroke="none">7</text>
      <ellipse rx="11.922" fill="none" ry="10.3829" clip-path="url(#clipPath2)" cx="1722.2977" cy="1035.3251"/>
      <text x="1321.1974" xml:space="preserve" y="1290.4441" clip-path="url(#clipPath2)" stroke="none">6</text>
      <ellipse rx="11.922" fill="none" ry="10.3829" clip-path="url(#clipPath2)" cx="1324.9913" cy="1285.909"/>
      <text x="1489.7407" xml:space="preserve" y="733.7216" clip-path="url(#clipPath2)" stroke="none">8</text>
      <ellipse rx="11.922" fill="none" ry="10.3829" clip-path="url(#clipPath2)" cx="1493.5347" cy="729.1864"/>
      <text x="1757.5731" xml:space="preserve" y="1100.9874" clip-path="url(#clipPath2)" stroke="none">8</text>
      <ellipse rx="11.922" fill="none" ry="10.3829" clip-path="url(#clipPath2)" cx="1761.3671" cy="1096.4523"/>
      <text x="1488.6541" xml:space="preserve" y="1149.606" clip-path="url(#clipPath2)" stroke="none">9</text>
      <ellipse rx="11.922" fill="none" ry="10.3829" clip-path="url(#clipPath2)" cx="1492.448" cy="1145.0708"/>
      <text x="1478.8563" xml:space="preserve" y="650.4846" clip-path="url(#clipPath2)" stroke="none">9</text>
      <ellipse rx="11.922" fill="none" ry="10.3829" clip-path="url(#clipPath2)" cx="1482.6503" cy="645.9494"/>
      <text x="1534.4324" xml:space="preserve" y="1407.7562" clip-path="url(#clipPath2)" stroke="none">10</text>
      <ellipse rx="11.922" fill="none" ry="10.3829" clip-path="url(#clipPath2)" cx="1542.0202" cy="1403.2211"/>
      <text x="1631.8601" xml:space="preserve" y="950.8372" clip-path="url(#clipPath2)" stroke="none">10</text>
      <ellipse rx="11.922" fill="none" ry="10.3829" clip-path="url(#clipPath2)" cx="1639.448" cy="946.302"/>
      <path fill="none" d="M1458.8281 709.4296 L1460.0789 710.3942 L1468.5509 718.5518 L1475.7924 727.3839 L1481.8035 736.8904 L1486.584 747.0714 L1489.687 756.5595 L1489.7068 756.6575" clip-path="url(#clipPath2)" stroke="red"/>
      <path fill="red" d="M1491.4517 764.465 L1493.714 751.6633 L1489.4888 755.6816 L1483.9548 753.8444 Z" clip-path="url(#clipPath2)" stroke="none"/>
      <path fill="none" d="M1395.6682 910.021 L1395.6682 923.6891" clip-path="url(#clipPath2)"/>
      <path d="M1395.6682 931.6891 L1400.6682 919.6891 L1395.6682 922.6891 L1390.6682 919.6891 Z" clip-path="url(#clipPath2)" stroke="none"/>
      <path fill="none" d="M1316.4418 788.9111 L1342.5464 788.9111" clip-path="url(#clipPath2)"/>
      <path d="M1350.5464 788.9111 L1338.5464 783.9111 L1341.5464 788.9111 L1338.5464 793.9111 Z" clip-path="url(#clipPath2)" stroke="none"/>
      <path fill="none" d="M1316.9191 847.2486 L1342.4977 847.2486" clip-path="url(#clipPath2)"/>
      <path d="M1350.4977 847.2486 L1338.4977 842.2486 L1341.4977 847.2486 L1338.4977 852.2486 Z" clip-path="url(#clipPath2)" stroke="none"/>
      <path fill="none" d="M1458.8353 678.7026 L1546.9481 717.9434 L1586.4479 737.0199 L1622.8955 755.7274 L1656.291 774.0659 L1686.6344 792.0355 L1713.9255 809.6359 L1738.1647 826.8674 L1759.3516 843.73 L1777.4865 860.2234 L1792.5691 876.348 L1804.5996 892.1035 L1813.578 907.49 L1819.5043 922.5075 L1822.3784 937.156 L1822.2004 951.4355 L1818.9703 965.346 L1812.688 978.8875 L1803.3536 992.06 L1790.967 1004.8635 L1775.5284 1017.298 L1757.0376 1029.3635 L1735.4946 1041.0601 L1710.8995 1052.3876 L1683.2523 1063.3461 L1652.553 1073.9355 L1618.8015 1084.1561 L1581.9978 1094.0076 L1542.1421 1103.4901 L1499.2341 1112.6036 L1471.6317 1117.5793" clip-path="url(#clipPath2)" stroke="red"/>
      <path fill="red" d="M1463.7585 1118.9985 L1476.4552 1121.7904 L1472.6158 1117.402 L1474.6812 1111.9491 Z" clip-path="url(#clipPath2)" stroke="none"/>
      <path fill="none" d="M1458.8248 676.6594 L1498.9183 693.6037 L1536.5183 710.6824 L1571.5854 727.879 L1604.1198 745.1934 L1634.1212 762.6257 L1661.59 780.1758 L1686.5258 797.8438 L1708.929 815.6297 L1728.7992 833.5334 L1746.1367 851.555 L1760.9414 869.6944 L1773.2133 887.9517 L1782.9523 906.3269 L1790.1586 924.8199 L1794.832 943.4308 L1796.9727 962.1595 L1796.5806 981.0062 L1793.6556 999.9706 L1788.1979 1019.053 L1780.2073 1038.2532 L1769.684 1057.5712 L1756.6278 1077.0071 L1741.0388 1096.5609 L1722.9171 1116.2325 L1702.2625 1136.0221 L1679.0751 1155.9294 L1653.355 1175.9546 L1626.6641 1194.9839 L1626.5806 1195.0388" clip-path="url(#clipPath2)" stroke="red"/>
      <path fill="red" d="M1619.9381 1199.4972 L1632.6884 1196.9611 L1627.4109 1194.4814 L1627.1152 1188.658 Z" clip-path="url(#clipPath2)" stroke="none"/>
      <path fill="none" d="M1308.0023 1237.1736 L1345.5214 1237.1736" clip-path="url(#clipPath2)"/>
      <path d="M1353.5214 1237.1736 L1341.5214 1232.1736 L1344.5214 1237.1736 L1341.5214 1242.1736 Z" clip-path="url(#clipPath2)" stroke="none"/>
      <path fill="none" d="M1308.8125 1300.3735 L1332.381 1300.3735 L1345.4792 1300.724" clip-path="url(#clipPath2)"/>
      <path d="M1353.4764 1300.9379 L1341.6144 1295.6189 L1344.4796 1300.6973 L1341.347 1305.6152 Z" clip-path="url(#clipPath2)" stroke="none"/>
      <path fill="none" d="M927.3886 784.7778 L996.6294 897.0283 L1064.4486 1010.1193 L1130.8464 1124.0508 L1191.8813 1231.8608" clip-path="url(#clipPath2)"/>
      <path d="M1195.8226 1238.8226 L1194.2618 1225.9166 L1191.3887 1230.9906 L1185.5596 1230.8433 Z" clip-path="url(#clipPath2)" stroke="none"/>
      <path fill="none" d="M927.387 783.3173 L1185.8608 783.3173" clip-path="url(#clipPath2)"/>
      <path d="M1193.8608 783.3173 L1181.8608 778.3173 L1184.8608 783.3173 L1181.8608 788.3173 Z" clip-path="url(#clipPath2)" stroke="none"/>
      <path fill="none" d="M927.374 777.8051 L1331.9706 676.1254" clip-path="url(#clipPath2)" stroke="red"/>
      <path fill="red" d="M1339.7294 674.1755 L1326.8726 672.251 L1331.0007 676.3691 L1329.3099 681.9495 Z" clip-path="url(#clipPath2)" stroke="none"/>
      <path fill="none" d="M568.3245 791.7548 L594.887 791.7548 L594.887 791.5296 L628.7474 791.5296" clip-path="url(#clipPath2)"/>
      <path d="M636.7474 791.5296 L624.7474 786.5296 L627.7474 791.5296 L624.7474 796.5296 Z" clip-path="url(#clipPath2)" stroke="none"/>
      <path fill="none" d="M759.887 796.5986 L771.762 796.5986 L771.762 796.5986 L806.887 796.5986" clip-path="url(#clipPath2)"/>
      <path d="M814.887 796.5986 L802.887 791.5986 L805.887 796.5986 L802.887 801.5986 Z" clip-path="url(#clipPath2)" stroke="none"/>
      <path fill="none" d="M1458.7905 660.6611 L1506.2876 660.6611" clip-path="url(#clipPath2)" stroke="red"/>
      <path fill="red" d="M1514.2876 660.6611 L1502.2876 655.6611 L1505.2876 660.6611 L1502.2876 665.6611 Z" clip-path="url(#clipPath2)" stroke="none"/>
      <path fill="none" d="M1463.7932 1129.7236 L1517.5511 1129.7236" clip-path="url(#clipPath2)" stroke="red"/>
      <path fill="red" d="M1525.5511 1129.7236 L1513.5511 1124.7236 L1516.5511 1129.7236 L1513.5511 1134.7236 Z" clip-path="url(#clipPath2)" stroke="none"/>
      <path fill="none" d="M929.3781 1238.7284 L1041.6898 1238.7284 L1041.6898 1238.9257 L1187.8185 1238.9257" clip-path="url(#clipPath2)"/>
      <path d="M1195.8185 1238.9257 L1183.8185 1233.9257 L1186.8185 1238.9257 L1183.8185 1243.9257 Z" clip-path="url(#clipPath2)" stroke="none"/>
      <path fill="none" d="M929.3863 1236.5332 L968.9418 1163.9429 L1010.3422 1090.0991 L1052.6179 1016.7815 L1095.7688 943.9898 L1139.7949 871.7242 L1184.6964 799.9846 L1189.5573 792.4227" clip-path="url(#clipPath2)"/>
      <path d="M1193.8831 785.6932 L1183.1884 793.0839 L1189.0165 793.264 L1191.6003 798.4912 Z" clip-path="url(#clipPath2)" stroke="none"/>
      <path fill="none" d="M929.3791 1239.9633 L932.9813 1187.6871 L939.6387 1137.7028 L949.3493 1090.0356 L962.1132 1044.6858 L977.9304 1001.6533 L996.801 960.9379 L1018.7247 922.5399 L1043.7019 886.4591 L1071.7323 852.6956 L1102.816 821.2493 L1136.953 792.1204 L1174.1433 765.3086 L1214.387 740.8141 L1257.6838 718.637 L1304.0341 698.777 L1332.1729 688.7852" clip-path="url(#clipPath2)" stroke="red"/>
      <path fill="red" d="M1339.7117 686.1083 L1326.7303 685.4119 L1331.2305 689.1198 L1330.0765 694.8354 Z" clip-path="url(#clipPath2)" stroke="none"/>
      <path fill="none" d="M570.3156 1247.1659 L596.8781 1247.1659 L596.8781 1246.9407 L630.7385 1246.9407" clip-path="url(#clipPath2)"/>
      <path d="M638.7385 1246.9407 L626.7385 1241.9407 L629.7385 1246.9407 L626.7385 1251.9407 Z" clip-path="url(#clipPath2)" stroke="none"/>
      <path fill="none" d="M761.8781 1252.0096 L808.8781 1252.0096" clip-path="url(#clipPath2)"/>
      <path d="M816.8781 1252.0096 L804.8781 1247.0096 L807.8781 1252.0096 L804.8781 1257.0096 Z" clip-path="url(#clipPath2)" stroke="none"/>
      <path fill="none" d="M1489.5239 910.0478 L1489.5239 926.2217" clip-path="url(#clipPath2)"/>
      <path d="M1489.5239 934.2217 L1494.5239 922.2217 L1489.5239 925.2217 L1484.5239 922.2217 Z" clip-path="url(#clipPath2)" stroke="none"/>
      <path fill="none" d="M1579.75 909.9957 L1579.75 925.4365" clip-path="url(#clipPath2)"/>
      <path d="M1579.75 933.4365 L1584.75 921.4365 L1579.75 924.4365 L1574.75 921.4365 Z" clip-path="url(#clipPath2)" stroke="none"/>
      <path fill="none" d="M1486.762 1359.7064 L1486.762 1382.8051" clip-path="url(#clipPath2)"/>
      <path d="M1486.762 1390.8051 L1491.762 1378.8051 L1486.762 1381.8051 L1481.762 1378.8051 Z" clip-path="url(#clipPath2)" stroke="none"/>
    </g>
  </g>
</svg>
