{
    "46b95e6160051c520bbdec3d41b3ff4bcbc3d9af": {
        "point": 1,
        "message": "fix exception logging",
        "author": "cburroughs",
        "date": "2013-03-06 16:34:52-05:00",
        "in_main_branch": true,
        "merge": false
    },
    "995c473e378093a92cf8a5bbbe26db8f570e8894": {
        "point": 1,
        "message": "handle the case of no udp_send_channels found\n\nor other parsing errors.  Fixes #1",
        "author": "cburroughs",
        "date": "2013-03-06 16:41:25-05:00",
        "in_main_branch": true,
        "merge": false
    },
    "ed48f88eb2230c718522c29ee5b2894c60043073": {
        "point": 1,
        "message": "Implemneted support for dynamic prefixes\n(https://github.com/addthis/metrics-reporter-config/issues/3)",
        "author": "Nikolai Grigoriev",
        "date": "2014-01-28 09:52:11-05:00",
        "in_main_branch": true,
        "merge": false
    },
    "13e83875b5c10d9dd62531f6a0473ff833aa2b8a": {
        "point": 1,
        "message": "Adds support for \"prefix\" parameter in Ganglia reporter. The following changes\nare made:\n\n- Pull up the implementation of the \"prefix\" parameter from the GraphiteReporterConfig\n  into the AbstractHostPortReporterConfig so that it can be shared across the\n  graphite and ganglia reporters.\n- Optional support for metrix prefixes in the Ganglia reporter. This feature is only\n  available if you include as a dependency a fork of the metrics project that supports this feature,\n  such as http://github.com/mspiegel/metrics. The vanilla 2.2.0 GangliaReporter does not have support\n  for metric prefixes although this feature has been added in version 3.x of the\n  library.\n- In the MetricPrefixGangliaReporter fixed a bug where empty group prefixes would\n  be appended onto the group name as \"_\". Now only non-empty group prefixes\n  are appended.\n- In GangliaReporterConfig applied the \"prefix\" macro substitution options to\n  the \"groupPrefix\" parameter in case someone would like to use them.\n- Updated README.mdown to reflect that \"prefix\" parameter is available in both\n  graphite and ganglia reporter configs.",
        "author": "Michael Spiegel",
        "date": "2014-03-13 11:17:01-04:00",
        "in_main_branch": true,
        "merge": false
    },
    "d61b45a0899f89043246e90a118e7363b349d8c9": {
        "point": 1,
        "message": "Bug fix. Optional prefix to Ganglia metrics should work with either original or modified metrics-core dependency.",
        "author": "Michael Spiegel",
        "date": "2014-03-13 15:35:29-04:00",
        "in_main_branch": true,
        "merge": false
    },
    "03bf5bd1f3844f222e3367c2377b369e27fcdcfb": {
        "point": 1,
        "message": "Remove defaults for optional RiemannReporter options\n\nDiscovered a bug where the `service` field of the metric emitted by the\n`RiemannReporter` was prepended by a space. Turns out this was caused by\nsetting prefix to an empty string.\n\nTo prevent any similar bugs from occurring I removed all default values\nfrom the `RiemannReporterConfig`.\n\nSetting the optional prefix setting on the RiemannReporter caused th",
        "author": "Dominic LoBue",
        "date": "2014-07-28 10:38:32-04:00",
        "in_main_branch": true,
        "merge": false
    },
    "9a0f6c1a0d2f4d1fe71dcaa735e9f09a82b8bc50": {
        "point": 1,
        "message": "get/set methods GangliaReporterConfig.groupPrefix\n\nFor deserialization library getter and setter methods required.",
        "author": "Michael Spiegel",
        "date": "2014-09-10 10:27:54-04:00",
        "in_main_branch": true,
        "merge": false
    },
    "9a76773f1b61d6b8fc34f41b938b194ef1a227d7": {
        "point": 1,
        "message": "Ensure reporters are stopped following metrics2 StatsD tests.\n\nAlso cleans up test hostnames to use a valid format, along with some\nnitpicky fixes to indentation.",
        "author": "Nick",
        "date": "2016-03-30 18:18:52-07:00",
        "in_main_branch": true,
        "merge": false
    },
    "c9925b053a4798013981c7f3a09d2b9186a0eba6": {
        "point": 1,
        "message": "InfluxDbHttpSender constructor now includes prefix, added in readme",
        "author": "Michal Matloka",
        "date": "2016-07-26 16:00:24+02:00",
        "in_main_branch": true,
        "merge": false
    },
    "24c27bfc3534592ffa630f79ed86a8f8d9077ae4": {
        "point": 1,
        "message": "Make JVM metrics optional and off by default\n\nThis is a quick fix for https://github.com/addthis/metrics-reporter-config/issues/42 though a full suite of configurable options might be better in the future.",
        "author": "Jared Harper",
        "date": "2017-02-07 15:46:53-08:00",
        "in_main_branch": true,
        "merge": false
    }
}