{
    "af89eeb4d3c97df8b989d4b679bd75291e81a520": {
        "point": 1,
        "message": "Fixes #1 and Fixes #2 + some additional small Javadoc patches",
        "author": "Martijn Verburg",
        "date": "2013-05-12 14:38:21+01:00",
        "in_main_branch": true,
        "merge": false
    },
    "c6a3604944e86e5343e9563d55c566f5f2fde1f7": {
        "point": 1,
        "message": "Fixes #8",
        "author": "Martijn Verburg",
        "date": "2013-05-12 16:33:35+01:00",
        "in_main_branch": true,
        "merge": false
    },
    "81e1934a575919c6c00a42a2e20dfefd9c9e719d": {
        "point": 1,
        "message": "Fixes #5 Remove Javdoc warnings",
        "author": "Martijn Verburg",
        "date": "2013-05-13 11:55:12+01:00",
        "in_main_branch": true,
        "merge": false
    },
    "81c0c9dc84bdfed21dffb95a405ca9d7cdd9b787": {
        "point": 1,
        "message": "Minor fixes to Javadoc and add a license statement",
        "author": "Martijn Verburg",
        "date": "2013-10-08 11:00:58+01:00",
        "in_main_branch": true,
        "merge": false
    },
    "3d2f511b9105af8f4d6c2efe2ad3b6ea11c41a34": {
        "point": 1,
        "message": "Fixed invalid attribute name and matching javadoc",
        "author": "Mischa Dasberg",
        "date": "2013-10-14 15:09:35+02:00",
        "in_main_branch": true,
        "merge": false
    },
    "4285690e36c213c5632680ec07dfdf476f6c6e83": {
        "point": 1,
        "message": "Fixed incorrect javadoc",
        "author": "Mischa Dasberg",
        "date": "2013-10-14 15:10:00+02:00",
        "in_main_branch": true,
        "merge": false
    },
    "f7e160eb56d507bc04f8a72b199ac24e77431230": {
        "point": 1,
        "message": "Commit accidentally missed files, fix #15.",
        "author": "Graham Allan",
        "date": "2014-02-16 12:21:43+00:00",
        "in_main_branch": true,
        "merge": false
    }
}