{
    "e23dbf58e833e53dd96eeaf99ed6d6c79b05ad0e": {
        "point": 1,
        "message": "fixed: GroovyShellService \u043d\u0435\u043a\u043e\u0440\u0440\u0435\u043a\u0442\u043d\u043e \u0434\u0435\u043b\u0430\u043b cleanup",
        "author": "Denis Bazhenov",
        "date": "2010-01-27 12:14:09+10:00",
        "in_main_branch": true,
        "merge": false
    },
    "046abbf9eae529d26b126064a59ed094e6f31ed1": {
        "point": 1,
        "message": "fixed: \u043e\u0448\u0438\u0431\u043a\u0430 \u0432 \u0437\u0430\u0432\u0438\u0441\u0438\u043c\u043e\u0441\u0442\u044f\u0445",
        "author": "Denis Bazhenov",
        "date": "2010-02-10 16:19:39+10:00",
        "in_main_branch": true,
        "merge": false
    },
    "e4a172df97274d4e06e6935c61df5eb3c1c4a9ea": {
        "point": 1,
        "message": "fixed: \u043a\u043e\u0441\u044f\u043a\u0438 \u0441 \u043b\u043e\u0433\u0433\u0438\u0440\u043e\u0432\u0430\u043d\u0438\u0435 \u0438 \u043e\u0431\u0440\u0430\u0431\u043e\u0442\u043a\u043e\u0439 \u043e\u0448\u0438\u0431\u043e\u0447\u043d\u044b\u0445 \u0441\u0438\u0442\u0443\u0430\u0446\u0438\u0439",
        "author": "Denis Bazhenov",
        "date": "2010-02-10 16:25:11+10:00",
        "in_main_branch": true,
        "merge": false
    },
    "537030a0a02e4a6a27530ee58489cec824d3f6df": {
        "point": 1,
        "message": "fixed: BZR-5200 Error while accepting groovy shell client\nadded: \u0442\u0435\u043f\u0435\u0440\u044c groovy shell \u043f\u043e\u0434\u0434\u0435\u0440\u0436\u0438\u0432\u0430\u0435\u0442 \u0440\u0443\u0441\u0441\u043a\u0438\u0439 \u044f\u0437\u044b\u043a",
        "author": "Denis Bazhenov",
        "date": "2010-02-17 13:49:38+10:00",
        "in_main_branch": true,
        "merge": false
    },
    "a547963d16fccbf459c168e7ab7c0b725e0e1e5a": {
        "point": 1,
        "message": "Make the console thread a daemon instead of the socket thread.  Without this, we will end up blocking on a call to in.read() even when the session is closed, forcing the user to hit enter a couple times to exit.  Also, fix issue where socket reader didn't exit when input was exhausted.",
        "author": "Greg Merrill",
        "date": "2011-09-16 18:09:43-05:00",
        "in_main_branch": true,
        "merge": false
    },
    "8a5d9e0b46481f180240112621f804d9a6d82e58": {
        "point": 1,
        "message": "- fixed setter name in GroovyShellService",
        "author": "Denis Bazhenov",
        "date": "2011-12-06 18:19:21+11:00",
        "in_main_branch": true,
        "merge": false
    },
    "8d45d9b0415057898828245e1646f0155ba3ed2a": {
        "point": 1,
        "message": "Garbage collection fix",
        "author": "anba8005",
        "date": "2014-02-11 22:10:46+02:00",
        "in_main_branch": true,
        "merge": false
    },
    "4b79c9ddce452dda96e8a1f505cf037286cb7192": {
        "point": 1,
        "message": "Fixed a bug in GroovyShellCommand while starting groovysh with empty default scripts",
        "author": "Denis Bazhenov",
        "date": "2014-06-17 14:56:28+11:00",
        "in_main_branch": true,
        "merge": false
    },
    "c3c4f23cfbf60aed34f02a269dabec32e67ed296": {
        "point": 1,
        "message": "Fixed bug hog CPU usage at 100%",
        "author": "Denis Bazhenov",
        "date": "2014-06-24 13:13:18+11:00",
        "in_main_branch": true,
        "merge": false
    }
}