{
    "33ebece0c244cea288feafd07f7149e351b020f2": {
        "point": 1,
        "message": "#10:Fix global handlers issue;",
        "author": "Sergey Zenchenko",
        "date": "2014-01-03 17:22:10+02:00",
        "in_main_branch": true,
        "merge": false
    }
}