{
    "f049312def0163b5134892fa71229d32ae2020c1": {
        "point": 1,
        "message": "Fix options config",
        "author": "Blodjer",
        "date": "2014-10-23 23:43:36+02:00",
        "in_main_branch": true,
        "merge": false
    },
    "2d243733402f27a6409ed12444f836c2f8d56d1d": {
        "point": 1,
        "message": "Hotifx 'restore color' bug with unsupported lights",
        "author": "Blodjer",
        "date": "2014-10-26 09:38:21+01:00",
        "in_main_branch": true,
        "merge": false
    },
    "8ce372cb8e2c40977fe42f6bf764adfc4a596bc1": {
        "point": 1,
        "message": "Fixed null arguments handler",
        "author": "Blodjer",
        "date": "2014-11-01 21:06:29+01:00",
        "in_main_branch": true,
        "merge": false
    },
    "442bf502ea5671cb21d9e1b80b5afa1b3045f73b": {
        "point": 1,
        "message": "Fixed on/off button bug",
        "author": "Blodjer",
        "date": "2014-11-02 15:24:40+01:00",
        "in_main_branch": true,
        "merge": false
    },
    "4f579fb2b981729d80f1bedd991a0f1583e4c05d": {
        "point": 1,
        "message": "Fixed debug formation",
        "author": "Blodjer",
        "date": "2014-11-19 18:19:15+01:00",
        "in_main_branch": true,
        "merge": false
    },
    "bfe5f7d5216f921ec1902a7e9504ae47399d4caa": {
        "point": 1,
        "message": "Fixed problem with different reply amounts",
        "author": "Blodjer",
        "date": "2014-11-24 23:35:54+01:00",
        "in_main_branch": true,
        "merge": false
    },
    "d076ec8d8583bfd38a03920bf158a25496e22714": {
        "point": 1,
        "message": "Add saturation option\n\nfixed brightness slider",
        "author": "Blodjer",
        "date": "2014-12-23 14:34:09+01:00",
        "in_main_branch": true,
        "merge": false
    },
    "6e0bc8b166d1f522f855a84536788def5366804d": {
        "point": 1,
        "message": "Fix main interface loading",
        "author": "Blodjer",
        "date": "2014-12-23 14:40:30+01:00",
        "in_main_branch": true,
        "merge": false
    },
    "4242141ba595615ad1885e14d2c4d76f1d50b419": {
        "point": 1,
        "message": "Fixed settings storing\n\nalso did some code imrovement",
        "author": "Blodjer",
        "date": "2014-12-23 14:54:07+01:00",
        "in_main_branch": true,
        "merge": false
    },
    "4032b0b8e97c45c4fde8f668e83affd784ecddef": {
        "point": 1,
        "message": "Fixed connection with changed bridge ip",
        "author": "Blodjer",
        "date": "2014-12-23 21:03:10+01:00",
        "in_main_branch": true,
        "merge": false
    },
    "cc026a1d999e4298aa15ea93bbe5aafa034b38f5": {
        "point": 1,
        "message": "Fixed output stream connection",
        "author": "Blodjer",
        "date": "2014-12-23 21:32:47+01:00",
        "in_main_branch": true,
        "merge": false
    },
    "ce98bc6e2c6cbf3a0cbb68d1fcdbfd3d362a486d": {
        "point": 1,
        "message": "Fixed problem at second start with unauthorized user",
        "author": "Blodjer",
        "date": "2014-12-23 23:35:16+01:00",
        "in_main_branch": true,
        "merge": false
    },
    "4b7cb78104708b2d3cda3ee76db86b07f59976cf": {
        "point": 1,
        "message": "Fixed settings check",
        "author": "Blodjer",
        "date": "2014-12-23 23:46:27+01:00",
        "in_main_branch": true,
        "merge": false
    }
}