{
    "94fad09253dd32865f7d8d8c12b6ff56525bc2f7": {
        "point": 1,
        "message": "added get user feed request and fix some data types",
        "author": "Bruno Volpato",
        "date": "2017-02-09 18:49:13-08:00",
        "in_main_branch": true,
        "merge": false
    },
    "3f97df12c48e801af4d40626cd0c3a1d35748afa": {
        "point": 1,
        "message": "payload fixes",
        "author": "Bruno Volpato",
        "date": "2017-02-28 10:19:33-08:00",
        "in_main_branch": true,
        "merge": false
    },
    "5ec24caa0c19020b4bbe54637577e02f41ad767b": {
        "point": 1,
        "message": "create hierarchy with status result, and use status code on the result parse to build appropriate responses. fixes #7",
        "author": "Bruno Volpato",
        "date": "2017-03-26 14:06:56-07:00",
        "in_main_branch": true,
        "merge": false
    },
    "05a5d6d8855e8de1497111cf88e1627c869876d7": {
        "point": 1,
        "message": "instagram upload photo returns InstagramConfigurePhotoResult, that can be used to fetch upload id & code. fixes #6",
        "author": "Bruno Volpato",
        "date": "2017-03-26 14:16:14-07:00",
        "in_main_branch": true,
        "merge": false
    },
    "60768b5eb7fb57a58d4a98ca8960047b47bff210": {
        "point": 1,
        "message": "Fix InstagramUploadPhotoRequest still returning StatusResult",
        "author": "Jackbard",
        "date": "2017-03-29 14:30:27+08:00",
        "in_main_branch": true,
        "merge": false
    },
    "0b3e18c678c2254e2204f4107657ef4ed0c278da": {
        "point": 1,
        "message": "Fix constructor. \n\nAdded a constructor to maintain compatibility with previous versions.",
        "author": "Evgeny Bondarenko",
        "date": "2017-06-13 10:54:30+03:00",
        "in_main_branch": true,
        "merge": false
    },
    "b580f357905b7cdd6652ebc3bc1928c22c725107": {
        "point": 1,
        "message": "allow usage of custom CookieStore. fixes #71",
        "author": "Bruno Volpato",
        "date": "2017-10-11 22:51:00-07:00",
        "in_main_branch": true,
        "merge": false
    },
    "e09d50de7a0b84c04a09462193e25b990bc728b9": {
        "point": 1,
        "message": "Fix the license header properly",
        "author": "Akhmad Syaikhul Hadi",
        "date": "2018-01-01 09:23:20+07:00",
        "in_main_branch": true,
        "merge": false
    },
    "d30601ddead8eeb9fc2ad77d59bf6ddb43ea4d2c": {
        "point": 1,
        "message": "Fixed comment count type to match API spec",
        "author": "jdelisle",
        "date": "2018-03-31 20:52:20+11:00",
        "in_main_branch": true,
        "merge": false
    },
    "a8704d152cfb9c7ea4971a6286741acda1d84d58": {
        "point": 1,
        "message": "Fixed InstagramDeleteMediaRequest\n\nProperly delete media",
        "author": "jvogit",
        "date": "2018-04-03 17:32:38-07:00",
        "in_main_branch": true,
        "merge": false
    },
    "f3b527373fa3ff40a11c36bb3ddd5e47e6d0255a": {
        "point": 1,
        "message": "Fix imports to pass check",
        "author": "jvogit",
        "date": "2018-04-21 00:23:12-07:00",
        "in_main_branch": true,
        "merge": false
    },
    "9c6a60ffc182ecefb1440b0a8fd902e12e05cca6": {
        "point": 1,
        "message": "Fix License header",
        "author": "WinSide",
        "date": "2018-05-11 07:54:23+08:00",
        "in_main_branch": true,
        "merge": false
    },
    "7c8cf11a2db251c4eef0cc6b18b440946ff8901a": {
        "point": 1,
        "message": "Change access type for carousel_media and fix InstagramCarouselMediaItem",
        "author": "WinSide",
        "date": "2018-05-11 20:26:55+08:00",
        "in_main_branch": true,
        "merge": false
    },
    "ae85b2b123b0e8dc4ca4b9ac77a981e210e0e8c7": {
        "point": 1,
        "message": "license format fix",
        "author": "Bruno Volpato",
        "date": "2018-07-04 18:55:55-07:00",
        "in_main_branch": true,
        "merge": false
    },
    "37e5ef512f9c67c44faa34f3ec1522d24129d777": {
        "point": 1,
        "message": "fix javadocs",
        "author": "Bruno Volpato",
        "date": "2019-03-13 13:36:54-07:00",
        "in_main_branch": true,
        "merge": false
    }
}