{
    "ff7ef374ba85a8f197aa2679b7cad74801865181": {
        "point": 1,
        "message": "fixed torture test and upgraded to leveldbjni1.7 (since 1.5 causes jvm crash on linux64bit)",
        "author": "subes",
        "date": "2013-10-19 17:23:55+02:00",
        "in_main_branch": true,
        "merge": false
    },
    "393f8a4f9ccb64a7755b3cd632f007b7c80dd2f0": {
        "point": 1,
        "message": "fix segfault on rangeReverse when entering with a range key that is\nlarger than the max value, also some additional test cases",
        "author": "subes",
        "date": "2015-01-24 14:59:38+01:00",
        "in_main_branch": true,
        "merge": false
    },
    "8edfd54d87361add8a0b0587fc6a83d760f25a1f": {
        "point": 1,
        "message": "a few more tests and fixes for rangeReverse with null ranges",
        "author": "subes",
        "date": "2015-01-24 16:55:06+01:00",
        "in_main_branch": true,
        "merge": false
    },
    "4ac092a182a4b63664c1cc79008d393f33d08e7f": {
        "point": 1,
        "message": "javadoc fix",
        "author": "subes",
        "date": "2015-01-24 16:59:01+01:00",
        "in_main_branch": true,
        "merge": false
    },
    "8de246f9cdfad9d71905d74bd07f7783b966e3f2": {
        "point": 1,
        "message": "bugfix for variations of datasets",
        "author": "subes",
        "date": "2015-01-24 20:23:21+01:00",
        "in_main_branch": true,
        "merge": false
    },
    "7168854f5cb87d7e51124075cd9c7e1e41b5c8a9": {
        "point": 1,
        "message": "serdeComparator nullpointer fix",
        "author": "subes",
        "date": "2015-01-24 23:49:00+01:00",
        "in_main_branch": true,
        "merge": false
    },
    "2134b6073cc207b1fa33b38a3f4f07a2da72eafd": {
        "point": 1,
        "message": "toRangeKey should be inclusive in the results of range(), fixed",
        "author": "subes",
        "date": "2015-01-25 00:17:59+01:00",
        "in_main_branch": true,
        "merge": false
    },
    "32bfd5aab845c77e6367ec306eb7007d82f19aad": {
        "point": 1,
        "message": "bugfix for stock retrieval and also a performance improvement by\ndelegating to appropriate methods depending on given arguments",
        "author": "subes",
        "date": "2015-01-25 01:08:12+01:00",
        "in_main_branch": true,
        "merge": false
    },
    "e074ac632db6fde959ebd7dbef2d416531b5836c": {
        "point": 1,
        "message": "date import fix for TypeDelegateSerde",
        "author": "subes",
        "date": "2015-01-25 12:51:00+01:00",
        "in_main_branch": true,
        "merge": false
    },
    "f741fa3860649bfec075611f02c4062ee54318fd": {
        "point": 1,
        "message": "type check fix",
        "author": "subes",
        "date": "2015-01-25 12:51:30+01:00",
        "in_main_branch": true,
        "merge": false
    },
    "06056ee565340110269a7fe91ab0d66cd8bfaa9d": {
        "point": 1,
        "message": "small fixes",
        "author": "subes",
        "date": "2018-10-18 20:12:32+02:00",
        "in_main_branch": true,
        "merge": false
    },
    "61d25ee2398e54f327a74b8d914d5502bf7c34f5": {
        "point": 1,
        "message": "fix closing iterator",
        "author": "subes",
        "date": "2018-10-20 20:26:37+02:00",
        "in_main_branch": true,
        "merge": false
    },
    "2adaccee179614f01e1c7e5af82a4f731e4e72cc": {
        "point": 1,
        "message": "fix another race condition",
        "author": "subes",
        "date": "2018-11-08 11:16:12+01:00",
        "in_main_branch": true,
        "merge": false
    },
    "8a81713d21de6b4ed5d05b3aca21ee187b6c4424": {
        "point": 1,
        "message": "fix leveldb tests",
        "author": "subes",
        "date": "2019-06-10 20:49:33+02:00",
        "in_main_branch": true,
        "merge": false
    }
}