{
    "187d7c99b46a6247d4d35cf9f2f660f371f4b13b": {
        "point": 1,
        "message": "Fix double grant_type bug",
        "author": "Anthony Weems",
        "date": "2016-09-27 17:28:39-05:00",
        "in_main_branch": true,
        "merge": false
    },
    "794ac87eb9499df121851cc2015b8a00800a905a": {
        "point": 1,
        "message": "Fix double grant_type bug\n\nThe grant_type=authorization_code param is specified twice: in the URL\nand in the request body. For some reason this was fine until yesterday,\nbut the OAuth endpoint policies must have become stricter, and now it\nmay be counting the param twice and therefore failing to complete the\nauth process.\n\nChange-Id: I0de0f57ae0ce80417795352ea9419297c296c414\nContributed-By: Anthony Weems <anthony.weems@praetorian.com>\nBug: Issue 4661",
        "author": "David Ostrovsky",
        "date": "2016-09-29 04:17:04+00:00",
        "in_main_branch": true,
        "merge": false
    },
    "b96abebc8e342fde1798ebd5c4b56ef37e3d60e8": {
        "point": 1,
        "message": "Fix compile warning\n\nChange-Id: I36d32222e0898c6b45c7eae377458536b09704fd",
        "author": "David Ostrovsky",
        "date": "2017-02-03 08:19:30+01:00",
        "in_main_branch": true,
        "merge": false
    },
    "879bbaed3b16c3b57da1231a135e0cc8e8897e03": {
        "point": 1,
        "message": "Prefix user id with oauth provider name\n\nTo migrate the legacy user id, fixLegacyUserId property must be set to\ntrue for all providers.\n\nBug: Issue https://github.com/davido/gerrit-oauth-provider/issues/82\nChange-Id: I36833b90280b158172423180358faf90ac2b6718",
        "author": "David Ostrovsky",
        "date": "2017-02-04 23:19:14+01:00",
        "in_main_branch": true,
        "merge": false
    },
    "fee9340f4d664444ba48a0ea43747a6ead688875": {
        "point": 1,
        "message": "Fix compile warning\n\nChange-Id: I36d32222e0898c6b45c7eae377458536b09704fd",
        "author": "David Ostrovsky",
        "date": "2017-02-06 22:40:43+01:00",
        "in_main_branch": true,
        "merge": false
    },
    "6663ea4be5a56fbc85010ba3a8c297524af1b8f4": {
        "point": 1,
        "message": "Prefix user id with oauth provider name\n\nTo migrate the legacy user id, fixLegacyUserId property must be set to\ntrue for all providers.\n\nBug: Issue https://github.com/davido/gerrit-oauth-provider/issues/82\nChange-Id: I36833b90280b158172423180358faf90ac2b6718",
        "author": "David Ostrovsky",
        "date": "2017-02-06 22:40:43+01:00",
        "in_main_branch": true,
        "merge": false
    },
    "6e3db0a94466e907d65a67d59badc17660dbad18": {
        "point": 1,
        "message": "Google OAuth provider: Allow multiple hosted domains\n\nAnd fix documentation.\n\nChange-Id: I658ae45b80d62b34e53727f9607798b788e425b5",
        "author": "Alexander Kojevnikov",
        "date": "2017-07-09 05:12:25+00:00",
        "in_main_branch": true,
        "merge": false
    },
    "d33c0f1c283afa7ab0ae45932d2b9de63e1f17f6": {
        "point": 1,
        "message": "GitLabApi: Fix eclipse warnings\n\nChange-Id: Ib95f3d7c7cd75d60a269e183547b283a8291b1fd",
        "author": "David Ostrovsky",
        "date": "2017-07-09 08:10:43+02:00",
        "in_main_branch": true,
        "merge": false
    },
    "2926f603cff282ec23dab48cf680cc3e782284ea": {
        "point": 1,
        "message": "Fix CAS OAuth support (for CAS v5 and higher)\n\nCAS OAuth support was (probably) broken for all CAS versions.\nThis change fixes support for CAS v5+ (tested against CAS 5.1).\nIt will not work with CAS 4 and earlier.\n\nDocumentation on CAS as an OAuth server:\nhttps://apereo.github.io/cas/5.1.x/installation/OAuth-OpenId-Authentication.html\n\nBug: https://github.com/davido/gerrit-oauth-provider/issues/92\nChange-Id: I74874577d2e055d345fad94984b9b3792305894c",
        "author": "Matthew Webber",
        "date": "2017-08-31 08:08:06+02:00",
        "in_main_branch": true,
        "merge": false
    },
    "b637a183c5efbb4f0607372805e60a843c4ab3a5": {
        "point": 1,
        "message": "FacebookApi: Use access token json extractor\n\nFixes: [1] / #103.\n\n[1] https://github.com/davido/gerrit-oauth-provider/issues/103\n\nChange-Id: I14ea93a857a2f9cfb425ede1f7923ec42f221931",
        "author": "David Ostrovsky",
        "date": "2018-03-04 13:00:09+01:00",
        "in_main_branch": true,
        "merge": false
    },
    "0244138ffb5a50282768bfcd9afa6dff4815d99c": {
        "point": 1,
        "message": "Fix GitLab and Bitbucket services\n\nSince commit I37bd47ac0c there is a precondition\ncheck to ensure that raw is not null and passing\nin null will result in a server error.\n\nInstead of passing in null, pass in the raw response.\n\nChange-Id: I537d017575948a4c262d55a736810f08f607e135\nSigned-off-by: Alexander Martinz <alex@amartinz.at>",
        "author": "Alexander Martinz",
        "date": "2018-09-17 16:30:02+02:00",
        "in_main_branch": true,
        "merge": false
    }
}