{
    "4b3361a65758e6430f3cd6ed5b8ae3b0dbc78215": {
        "point": 1,
        "message": "Fixed an encoding issue.",
        "author": "Andrew Lee",
        "date": "2013-03-01 16:05:53-08:00",
        "in_main_branch": true,
        "merge": false
    },
    "21411d83e8af82c0ee5d0553210511c240bbaf9a": {
        "point": 1,
        "message": "Fixed incorrect documentation for TokenOptions.\n\nThe 'expires' and 'notBefore' documentation verbiage was transposed.",
        "author": "Vikrum Nijjar",
        "date": "2014-01-06 18:43:35+00:00",
        "in_main_branch": true,
        "merge": false
    }
}