{
    "e1acde0504eb8edb19b589facca24cfbc4ecbf2f": {
        "point": 1,
        "message": "various convenience methods, fix for absolute uri",
        "author": "trs",
        "date": "2012-03-30 04:20:11+02:00",
        "in_main_branch": true,
        "merge": false
    },
    "10bfa33125a4a597175edd07c98783776e0280dc": {
        "point": 1,
        "message": "fixed javadoc, type check for anon records, fixed warnings",
        "author": "trs",
        "date": "2012-04-03 14:56:08+02:00",
        "in_main_branch": true,
        "merge": false
    },
    "0ddd5e205699cb0e9883b79d7ab25e993814ad5d": {
        "point": 1,
        "message": "fix default constructor",
        "author": "trs",
        "date": "2012-04-07 03:25:32+02:00",
        "in_main_branch": true,
        "merge": false
    },
    "2319cc30a54d91da04ac3e8c8f89b44da4c6e84c": {
        "point": 1,
        "message": "fixed exception text",
        "author": "trs",
        "date": "2012-04-07 03:37:30+02:00",
        "in_main_branch": true,
        "merge": false
    },
    "fa917d0abb37e248e90aba9a130766c34b0b003c": {
        "point": 1,
        "message": "source text encoding fix",
        "author": "trs",
        "date": "2012-04-07 03:43:51+02:00",
        "in_main_branch": true,
        "merge": false
    },
    "33b5757e851f353006302566c6d6821d553f06d1": {
        "point": 1,
        "message": "fixed imports",
        "author": "trs",
        "date": "2012-04-09 02:42:40+02:00",
        "in_main_branch": true,
        "merge": false
    },
    "1bd8a113df52352385f7d94b73bd52eef4f0a67b": {
        "point": 1,
        "message": "fixed javadoc, killed snippet",
        "author": "trs",
        "date": "2012-04-09 02:50:37+02:00",
        "in_main_branch": true,
        "merge": false
    },
    "2cf064edd561e5819bdda37ddcb2260e6eb56038": {
        "point": 1,
        "message": "fix minor version to 0x02 for handover select record",
        "author": "trs",
        "date": "2012-04-10 01:26:06+02:00",
        "in_main_branch": true,
        "merge": false
    },
    "8e3a543e7093c81a2da71d9a0030c4dbe545c2b8": {
        "point": 1,
        "message": "fix convenience method",
        "author": "trs",
        "date": "2012-04-10 18:52:28+02:00",
        "in_main_branch": true,
        "merge": false
    },
    "282685959a20db1943389912eb19bf46cb010515": {
        "point": 1,
        "message": "fixed round trip test, fixed error record decoder, action encoder",
        "author": "trs",
        "date": "2012-04-12 13:18:44+02:00",
        "in_main_branch": true,
        "merge": false
    },
    "db5a07c99921224cce8dc12ca8bf2de068e1f363": {
        "point": 1,
        "message": "Added ndef encoder exception, added encoding checks and added test\nsuite, fixed test case.",
        "author": "trs",
        "date": "2012-04-18 12:12:18+02:00",
        "in_main_branch": true,
        "merge": false
    },
    "dcd0580fb295db72e62547ee5c142c2161acdae6": {
        "point": 1,
        "message": "Fixed signature record, added encode exception and more checks, added\nunsupported record type for decode/encode transparency.",
        "author": "trs",
        "date": "2012-04-18 13:56:19+02:00",
        "in_main_branch": true,
        "merge": false
    },
    "ec02396a0ca95078b4b0b7e1b96cb6d15ffa5258": {
        "point": 1,
        "message": "fixed bug as reported by findbugs",
        "author": "trs",
        "date": "2012-04-23 11:48:02+02:00",
        "in_main_branch": true,
        "merge": false
    },
    "27bad2cfddd56c199fd9968516a1e09bf80d32ca": {
        "point": 1,
        "message": "SPR bugfix",
        "author": "Adrian Stabiszewski",
        "date": "2012-04-26 16:41:46+02:00",
        "in_main_branch": true,
        "merge": false
    },
    "fe75c6932f070833ca3ac127989503d660745608": {
        "point": 1,
        "message": "bug fix",
        "author": "Adrian Stabiszewski",
        "date": "2012-05-25 12:19:20+02:00",
        "in_main_branch": true,
        "merge": false
    },
    "db4ede98a668b9a009fb21c0c19f751e1b9d1a79": {
        "point": 1,
        "message": "fixed login problem with mf classic cards",
        "author": "Adrian Stabiszewski",
        "date": "2013-05-06 11:05:47+02:00",
        "in_main_branch": true,
        "merge": false
    },
    "58c873f2cd43d7a5baa128450dcb433aac3d89b2": {
        "point": 1,
        "message": "fixed typo, added ISO-DEP type",
        "author": "Adrian Stabiszewski",
        "date": "2013-11-08 10:42:46+01:00",
        "in_main_branch": true,
        "merge": false
    },
    "121711406a0a61be761e5afa04967b1cf0d1d4f6": {
        "point": 1,
        "message": "byte fix",
        "author": "Adrian Stabiszewski",
        "date": "2013-12-26 16:47:32+01:00",
        "in_main_branch": true,
        "merge": false
    }
}