{
    "1e5df6b508ccfb4d1228c7dc2e6d71adb9711aab": {
        "point": 1,
        "message": "Little fixes - start implementing change to deleteRow",
        "author": "jonahneugeboren",
        "date": "2015-07-17 11:47:03-04:00",
        "in_main_branch": true,
        "merge": false
    },
    "b3fa440d59955182560785f4d6053df1e884e098": {
        "point": 1,
        "message": "Fixed bug with enter button in password window",
        "author": "jonahneugeboren",
        "date": "2015-07-21 10:38:42-04:00",
        "in_main_branch": true,
        "merge": false
    },
    "150131ce1d2c418dd75e7b950ff2be9d0c8ff68d": {
        "point": 1,
        "message": "Changed window sizings, made things look less awkward, minor bug fixes",
        "author": "jonahneugeboren",
        "date": "2015-07-22 14:42:11-04:00",
        "in_main_branch": true,
        "merge": false
    },
    "fb7c9aed48d0da73eac9c1867d48aa4e4410228e": {
        "point": 1,
        "message": "Minor bug fixes + moved set password window (may undo)",
        "author": "jonahneugeboren",
        "date": "2015-07-22 16:25:46-04:00",
        "in_main_branch": true,
        "merge": false
    },
    "64ed1b617d02c73cba6142203199cbfad2f0db06": {
        "point": 1,
        "message": "Updated UI (Contains bug)",
        "author": "jonahneugeboren",
        "date": "2015-07-28 14:35:50-04:00",
        "in_main_branch": true,
        "merge": false
    },
    "d8ae0afdac23eca6e7f14eca4aaad0f2e9a24024": {
        "point": 1,
        "message": "Fixed window sizing bug",
        "author": "jonahneugeboren",
        "date": "2015-07-29 09:40:14-04:00",
        "in_main_branch": true,
        "merge": false
    },
    "67c9b9bb57949a4acac83da0d4cbcad4d7fac599": {
        "point": 1,
        "message": "Changed delete functionality, added X buttons next to each row in edit\nwindow, bug fixes",
        "author": "jonahneugeboren",
        "date": "2015-07-31 09:54:16-04:00",
        "in_main_branch": true,
        "merge": false
    },
    "3104c10d3c545f992934b5f5f06110bdd012e3a4": {
        "point": 1,
        "message": "Fixed saving bug",
        "author": "jonahneugeboren",
        "date": "2015-07-31 10:12:14-04:00",
        "in_main_branch": true,
        "merge": false
    },
    "5d05ee866152459d891a2eecdba16ebd1d84ac50": {
        "point": 1,
        "message": "Fixed saving bug",
        "author": "jonahneugeboren",
        "date": "2015-08-05 09:33:31-04:00",
        "in_main_branch": true,
        "merge": false
    },
    "9f35ce322ddf28aeb2d0d38b4f7b70ecfa01f513": {
        "point": 1,
        "message": "Fixed bug saving empty provider",
        "author": "jonahneugeboren",
        "date": "2015-08-05 10:07:16-04:00",
        "in_main_branch": true,
        "merge": false
    },
    "2f3cd327aa19c7b8ed0569280ddacdd21b7bb913": {
        "point": 1,
        "message": "Fixed focus bug after deleting row - could not press enter",
        "author": "jonahneugeboren",
        "date": "2015-08-05 10:15:07-04:00",
        "in_main_branch": true,
        "merge": false
    },
    "e700161dd0c8b318b49aeddfef9b562e0cca2587": {
        "point": 1,
        "message": "Fixed bug deleting rows after opening edit window that previously had\nempty rows, removed extra code in delteRow method.",
        "author": "jonahneugeboren",
        "date": "2015-08-05 14:17:31-04:00",
        "in_main_branch": true,
        "merge": false
    },
    "a40e60fb01cb227a955fef8162bfb372dfbdaa0a": {
        "point": 1,
        "message": "Fixed save file bug when running on a computer for the first time",
        "author": "jonahneugeboren",
        "date": "2015-09-01 13:53:47-04:00",
        "in_main_branch": true,
        "merge": false
    },
    "4bef8638ec427013a2411932b18ddb236effdf96": {
        "point": 1,
        "message": "Fixed initial launch bug",
        "author": "jonahneugeboren",
        "date": "2015-09-03 10:26:11-04:00",
        "in_main_branch": true,
        "merge": false
    },
    "6024aee25dcb3c73e0e1669b07ac9b45df8e77f3": {
        "point": 1,
        "message": "Fixed GUI bug while setting password",
        "author": "jonahneugeboren",
        "date": "2015-09-03 11:48:43-04:00",
        "in_main_branch": true,
        "merge": false
    },
    "8c68bcf26bd58cb8f66c1de8e6c1cb5379a48961": {
        "point": 1,
        "message": "Fixed password bug",
        "author": "jonahneugeboren",
        "date": "2015-09-03 11:54:17-04:00",
        "in_main_branch": true,
        "merge": false
    },
    "16e0f2d9c4e7d7523395e64cb21bddd84d34423f": {
        "point": 1,
        "message": "fixed copy/paste problem; edit window location is remembered; gridbaglayout implemented",
        "author": "Aaron Kitzmiller",
        "date": "2015-09-15 17:10:46-04:00",
        "in_main_branch": true,
        "merge": false
    }
}