{
    "6db46224780377c90cc7434c58a31cb1b815863b": {
        "point": 1,
        "message": "fix compilation errors from refactoring",
        "author": "Adam Batkin",
        "date": "2015-04-17 03:47:05-04:00",
        "in_main_branch": true,
        "merge": false
    },
    "9210de01941b10dbeeb83888bc74e56dc45f80e5": {
        "point": 1,
        "message": "fixed a typo",
        "author": "balopat",
        "date": "2015-04-28 09:00:18-04:00",
        "in_main_branch": true,
        "merge": false
    },
    "c63d2bea41426bff473d25d90eea833a1a686d9c": {
        "point": 1,
        "message": "Support formatted messages (fixes #3)",
        "author": "Adam Batkin",
        "date": "2015-07-22 21:07:33-04:00",
        "in_main_branch": true,
        "merge": false
    },
    "4a5ac1c289ae24b54aea97fac926c99732a24d67": {
        "point": 1,
        "message": "make log index use PatternLayout too (fixes #4)",
        "author": "Adam Batkin",
        "date": "2015-07-28 20:56:29-04:00",
        "in_main_branch": true,
        "merge": false
    },
    "163674513f32853936442d035c53c829b3e8cdb7": {
        "point": 1,
        "message": "fix import issue",
        "author": "Ben Flowers",
        "date": "2017-08-24 11:24:03+01:00",
        "in_main_branch": true,
        "merge": false
    }
}