{
    "d11e28cd3e7460f6994edd652471c0332f9e21a1": {
        "point": 1,
        "message": "Find usages for statement identifiers. Finds self-references, this should be fixed.",
        "author": "Max Ishchenko",
        "date": "2012-01-07 01:47:49+04:00",
        "in_main_branch": true,
        "merge": false
    },
    "f492020fdf5da2a3837fa5c9f96599ee4e04ba84": {
        "point": 1,
        "message": "StringIndexOutOfBoundsException fixed",
        "author": "Max Ishchenko",
        "date": "2012-03-02 22:32:31+04:00",
        "in_main_branch": true,
        "merge": false
    },
    "371ecebdd1446f87cc5d0bc5d6f8e1ee75d192b9": {
        "point": 1,
        "message": "Red circle of death fixed when you had some empty namespaces and invoked auto completion",
        "author": "Max Ishchenko",
        "date": "2013-04-25 22:15:38+04:00",
        "in_main_branch": true,
        "merge": false
    },
    "0ea820ab2fc3c7e0b50d758e4e8aff90e38e1d3a": {
        "point": 1,
        "message": "Fixed iBATIS references in Groovy strings",
        "author": "Max Ishchenko",
        "date": "2013-04-29 23:54:29+04:00",
        "in_main_branch": true,
        "merge": false
    },
    "7fb0711851cd8d3f1191fd10911f4d1ba1259e60": {
        "point": 1,
        "message": "Returning null if no Editor bound to dataContext in IdentifiableStatementHierarchyProvider#getTarget. Fixes #9",
        "author": "Max Ishchenko",
        "date": "2013-08-01 21:04:48+04:00",
        "in_main_branch": true,
        "merge": false
    },
    "f1ec2281d1e5a5486c6a89f52020c1849b4e34ab": {
        "point": 1,
        "message": "Copy Reference for sqlMap statements fixed",
        "author": "Max Ishchenko",
        "date": "2013-09-04 23:02:58+04:00",
        "in_main_branch": true,
        "merge": false
    }
}