{
    "e1ff9b6c2b763ea0294031dfd1476d0b2cc1fdda": {
        "point": 1,
        "message": "typo fixes and indents",
        "author": "raoulDoc",
        "date": "2013-11-13 20:26:00+00:00",
        "in_main_branch": true,
        "merge": false
    },
    "4104c10cca182d031f77b685f990683c3697e2fc": {
        "point": 1,
        "message": "fix prime number partition",
        "author": "Mario Fusco",
        "date": "2014-01-28 11:36:53+01:00",
        "in_main_branch": true,
        "merge": false
    },
    "56ee0b9e05bc41044c1684d0ed09599af5e9ec31": {
        "point": 1,
        "message": "fix CompletableFuture examples",
        "author": "Mario Fusco",
        "date": "2014-04-24 18:49:44+02:00",
        "in_main_branch": true,
        "merge": false
    },
    "b2338a46e2c6f445066fac833c45fb1d4906df27": {
        "point": 1,
        "message": "fix parallel stream harness",
        "author": "Mario Fusco",
        "date": "2014-05-07 12:07:35+02:00",
        "in_main_branch": true,
        "merge": false
    },
    "b5e879ce6643bcf9b50e79cc3a7cc39d445884e4": {
        "point": 1,
        "message": "fix static init",
        "author": "raoulDoc",
        "date": "2014-07-15 23:10:40+01:00",
        "in_main_branch": true,
        "merge": false
    }
}