{
    "4e2e512b5ac1dc23297e516d1c526f34769dafb5": {
        "point": 1,
        "message": "Fix compile on current java",
        "author": "Patrick Br\u00fcckner",
        "date": "2015-05-09 12:21:48+02:00",
        "in_main_branch": true,
        "merge": false
    },
    "2bd8c29ac857d8d186c64005ffa45412483f7619": {
        "point": 1,
        "message": "Fix reading PDF from stdOut, don't divert through stdOut when writing to file",
        "author": "Patrick Br\u00fcckner",
        "date": "2015-05-11 14:56:40+02:00",
        "in_main_branch": true,
        "merge": false
    },
    "e43748db9052e97edcd3ba70f73431deb641a50c": {
        "point": 1,
        "message": "fix encoding of special chars, add simple test",
        "author": "Patrick Brueckner",
        "date": "2015-07-02 17:46:57+02:00",
        "in_main_branch": true,
        "merge": false
    },
    "48f883b06f6b5c13316e7126d5eaee55ecfcf5cb": {
        "point": 1,
        "message": "fix stalling pdf-process",
        "author": "Thomas Taschauer",
        "date": "2015-10-20 10:38:33+02:00",
        "in_main_branch": true,
        "merge": false
    },
    "ccb2d5fb346778866e6f7ac5b6971a9e11471a6b": {
        "point": 1,
        "message": "Add test case to show the bug",
        "author": "Thomas van Putten",
        "date": "2018-03-12 14:12:10+01:00",
        "in_main_branch": true,
        "merge": false
    },
    "6f9eda86d556129e9f765a5ab6e1a1ac7547c0ad": {
        "point": 1,
        "message": "Fix for the callingGetCommandFollowedByGetPdfShouldNotInfluenceTheOutput bug",
        "author": "Thomas van Putten",
        "date": "2018-03-12 14:18:18+01:00",
        "in_main_branch": true,
        "merge": false
    },
    "736977e9153be614439d463506b17711d8bfe753": {
        "point": 1,
        "message": "Fixed the issue for temp files getting not deleted and getting generated to much\n-Updated test classes, so i can compile successfully (even on a windows machine without Xvfb)\n-Added attribute filePath to the page Class\n-Temp-Files now gets deleted after creating from html string",
        "author": "kdenzel",
        "date": "2018-05-28 19:33:39+02:00",
        "in_main_branch": true,
        "merge": false
    },
    "05babff0d13c8393844bfd864788d50ff0c10f96": {
        "point": 1,
        "message": "getCommandAsArray() handles whitespaces properly\n\nFixes HostNotFoundError for filenames containing whitespaces.",
        "author": "Vit Rozkovec",
        "date": "2019-01-15 23:18:45+01:00",
        "in_main_branch": true,
        "merge": false
    },
    "e5cb99b4d8cba566cc33b4a9f6156d9011f0a18f": {
        "point": 1,
        "message": "Fix for issue where wkhtmltopdf returns 1 for cases where the PDF is generated by some assets are missing.  For some users that case is acceptable.",
        "author": "rsanders-relias",
        "date": "2019-02-05 11:24:39-05:00",
        "in_main_branch": true,
        "merge": false
    }
}