{
    "b76deef393f41bcf4cfc3a94ff6e417faed4782b": {
        "point": 1,
        "message": "- Reduced visibility of callTyped(): Not sure if this method should make\nit into the public API\n- Fixed some typos",
        "author": "Lukas Eder",
        "date": "2012-12-16 11:21:05+01:00",
        "in_main_branch": true,
        "merge": false
    },
    "68fd3efdae2a662351497f7383b9ce72913a5c14": {
        "point": 1,
        "message": "Fixed regression from inlining",
        "author": "Lukas Eder",
        "date": "2012-12-16 11:30:28+01:00",
        "in_main_branch": true,
        "merge": false
    },
    "95df54d2e691cee4b799dec3bdfd4236e24ab162": {
        "point": 1,
        "message": "fix issue #27",
        "author": "Peter Verhas",
        "date": "2016-04-27 21:53:59+02:00",
        "in_main_branch": true,
        "merge": false
    },
    "0bec85529e17b2e78a1cfc78e165eea81a0b1a23": {
        "point": 1,
        "message": "Fix remaining references to BSD style header",
        "author": "lukaseder",
        "date": "2016-08-11 08:20:41+02:00",
        "in_main_branch": true,
        "merge": false
    },
    "a15531afc6f656e7a4e5610cdb25bf7bb99e31b1": {
        "point": 1,
        "message": "Fix ambiguous assertEquals method invocations",
        "author": "Thomas Darimont",
        "date": "2017-04-20 00:47:23+02:00",
        "in_main_branch": true,
        "merge": false
    },
    "a55eec28539d8f01fbed3f9484733ef97b3e1057": {
        "point": 1,
        "message": "Fixed CR/LF",
        "author": "Lukas Eder",
        "date": "2018-08-21 15:00:54+02:00",
        "in_main_branch": true,
        "merge": false
    },
    "98679c5456846bc95b0fc8719094e352aa73d059": {
        "point": 1,
        "message": "fix nep bug when call Reflect.fields method while object field value is null",
        "author": "cheny.huang",
        "date": "2018-09-04 12:16:37+08:00",
        "in_main_branch": true,
        "merge": false
    },
    "c4f250626cef86d36cbb667f0f3d6d853dc7978f": {
        "point": 1,
        "message": "[#71] Fix jOOR-java-8 specific compilation error",
        "author": "lukaseder",
        "date": "2018-12-04 16:21:34+01:00",
        "in_main_branch": true,
        "merge": false
    },
    "a51cc44a28808c9d1a08af0f1e2ae9e326746bfa": {
        "point": 1,
        "message": "[#79] Various fixes\n\n- Better API in CompileOptions\n- Avoid overriding -classpath option\n- Improved tests checking if -source actually works",
        "author": "lukaseder",
        "date": "2019-03-29 17:22:13+01:00",
        "in_main_branch": true,
        "merge": false
    }
}