{
    "f45a3ec1a3f9140ed870b999f3e2fa4104bf8355": {
        "point": 1,
        "message": "Fix \"String index out of range\" exception [fixes #1]",
        "author": "Michael Moravec",
        "date": "2013-05-02 22:17:36+02:00",
        "in_main_branch": true,
        "merge": false
    },
    "c780b74e783c2c14121f9e376541040aad097686": {
        "point": 1,
        "message": "Fix magic property icon so it properly contains info both about being property and public",
        "author": "Michael Moravec",
        "date": "2013-05-02 22:19:31+02:00",
        "in_main_branch": true,
        "merge": false
    },
    "226bd22f632fce04d4ababb9aaf828064cd557b2": {
        "point": 1,
        "message": "Fixed unchecked assignments",
        "author": "Michael Moravec",
        "date": "2013-05-02 23:17:25+02:00",
        "in_main_branch": true,
        "merge": false
    },
    "79c36aea0d86f898a7d1da245153f4e3d83ee956": {
        "point": 1,
        "message": "event method completion: fix & refactoring",
        "author": "David Matejka",
        "date": "2015-04-26 19:45:45+02:00",
        "in_main_branch": true,
        "merge": false
    },
    "fc65d0d513bc0628ba11fa86a242ac25e4c07e1f": {
        "point": 1,
        "message": "PhpIndexUtil: fixed $this type",
        "author": "David Matejka",
        "date": "2015-04-26 23:47:36+02:00",
        "in_main_branch": true,
        "merge": false
    },
    "1feb41326a1223ccc061e9a75a90a8c85955dd48": {
        "point": 1,
        "message": "Component completion: fixed resolved return type & ignore createComponent method",
        "author": "David Matejka",
        "date": "2015-04-27 20:09:46+02:00",
        "in_main_branch": true,
        "merge": false
    },
    "af50672bb20b1cd7b597567bb2e993caedfb8e96": {
        "point": 1,
        "message": "cs fix",
        "author": "David Matejka",
        "date": "2015-05-02 18:33:37+02:00",
        "in_main_branch": true,
        "merge": false
    },
    "8e943356d18a018e3f757e45e11763a1320976fb": {
        "point": 1,
        "message": "NetteObjectFieldstypeProvider: recursion fix",
        "author": "David Matejka",
        "date": "2015-05-07 13:29:34+02:00",
        "in_main_branch": true,
        "merge": false
    },
    "4afdcb096d492329b202594992345aaf00ebb0e5": {
        "point": 1,
        "message": "Magic fields fix: it now respects caller context (so it prefers e.g. public fields over magic methods)",
        "author": "David Matejka",
        "date": "2015-05-09 15:48:13+02:00",
        "in_main_branch": true,
        "merge": false
    },
    "632c5d1c087e54c37ca52c22ff12c05eba1a3448": {
        "point": 1,
        "message": "Component type provider: fix when factory method is in the trait",
        "author": "David Matejka",
        "date": "2015-05-09 15:54:50+02:00",
        "in_main_branch": true,
        "merge": false
    },
    "de419c43351215e4955af2279572cbc3bf5f8f3e": {
        "point": 1,
        "message": "MagicFields fix",
        "author": "David Matejka",
        "date": "2015-05-28 14:50:01+02:00",
        "in_main_branch": true,
        "merge": false
    },
    "50da0bf61ee84e325c36984a60fad7901a52c415": {
        "point": 1,
        "message": "PhpIndexUtil: fixed recursion [fixes #17]",
        "author": "David Matejka",
        "date": "2015-05-28 15:06:53+02:00",
        "in_main_branch": true,
        "merge": false
    },
    "462866d36770cd69eb09e9c37d75c6652b80936a": {
        "point": 1,
        "message": "Magic field completion: fixed (again :))",
        "author": "David Matejka",
        "date": "2015-05-28 20:48:34+02:00",
        "in_main_branch": true,
        "merge": false
    },
    "1d174e6ab4d7225e4225b2ac0e27e92c2b12ea23": {
        "point": 1,
        "message": "ComponentUtil: fixed condition",
        "author": "David Matejka",
        "date": "2015-05-29 23:30:52+02:00",
        "in_main_branch": true,
        "merge": false
    },
    "78a47bc8e57b27f189f7a1a4c97b1939b4d83312": {
        "point": 1,
        "message": "Magic fields type provider: optimized and fixed",
        "author": "David Matejka",
        "date": "2015-06-03 22:32:14+02:00",
        "in_main_branch": true,
        "merge": false
    },
    "5b6f6a131e8a21111d47732515a8909dff5d394f": {
        "point": 1,
        "message": "ClassFinder: fixed StringIndexOutOfBoundsException",
        "author": "David Matejka",
        "date": "2015-08-03 22:49:29+02:00",
        "in_main_branch": true,
        "merge": false
    },
    "f7fd06d9d4f929bcf87c69cfe6fd77756e2570aa": {
        "point": 1,
        "message": "NetteObjectFieldsTypeProvider: fixed deadlocks",
        "author": "David Matejka",
        "date": "2016-01-30 15:17:23+01:00",
        "in_main_branch": true,
        "merge": false
    },
    "6900bedde00c6c2e1c17f9fa37d4ed5da555b2d4": {
        "point": 1,
        "message": "ComponentTypeProvider: fixed deadlocks",
        "author": "David Matejka",
        "date": "2016-01-30 15:17:52+01:00",
        "in_main_branch": true,
        "merge": false
    },
    "7031cc74477649894dc4ad1fd72782241cff0cf1": {
        "point": 1,
        "message": "Type providers: fixed type separator",
        "author": "David Matejka",
        "date": "2016-01-31 17:01:34+01:00",
        "in_main_branch": true,
        "merge": false
    },
    "a8cb30cd80ea3872cb5aa63b3b251c9e66405d87": {
        "point": 1,
        "message": "PhpIndexUtil: fixed StackOverflow",
        "author": "David Matejka",
        "date": "2016-04-02 19:49:03+02:00",
        "in_main_branch": true,
        "merge": false
    },
    "48e46124560b15483b74e7deaf128b88e4815b74": {
        "point": 1,
        "message": "NetteObjectFieldsTypeProvider: escape TYPE_SEPARATOR [fixes #23]",
        "author": "David Matejka",
        "date": "2016-05-16 20:12:55+02:00",
        "in_main_branch": true,
        "merge": false
    },
    "438ce79e548aad203fd30cb0021c045253731824": {
        "point": 1,
        "message": "NetteCodeStyle: fixed SPACE_AFTER_TYPE_CAST",
        "author": "David Matejka",
        "date": "2016-05-23 15:59:53+02:00",
        "in_main_branch": true,
        "merge": false
    },
    "9e43895a86934b332a17beb973992068df0d014e": {
        "point": 1,
        "message": "ComponentTypeProvider: fix index access during indexing",
        "author": "David Matejka",
        "date": "2016-12-11 16:10:38+01:00",
        "in_main_branch": true,
        "merge": false
    }
}