{
    "db8f3a9a61fa96bb44ff7965f5b5aa9a578de5c0": {
        "point": 1,
        "message": "Fixed bug in LogicExpression.",
        "author": "Michael Schmitz",
        "date": "2011-12-27 17:02:56-08:00",
        "in_main_branch": true,
        "merge": false
    },
    "0b8effe9aa0ef9c0ee42ac7fd6089a2e8934318a": {
        "point": 1,
        "message": "Fixed toStrings on NamedGroup and UnnamedGroup.",
        "author": "Michael Schmitz",
        "date": "2011-12-27 17:05:06-08:00",
        "in_main_branch": true,
        "merge": false
    },
    "4b0c6c9a3cc8eaaa23810cd93ad6a179aff9ead6": {
        "point": 1,
        "message": "Fixed toStrings on NamedGroup and UnnamedGroup.",
        "author": "Michael Schmitz",
        "date": "2011-12-27 17:05:06-08:00",
        "in_main_branch": true,
        "merge": false
    },
    "26217e67d9e1aaddad880b6ba3e8a29b0e8dae26": {
        "point": 1,
        "message": "Fixed the abreviation in the regular expression toString.",
        "author": "Michael Schmitz",
        "date": "2011-12-27 17:05:06-08:00",
        "in_main_branch": true,
        "merge": false
    },
    "6de4b91488c9209cd23790a008997bdcb6e070a8": {
        "point": 1,
        "message": "Fixed a bug in RegularExpression.matches.  It used to count assertions in the length.",
        "author": "Michael Schmitz",
        "date": "2011-12-28 17:18:10-08:00",
        "in_main_branch": true,
        "merge": false
    },
    "4e8b8163824eb79bb1c375f473c6ddf0a79e4b83": {
        "point": 1,
        "message": "Fixed some warnings.",
        "author": "Michael Schmitz",
        "date": "2012-01-12 13:00:24-08:00",
        "in_main_branch": true,
        "merge": false
    },
    "ce47c050ab495886d7e77089e5509f8831871ba6": {
        "point": 1,
        "message": "Fix Or minMatchingLength.",
        "author": "Michael Schmitz",
        "date": "2013-09-18 18:17:09-07:00",
        "in_main_branch": true,
        "merge": false
    }
}