{
    "84fc8f866cc3231f2f470c7b692f420ff2e8b2a9": {
        "point": 1,
        "message": "Resource cleanup fixes.",
        "author": "anthonyu",
        "date": "2013-08-15 16:09:59-07:00",
        "in_main_branch": true,
        "merge": false
    },
    "274a15065e05301186cf9e782bdbdfb0f3547037": {
        "point": 1,
        "message": "Redis script delete on exit fix.",
        "author": "kstyrc",
        "date": "2013-08-19 22:09:32+02:00",
        "in_main_branch": true,
        "merge": false
    },
    "2b103a2d864f195e56af913dc6d36dccca3a2df9": {
        "point": 1,
        "message": "Fixed error while extracting redis executable when using jar file.",
        "author": "kstyrc",
        "date": "2013-08-20 18:00:26+02:00",
        "in_main_branch": true,
        "merge": false
    },
    "2bf4aec2ae38243dcf07032c1837acfc9d8ba74d": {
        "point": 1,
        "message": "init sentinel test; fixed cluster test so that we don't attempt to return the connection twice; same for server test; added missing common-logging dependency; updated jedis and spring data versions",
        "author": "piot.turek",
        "date": "2015-01-22 17:21:15+01:00",
        "in_main_branch": true,
        "merge": false
    },
    "6beb128f24fb591872ffff0dce7a1612174630b2": {
        "point": 1,
        "message": "Updated changelog & fixed one typo",
        "author": "kstyrc",
        "date": "2015-02-21 17:24:12+01:00",
        "in_main_branch": true,
        "merge": false
    },
    "70f7b000390ad81053a991f5baa5176c656a23bf": {
        "point": 1,
        "message": "OS detection fixed. We can now override redis executable per os/arch",
        "author": "kstyrc",
        "date": "2015-02-21 21:55:34+01:00",
        "in_main_branch": true,
        "merge": false
    },
    "c8cb554755a02c23efa7ee7f6dfa9f4f08dbd129": {
        "point": 1,
        "message": "Adjusted test for version prefix",
        "author": "kstyrc",
        "date": "2015-04-02 23:30:26+02:00",
        "in_main_branch": true,
        "merge": false
    },
    "c0980af53170c5ce17b74543540e062a3d429f87": {
        "point": 1,
        "message": "Support JDK 6\n\nPreviously JDK 8 features were used which limitted the project to those\nsupporting JDK 8. While some of the features being used are convenient,\nnone of the features were necessary.\n\nNow the project supports JDK 6+ for those that are using older JDKs.\n\nFixes gh-38",
        "author": "Rob Winch",
        "date": "2015-04-10 15:54:38-05:00",
        "in_main_branch": true,
        "merge": false
    }
}