{
    "6c0ccddc06cdb9140b7e255718c58a3545c3d6df": {
        "point": 1,
        "message": "fixed MaxDate",
        "author": "Brian Muller",
        "date": "2011-04-06 17:16:08-04:00",
        "in_main_branch": true,
        "merge": false
    },
    "3fa3ff2ed3e7d8455446158565d2e85024009741": {
        "point": 1,
        "message": "fixed first_n",
        "author": "Brian Muller",
        "date": "2011-04-12 11:54:12-04:00",
        "in_main_branch": true,
        "merge": false
    },
    "f7f3f32bbddf188f7ebf377c1af8a4ce46192aee": {
        "point": 1,
        "message": "fixed bug in liberal unix timestamp - if input is null, should return null and not cause exception",
        "author": "Brian Muller",
        "date": "2011-08-04 10:54:28-04:00",
        "in_main_branch": true,
        "merge": false
    },
    "18796671681e2a9fa73ffd1150ed4456c531b6b4": {
        "point": 1,
        "message": "fixed typo in day of week",
        "author": "Brian Muller",
        "date": "2011-08-29 12:21:55-04:00",
        "in_main_branch": true,
        "merge": false
    },
    "cc23f7a41cb3d1ef12ce68a53abd6b85482816c2": {
        "point": 1,
        "message": "fixed big endian vs little endian issue in BinCase",
        "author": "Brian Muller",
        "date": "2011-09-01 13:26:13-04:00",
        "in_main_branch": true,
        "merge": false
    },
    "cde56e2ff40e96eab16eefbf52fc4ead2a7d20db": {
        "point": 1,
        "message": "fixed problem caused by reversing bin string in bin_case",
        "author": "Brian Muller",
        "date": "2011-10-25 15:34:38-04:00",
        "in_main_branch": true,
        "merge": false
    },
    "baf34e305c1b84a6d7917e6d3d379c3214ffe304": {
        "point": 1,
        "message": "fixed urldecode so it can handle null input",
        "author": "Brian Muller",
        "date": "2011-10-27 14:05:23-04:00",
        "in_main_branch": true,
        "merge": false
    },
    "5028aef88e7f8d431b2f2e253b2f33d08a952c49": {
        "point": 1,
        "message": "fixed bin_case to be big endian",
        "author": "Brian Muller",
        "date": "2011-11-11 15:11:47-05:00",
        "in_main_branch": true,
        "merge": false
    },
    "97575e1d7117ae2ff3708109b76919dd95ae6be6": {
        "point": 1,
        "message": "fixed formatting",
        "author": "Brian Muller",
        "date": "2012-04-02 16:21:40-04:00",
        "in_main_branch": true,
        "merge": false
    },
    "3aaaa73eeafd13abe74b5f49f645e98621024e2a": {
        "point": 1,
        "message": "Fix some type errors",
        "author": "Bryce Nyeggen",
        "date": "2012-06-13 16:37:12-04:00",
        "in_main_branch": true,
        "merge": false
    },
    "feb78dca10ec58247ca06893b79750d4b91f1258": {
        "point": 1,
        "message": "Fix cast to comparable",
        "author": "Bryce Nyeggen",
        "date": "2012-06-13 17:14:18-04:00",
        "in_main_branch": true,
        "merge": false
    },
    "560acf88c9080c17b9cc0b72778d31440030a00f": {
        "point": 1,
        "message": "fixed some formatting issues in IndexOfMaxElem and README",
        "author": "Brian Muller",
        "date": "2012-06-16 11:21:58-04:00",
        "in_main_branch": true,
        "merge": false
    },
    "049de19b1642b4153b630c8c7c71167344f1ed04": {
        "point": 1,
        "message": "updated to work with CDH4. Removed Ant buildfile, replaced with Maven. Changed directory structure to fit what maven expects. Fixed small error with curdatetime",
        "author": "Josh Stanfield",
        "date": "2012-12-28 01:36:28-05:00",
        "in_main_branch": true,
        "merge": false
    },
    "6a00b27e9342efabe7b8bfab915d9fabf5ff53c3": {
        "point": 1,
        "message": "added least_non_null; fixed up small documentation bug in least()",
        "author": "Josh Stanfield",
        "date": "2013-07-31 12:11:44-06:00",
        "in_main_branch": true,
        "merge": false
    },
    "34d6afedfa6803e2c27e7961b44be44db33ffb17": {
        "point": 1,
        "message": "Change p_value to z_test, patch from msperlich, Fix for #5",
        "author": "John Meagher",
        "date": "2013-09-11 10:07:31-04:00",
        "in_main_branch": true,
        "merge": false
    },
    "625af8d2ab71ed62039518f5494a2a3eb93bc004": {
        "point": 1,
        "message": "Fix null handling in the rank function",
        "author": "John Meagher",
        "date": "2014-04-04 10:21:03-04:00",
        "in_main_branch": true,
        "merge": false
    },
    "2d73663d2d9debff2f95d75bb30d3f9dcbce7450": {
        "point": 1,
        "message": "Fix UnixLiberalTimestamp",
        "author": "Grisha Trubetskoy",
        "date": "2014-09-15 15:16:58-04:00",
        "in_main_branch": true,
        "merge": false
    }
}