{
    "185cddc7fdb9859494902943b1fcb18b702c1c74": {
        "point": 1,
        "message": "FileExplorer: fix the bug that couldn't delete the sdcard items in action mode.\n\nChange-Id: I9ae32ce8ebc2c95e2038b47c94a838fa5387bd21\nCause: \u6267\u884c\u5220\u9664\u64cd\u4f5c\uff0c\u5f39\u51fa\u786e\u8ba4\u5bf9\u8bdd\u6846\uff0c\u9000\u51faActionMode,\u4f1a\u8fd0\u884cclearSelections().\u5bfc\u81f4\u70b9\u51fb\u786e\u5b9a\u65f6\uff0c\u6ca1\u6709\u5220\u9664\u4e1c\u897f\u3002",
        "author": "haonan",
        "date": "2012-02-01 10:35:22+08:00",
        "in_main_branch": true,
        "merge": false
    },
    "51966ea14b4b1eb784c6ee5f7496def5f00e5846": {
        "point": 1,
        "message": "DEV: fix typo and do better check String isEmpty.",
        "author": "lishunli",
        "date": "2012-02-18 18:06:31+08:00",
        "in_main_branch": true,
        "merge": false
    },
    "0bb4952174eb0e8054b97c6d333d076e30c515d8": {
        "point": 1,
        "message": "Fix apk icon load issue.",
        "author": "Noisyfox",
        "date": "2012-04-04 21:04:12+08:00",
        "in_main_branch": true,
        "merge": false
    },
    "65b88efd8de2a4f7a08684f9e6f66c703dbf1ed1": {
        "point": 1,
        "message": "Fix the root floder display issue.",
        "author": "Noisyfox",
        "date": "2012-04-04 22:45:34+08:00",
        "in_main_branch": true,
        "merge": false
    },
    "4d1072fcf0bcd05e57aa58390776a7702924fb4d": {
        "point": 1,
        "message": "1.Fix in Navbar the 'mnt' show 'nt'\n2.Add new setting -- 'Display real path'",
        "author": "Noisyfox",
        "date": "2012-04-04 23:16:03+08:00",
        "in_main_branch": true,
        "merge": false
    },
    "6e5af08b7d163f5efe9b470281b8a55bcec69b21": {
        "point": 1,
        "message": "Fixed action bar.",
        "author": "Noisyfox",
        "date": "2012-04-13 16:48:42+08:00",
        "in_main_branch": true,
        "merge": false
    },
    "2ac46cc9acbb5b591b20d3507a4db41bc36a056f": {
        "point": 1,
        "message": "Fix null point exception.\n\nChange-Id: I404a2e43f307f86bb4d9c288914a664c68a4cc0c",
        "author": "qidongjie",
        "date": "2012-04-17 00:35:22+08:00",
        "in_main_branch": true,
        "merge": false
    },
    "7fa83f70e06243cd85287a2c9f4ca527448eeab8": {
        "point": 1,
        "message": "1. Fix bug that  the modified time of the sdcard in favorite category is January 1st, 1970.\n2. Formate codes.\n\n\u901a\u8fc7File\u7c7b\u83b7\u53d6lastmodified\uff0c\u65e0\u6cd5\u83b7\u53d6sd\u5361\u7684\u65f6\u95f4\uff0c\u8fd4\u56de0\u3002\u5982\u679c\u662f0\uff0c\u5728\u5c31\u4e0d\u663e\u793a\u3002\n\nChange-Id: I0209f2b812696653363c6777efeb89db253c94fc\n\nConflicts:\n\n\tsrc/net/micode/fileexplorer/FavoriteList.java\n\tsrc/net/micode/fileexplorer/FavoriteListAdapter.java\n\tsrc/net/micode/fileexplorer/Util.java",
        "author": "haonan",
        "date": "2012-04-17 00:58:56+08:00",
        "in_main_branch": true,
        "merge": false
    },
    "7bee873c75d35f293c3e99d0d56c47c2ecff2500": {
        "point": 1,
        "message": "Fix bug that can't go into the category after switching tab.\n\nCause: go into one catogry -> switch to ftp tab -> switch back to category tab -> can't go into category.\n\nSigned-off-by: haonan <iqidongjie@gmail.com>",
        "author": "haonan",
        "date": "2012-04-17 01:04:47+08:00",
        "in_main_branch": true,
        "merge": false
    },
    "b6b3278bb5021077b6e2d4bfe70d8a2e391fbd18": {
        "point": 1,
        "message": "Fix fc that selecting package from updater when no sdcard.\n\nFC: ViewPager: Recursive entry to executePendingTransactions.\nIt's not allowed that executing one fragment transaction in another one.",
        "author": "haonan",
        "date": "2012-04-17 01:10:19+08:00",
        "in_main_branch": true,
        "merge": false
    },
    "2b28c8098ebaaeb7180c8988b7f9fc412242c290": {
        "point": 1,
        "message": "Fix null point exception when on back pressed in file view tab.",
        "author": "haonan",
        "date": "2012-04-17 01:14:48+08:00",
        "in_main_branch": true,
        "merge": false
    }
}