{
    "f2d8675b8dc258794e5caade6824ea3563bfe782": {
        "point": 1,
        "message": "fix sortInfo parse rule",
        "author": "miemiedev",
        "date": "2013-03-05 18:02:09+08:00",
        "in_main_branch": true,
        "merge": false
    },
    "8f016bee31f356becf9630fc81bfe182863c5bc1": {
        "point": 1,
        "message": "fix sortInfo parse rule",
        "author": "miemiedev",
        "date": "2013-03-19 19:17:18+08:00",
        "in_main_branch": true,
        "merge": false
    },
    "b58b9d17bf9c5695d824990ed517ebe44894bdb5": {
        "point": 1,
        "message": "fix bug",
        "author": "miemiedev",
        "date": "2013-04-28 16:12:49+08:00",
        "in_main_branch": true,
        "merge": false
    },
    "c69b2d4091181a34c8c8381b8a9bb7b51d0554bc": {
        "point": 1,
        "message": "fix bug",
        "author": "miemiedev",
        "date": "2013-04-28 16:46:53+08:00",
        "in_main_branch": true,
        "merge": false
    },
    "d327e63e8adea2b237d374cf6ac187188390c519": {
        "point": 1,
        "message": "fix bug",
        "author": "miemiedev",
        "date": "2013-04-28 16:54:02+08:00",
        "in_main_branch": true,
        "merge": false
    },
    "c3d4f186666d0e118d2e7a9b2d2d6ab4fcddf5b7": {
        "point": 1,
        "message": "fix resultType bug",
        "author": "miemiedev",
        "date": "2013-06-08 12:35:19+08:00",
        "in_main_branch": true,
        "merge": false
    },
    "947e81141f57a3b05599188f086db37f4264a992": {
        "point": 1,
        "message": "fix asyncTotalCount bug",
        "author": "miemiedev",
        "date": "2013-06-08 15:10:24+08:00",
        "in_main_branch": true,
        "merge": false
    }
}