{
    "55bc09f496c55591a918d94491b26d9c23492fa5": {
        "point": 1,
        "message": "code size reduce fix byte[] processing bug",
        "author": "uriel",
        "date": "2012-01-13 17:19:11+01:00",
        "in_main_branch": true,
        "merge": false
    },
    "16cf166780fca622da0838651035b4c027834dbf": {
        "point": 1,
        "message": "Fix issue 23",
        "author": "uriel",
        "date": "2012-03-20 10:39:16+01:00",
        "in_main_branch": true,
        "merge": false
    },
    "a139622b261b276824ca70fc121ca30bb51eaa38": {
        "point": 1,
        "message": "Fix issue 34\ns.length() optimisation",
        "author": "uriel",
        "date": "2013-01-03 23:43:06+01:00",
        "in_main_branch": true,
        "merge": false
    },
    "0d1f81e6fa5e063f8182f65c499f7b6f69ee8ed1": {
        "point": 1,
        "message": "Fix Support for Collection Mapping",
        "author": "uriel",
        "date": "2013-03-13 20:12:50+01:00",
        "in_main_branch": true,
        "merge": false
    },
    "7cae94a00bc0fdea0b20f6eb1d9119827973d9e2": {
        "point": 1,
        "message": "- Fix issue 41\n- correct error in comment",
        "author": "uriel",
        "date": "2013-07-30 08:55:13+02:00",
        "in_main_branch": true,
        "merge": false
    },
    "369a97919023d734c2ffbb6691fe95a21507e523": {
        "point": 1,
        "message": "fix issue 37 from ankostis",
        "author": "uriel",
        "date": "2013-07-30 09:09:44+02:00",
        "in_main_branch": true,
        "merge": false
    },
    "cac436f582563d7a88d9c9a63f2656e3d38e674c": {
        "point": 1,
        "message": "fix regression on parametrized Map",
        "author": "uriel",
        "date": "2013-08-14 08:21:36+02:00",
        "in_main_branch": true,
        "merge": false
    },
    "e1f3f251f8030715d556def7a2fd7c94eeeab540": {
        "point": 1,
        "message": "Fix Issue 42",
        "author": "uriel",
        "date": "2013-12-06 12:11:10+01:00",
        "in_main_branch": true,
        "merge": false
    },
    "b362068da4f73a31ac3e1bbe6834c4ef671c6005": {
        "point": 1,
        "message": "fix java compilation warning",
        "author": "uriel",
        "date": "2014-05-30 10:10:07+02:00",
        "in_main_branch": true,
        "merge": false
    },
    "68bbbe52a7299422b8e4432bc53e3746db0d0529": {
        "point": 1,
        "message": "fix java.lang Failures",
        "author": "uriel",
        "date": "2014-06-05 12:37:09+02:00",
        "in_main_branch": true,
        "merge": false
    },
    "d19333e3c4b8ecec09401f908148882a37d01b30": {
        "point": 1,
        "message": "add TestUnit\nFix warnings",
        "author": "uriel",
        "date": "2014-06-05 12:38:47+02:00",
        "in_main_branch": true,
        "merge": false
    },
    "e144776bbd5aaf0877229113b01d0cf1d4f2ea68": {
        "point": 1,
        "message": "Fix Issue 44\nJSONValue.parse returns float instead of string with MAX_COMPRESSION\n\nadd TestUnit TestInvalidNumber",
        "author": "uriel",
        "date": "2014-06-05 13:33:21+02:00",
        "in_main_branch": true,
        "merge": false
    },
    "9550bc05eb6fdf565dff1ef4604d6e1faafcbc62": {
        "point": 1,
        "message": "Fixe JavaDoc Warning",
        "author": "uriel",
        "date": "2014-08-12 22:06:44+02:00",
        "in_main_branch": true,
        "merge": false
    },
    "6b5a6815f8658c8a1f5a5ea355d54a9458b69f4d": {
        "point": 1,
        "message": "fix javadoc warning",
        "author": "uriel",
        "date": "2014-08-12 22:09:28+02:00",
        "in_main_branch": true,
        "merge": false
    },
    "f5260dc716e14a89d9a9549722558b74fa70fc25": {
        "point": 1,
        "message": "fix javadoc",
        "author": "uriel",
        "date": "2014-08-12 22:13:22+02:00",
        "in_main_branch": true,
        "merge": false
    },
    "612eea468820cde7a777b08ac8dfbd00b465bb27": {
        "point": 1,
        "message": "fix bug in junit code",
        "author": "uriel",
        "date": "2014-09-25 12:20:28+02:00",
        "in_main_branch": true,
        "merge": false
    },
    "dd2092e2bd42a33c5e21ea5a827b317ae013e325": {
        "point": 1,
        "message": "fix  parse mode",
        "author": "uriel",
        "date": "2014-10-19 21:51:05+02:00",
        "in_main_branch": true,
        "merge": false
    },
    "7c58536cbe1e16d5d0e2ddf1772a62fcbcf24e54": {
        "point": 1,
        "message": "Fix Parsing Flag Error",
        "author": "uriel",
        "date": "2014-10-20 09:58:05+02:00",
        "in_main_branch": true,
        "merge": false
    },
    "91bc229fc19f69c4c33a3e5c85400a84510eb65a": {
        "point": 1,
        "message": "Fix GitHub issue 8",
        "author": "uriel",
        "date": "2014-12-03 15:06:10+01:00",
        "in_main_branch": true,
        "merge": false
    },
    "cc106178e35bb5b951a7c0c24975148d7283703f": {
        "point": 1,
        "message": "reject empty array starting with comma in strict mode fixed gh-17",
        "author": "uriel",
        "date": "2015-10-28 15:59:08+01:00",
        "in_main_branch": true,
        "merge": false
    },
    "f36748b9e8f9a7c2d32d6fc2e757a7eac90b8157": {
        "point": 1,
        "message": "add a test unit for control char fixed gh-18",
        "author": "UrielCh",
        "date": "2015-11-08 12:04:35+01:00",
        "in_main_branch": true,
        "merge": false
    },
    "9d455048e1799ea1c161031c893f28bbdfb2c15f": {
        "point": 1,
        "message": "Fix java 8 building error",
        "author": "UrielCh",
        "date": "2016-02-28 18:59:10-08:00",
        "in_main_branch": true,
        "merge": false
    },
    "5c3baaec8a87bc412c75da465c00cdd1a222bd88": {
        "point": 1,
        "message": "Setp 1 unify code format + fix invalide java filename",
        "author": "UrielCh",
        "date": "2016-09-23 19:21:23-07:00",
        "in_main_branch": true,
        "merge": false
    },
    "8653fa0a0a252d27065f31fbba188e37f1cf9aaf": {
        "point": 1,
        "message": "fix issue 33",
        "author": "UrielCh",
        "date": "2017-03-25 15:44:52-07:00",
        "in_main_branch": true,
        "merge": false
    },
    "b12d123a36a559c1a9162602198afb8cee4b9e49": {
        "point": 1,
        "message": "fix ttest message",
        "author": "UrielCh",
        "date": "2017-03-25 17:51:33-07:00",
        "in_main_branch": true,
        "merge": false
    },
    "8bcbdaeb0e694ef6b9cd4c9d515117df7953f0c4": {
        "point": 1,
        "message": "fix travis",
        "author": "UrielCh",
        "date": "2017-03-25 17:58:17-07:00",
        "in_main_branch": true,
        "merge": false
    }
}