{
    "98fff8c61653a8816ab4422550b0ac7dfa654d36": {
        "point": 1,
        "message": "fix bug for linux",
        "author": "Neucrack",
        "date": "2016-05-22 17:17:25+08:00",
        "in_main_branch": true,
        "merge": false
    },
    "6e4d58e535d6209cae76e9b8805660f3d19f800f": {
        "point": 1,
        "message": "fix danmu on 20160805",
        "author": "lma",
        "date": "2016-08-05 22:37:00+08:00",
        "in_main_branch": true,
        "merge": false
    },
    "0ea33c0cbadb83b6c53f392012b6addc43ca23a0": {
        "point": 1,
        "message": "fix connection bug",
        "author": "Neucrack",
        "date": "2016-08-06 13:15:53+08:00",
        "in_main_branch": true,
        "merge": false
    }
}