{
    "6a273f90862b9f75be86993081d112f3586fa432": {
        "point": 1,
        "message": "fix javadoc error , report by jdk8",
        "author": "wendal",
        "date": "2014-04-25 22:33:21+08:00",
        "in_main_branch": true,
        "merge": false
    },
    "18a54bdc26f347a551554233cc860c08a05d37eb": {
        "point": 1,
        "message": "fix zscan/zrscan. and other bugs",
        "author": "wendal",
        "date": "2014-04-28 16:42:18+08:00",
        "in_main_branch": true,
        "merge": false
    },
    "ba6fb4bedb81b6cce217ff695a4fe6e889b78e57": {
        "point": 1,
        "message": "fix #2",
        "author": "wendal",
        "date": "2014-05-15 22:25:41+08:00",
        "in_main_branch": true,
        "merge": false
    },
    "fdeb7980b4b9df8f302a9aaa646090d6d69ab833": {
        "point": 1,
        "message": "fix pull #5",
        "author": "wendal",
        "date": "2014-05-29 15:37:14+08:00",
        "in_main_branch": true,
        "merge": false
    },
    "7bef4471b72180197602e55dbe7dd924aae2220e": {
        "point": 1,
        "message": "fix #13",
        "author": "wendal",
        "date": "2014-08-14 21:57:03+08:00",
        "in_main_branch": true,
        "merge": false
    },
    "82cbbb6deea660d00ad71e12fbe3405e607889b5": {
        "point": 1,
        "message": "fix #14",
        "author": "wendal",
        "date": "2014-08-19 10:24:23+08:00",
        "in_main_branch": true,
        "merge": false
    },
    "fe8127085fc19b97f603bfce6563f8c8894fd21a": {
        "point": 1,
        "message": "fix issue #https://github.com/ideawu/ssdb/issues/471",
        "author": "wendal",
        "date": "2014-10-20 20:02:39-07:00",
        "in_main_branch": true,
        "merge": false
    },
    "be65dfadb28f7c53722b1b5411911a7d79b6cce8": {
        "point": 1,
        "message": "fix: \u624d\u53d1\u73b0\u7248\u672c\u53f7\u4e00\u76f4\u6ca1\u6539",
        "author": "wendal",
        "date": "2014-11-14 21:45:09+08:00",
        "in_main_branch": true,
        "merge": false
    },
    "9d907857b9bbf5d068c72e5fc7590df24db63862": {
        "point": 1,
        "message": "change: \u6539\u4e3acommon pool2\nfix: \u9057\u7559\u7684\u5404\u79cd\u5c0fbug\u6e05\u7406\u4e00\u4e0b\nremove: \u5220\u9664\u672a\u5b8c\u6210\u7684JniSSDBStream\u7c7b",
        "author": "Wendal Chen",
        "date": "2018-03-06 11:45:02+08:00",
        "in_main_branch": true,
        "merge": false
    }
}