{
    "a361a93c4a8a25c0212f00a1359c56a1266b17da": {
        "point": 1,
        "message": "this fixes a bug where the triplines were functionally much longer than they actually are",
        "author": "Brandon Martin-Anderson",
        "date": "2015-03-24 15:10:56-07:00",
        "in_main_branch": true,
        "merge": false
    },
    "0ee2658747907deac25b4de982dd606a283baa37": {
        "point": 1,
        "message": "misc bug fixes and moved osm loader/mgmt back into engine core",
        "author": "Kevin Webb",
        "date": "2015-06-16 00:16:54-04:00",
        "in_main_branch": true,
        "merge": false
    },
    "f03e615f844daf538a4f550dc58d997c5227da2b": {
        "point": 1,
        "message": "gridlock fix",
        "author": "Steven Ottens",
        "date": "2016-07-14 16:47:46-04:00",
        "in_main_branch": true,
        "merge": false
    }
}