{
    "7a63da4fda71d6f4f300e968aedf31eb60c37bd0": {
        "point": 1,
        "message": "fixed properties inside other objects #14",
        "author": "Adrian Stabiszewski",
        "date": "2015-05-23 16:29:58+02:00",
        "in_main_branch": true,
        "merge": false
    },
    "dfcffebe2c9f65dd894e40ef94258a53b63b0a69": {
        "point": 1,
        "message": "Fix for GeometryCollection not being accepted as a valid geometry in a FeatureCollection",
        "author": "Rob Cannon",
        "date": "2015-06-25 09:47:46-04:00",
        "in_main_branch": true,
        "merge": false
    },
    "a4e128dafce25a1a58e88b4ca26a2929214a3f97": {
        "point": 1,
        "message": "Add fix to LngLatAlt deserilizer for mongo\n\nAdds a third case statement encase the json string contains string\ncoordinate values instead of a double",
        "author": "babbleshack",
        "date": "2016-11-27 02:35:21+00:00",
        "in_main_branch": true,
        "merge": false
    }
}