{
    "3b271de3e0d383fa2f00d24886043000df699a91": {
        "point": 1,
        "message": "Trying to fix random hanging",
        "author": "Paris Larkins",
        "date": "2017-01-22 17:32:33+11:00",
        "in_main_branch": true,
        "merge": false
    },
    "4b914a43bc674f494e6992c11e825208c18e1022": {
        "point": 1,
        "message": "Still trying to fix random hanging, thing its working perfectly now",
        "author": "parislarkins",
        "date": "2017-01-23 20:39:42+11:00",
        "in_main_branch": true,
        "merge": false
    },
    "6241e8765e7beb192edc4b63a4fe02441700c1ab": {
        "point": 1,
        "message": "Fixed anchor mistake in readme",
        "author": "novskey",
        "date": "2017-01-30 16:00:10+11:00",
        "in_main_branch": true,
        "merge": false
    },
    "cdff8324cadc2d45f9ea7c12271c9823b7fca6fc": {
        "point": 1,
        "message": "Fixed a problem where 2captcha account creation wouldn't work unless a proxy file was specified",
        "author": "novskey",
        "date": "2017-01-30 16:09:15+11:00",
        "in_main_branch": true,
        "merge": false
    },
    "ce611323aab4355123cbff18670779415d55ec1f": {
        "point": 1,
        "message": "Fixed a problem where manual account creation would always use the default IP.",
        "author": "novskey",
        "date": "2017-01-30 18:37:19+11:00",
        "in_main_branch": true,
        "merge": false
    },
    "32f56cd0a514b78d5ee27dc9da2b33c1f1593bdb": {
        "point": 1,
        "message": "User:Pass proxy support + New advanced options + Minor changes\n\nAdded new options to advanced settings menu:\n\n - Delay between account creation, Default: 500ms\n - RocketMap output formatting (e.g. output to file like: ptc,username,password), Default: True\n - Use my IP as well as proxies (e.g. with 5 proxies I can use 5 proxies + my own IP for 30 accoutns per 10 minutes), Default: True\n \n Added support for username:password proxies. The following proxy file formatting will work:\n \n https://ip:port\n http://ip:port\n ip:port\n user:pass@ip:port\n https://user:pass@ip:port\n http://user:pass@ip:port\n \n Increased proxy cooldown to 5 accounts per 12 minutes to see if that fixes people still getting IP rate exceeded errors.",
        "author": "parislarkins",
        "date": "2017-02-01 15:49:31+11:00",
        "in_main_branch": true,
        "merge": false
    },
    "fd4a20a1e98229277781c39d94fb53d9f209eb9a": {
        "point": 1,
        "message": "Added new options to advanced settings menu:\n\n - Delay between account creation, Default: 500ms\n - RocketMap output formatting (e.g. output to file like: ptc,username,password), Default: True\n - Use my IP as well as proxies (e.g. with 5 proxies I can use 5 proxies + my own IP for 30 accoutns per 10 minutes), Default: True\n\n Added support for username:password proxies. The following proxy file formatting will work:\n\n https://ip:port\n http://ip:port\n ip:port\n user:pass@ip:port\n https://user:pass@ip:port\n http://user:pass@ip:port\n\n Increased proxy cooldown to 5 accounts per 12 minutes to see if that fixes people still getting IP rate exceeded errors.",
        "author": "parislarkins",
        "date": "2017-02-01 15:55:54+11:00",
        "in_main_branch": true,
        "merge": false
    },
    "f849f4fc8a8004f19225d8ae7378867820449355": {
        "point": 1,
        "message": "Fixed the random Birthday.  It would occasionally come up with an invalid\nbirthday.\nSwitched to Java 8 time to be threadsafe.",
        "author": "Aguita",
        "date": "2017-02-01 22:24:07-07:00",
        "in_main_branch": true,
        "merge": false
    },
    "034cc671e20a4e742e6c0a0ff75e995095def9e2": {
        "point": 1,
        "message": "fixed typing error on commiting files.",
        "author": "Aguita",
        "date": "2017-02-01 22:58:38-07:00",
        "in_main_branch": true,
        "merge": false
    },
    "a846c00ed7fd9579cc1cf313c72645cd29b38a4c": {
        "point": 1,
        "message": "- Re-added alert that shows 2captcha balance and confirms if user would like to proceed with account creation\n\n- Added a status label to GUI, to be used for showing what the program is doing currently (WIP)\n\n- Fixed some Not on FX thread errors.\n\n- Email verification will now only retry 5 times before giving up. This is a temporary fix as the waiting for emails feature will be replaced by instant email verification (e.g. create account, verify account, move on to next account)",
        "author": "novskey",
        "date": "2017-02-03 17:33:32+11:00",
        "in_main_branch": true,
        "merge": false
    },
    "8be17e9e3159c9d266df92f37cb456bc4c02bd8d": {
        "point": 1,
        "message": "Fixed a null pointer exception when checking captchaKey (thanks RPOT!)",
        "author": "novskey",
        "date": "2017-02-03 21:03:14+11:00",
        "in_main_branch": true,
        "merge": false
    },
    "db1bd1215ff15f0a245de69be9629773907cedc7": {
        "point": 1,
        "message": "- Added socks5 proxy support\n- Added version number to the window title\n- Added PokeAlert output support\n- Changed rocketmap output checkbox to a combobox with (RocketMap, PokeAlert, Standard) formatting options\n- Outdated config files will now automatically be updated\n- Fixed email verifier waiting 24 seconds not 240 seconds before verifying accounts",
        "author": "novskey",
        "date": "2017-02-05 16:40:35+11:00",
        "in_main_branch": true,
        "merge": false
    },
    "f88f9b1b888e0d603e6ade84d1a9cd62db8b874a": {
        "point": 1,
        "message": "Fixed a problem with error code checking in the proxy tester",
        "author": "novskey",
        "date": "2017-02-07 15:09:26+11:00",
        "in_main_branch": true,
        "merge": false
    },
    "995cf5fdc508c256f6ec158619e10ae44eeb9f51": {
        "point": 1,
        "message": "Fixed problem in user:pass proxy auth",
        "author": "novskey",
        "date": "2017-02-08 17:26:17+11:00",
        "in_main_branch": true,
        "merge": false
    },
    "b1b74152114667254e8399e5c1aa103210ec6ffe": {
        "point": 1,
        "message": "Added private email domain support (username@domain.com) + Small bug fixes\n\nPokeAlert output format will now output password correctly",
        "author": "novskey",
        "date": "2017-02-09 12:11:02+11:00",
        "in_main_branch": true,
        "merge": false
    },
    "60f9f5ce50f87742c84585d35b645a21203aa55d": {
        "point": 1,
        "message": "Fixed user:pass auth string including ://",
        "author": "novskey",
        "date": "2017-02-09 12:30:58+11:00",
        "in_main_branch": true,
        "merge": false
    },
    "35256987fab10b331024e8f13379d80827d48eed": {
        "point": 1,
        "message": "Updated README, small changes\n\n- Added customizable Gmail trash folder name for users with gmail accounts not in english\n- Fixed a problem with start number where it would start from startnumber -1 (eg: sn 50 would be username49)",
        "author": "novskey",
        "date": "2017-02-20 21:56:08+11:00",
        "in_main_branch": true,
        "merge": false
    },
    "b99894124180f9b1079d9db831a38360efd56b86": {
        "point": 1,
        "message": "Added zoho auto verify support. Fixed 2captcha creation",
        "author": "parislarkins",
        "date": "2017-04-05 16:32:48+10:00",
        "in_main_branch": true,
        "merge": false
    },
    "71e573c792b51759ede991737075b1e78ca95efb": {
        "point": 1,
        "message": "Added zoho auto verify support. Fixed 2captcha creation",
        "author": "parislarkins",
        "date": "2017-04-05 16:33:18+10:00",
        "in_main_branch": true,
        "merge": false
    },
    "e96ddffee1d2d292dd400be10655f598bc9cc2ff": {
        "point": 1,
        "message": "Blocked hotmail/outlook from being used, fixed a problem where zoho emails wouldn't be deleted after verification",
        "author": "parislarkins",
        "date": "2017-04-05 17:46:46+10:00",
        "in_main_branch": true,
        "merge": false
    }
}