{
    "57dbddedbccb93325105bad1891b9fee5d34acd8": {
        "point": 1,
        "message": "fix checkstyle errors in generated javadocs",
        "author": "Sergiy Tymofiychuk",
        "date": "2012-12-12 11:28:35+02:00",
        "in_main_branch": true,
        "merge": false
    },
    "1ccbe15d087518d793bdef5a4563f2c937b22ebb": {
        "point": 1,
        "message": "fix checkstyle",
        "author": "Sergiy Tymofiychuk",
        "date": "2012-12-12 11:34:52+02:00",
        "in_main_branch": true,
        "merge": false
    },
    "2c435d1940244cb2f79ea8bf1651cfdbb64c45c6": {
        "point": 1,
        "message": "fix checkstyle",
        "author": "Sergiy Tymofiychuk",
        "date": "2012-12-12 11:37:26+02:00",
        "in_main_branch": true,
        "merge": false
    },
    "4baf95e2f625fce9e26e530ba34f0e66c4630d95": {
        "point": 1,
        "message": "fix issue on open javadoc",
        "author": "Sergey Timofiychuk",
        "date": "2012-12-16 02:57:51+02:00",
        "in_main_branch": true,
        "merge": false
    },
    "bf9b9e775cf0e159202acef5424c3139c4193ffc": {
        "point": 1,
        "message": "Add more templates and fix description processing code",
        "author": "Sergiy Tymofiychuk",
        "date": "2012-12-20 12:37:30+02:00",
        "in_main_branch": true,
        "merge": false
    },
    "cd03e8d7558a538abc3d016417ef3934150358a9": {
        "point": 1,
        "message": "fix bug related to replacing param tag, so that was able to generate only one param tag",
        "author": "Sergiy Tymofiychuk",
        "date": "2012-12-20 15:14:54+02:00",
        "in_main_branch": true,
        "merge": false
    },
    "87bfd7ba756dd023e9528285742f19d1d1478fff": {
        "point": 1,
        "message": "fix error with field templates",
        "author": "Sergey Timofiychuk",
        "date": "2012-12-23 12:45:54+02:00",
        "in_main_branch": true,
        "merge": false
    },
    "66fafd9a736a0af2b2f9078b508618da80253347": {
        "point": 1,
        "message": "fix issue when ampty p  html tag added",
        "author": "Sergiy Tymofiychuk",
        "date": "2012-12-26 17:08:33+02:00",
        "in_main_branch": true,
        "merge": false
    },
    "8f1570ef3899493c8bdeaabce43972b4ad44cc51": {
        "point": 1,
        "message": "fix issue #2.",
        "author": "Sergiy Tymofiychuk",
        "date": "2012-12-27 14:22:51+02:00",
        "in_main_branch": true,
        "merge": false
    },
    "28cd873f94f605f08e3905d31720f26f8e2da568": {
        "point": 1,
        "message": "fix exception on update javadoc",
        "author": "Sergiy Tymofiychuk",
        "date": "2012-12-27 14:52:43+02:00",
        "in_main_branch": true,
        "merge": false
    },
    "aed4358f189502fdbc550603074fd013e16b7450": {
        "point": 1,
        "message": "fix issue #1",
        "author": "Sergiy Tymofiychuk",
        "date": "2012-12-27 16:45:15+02:00",
        "in_main_branch": true,
        "merge": false
    },
    "c2d770bb0f0bb2929f53922a636e679469e67ed0": {
        "point": 1,
        "message": "fix error with adding spaces in javadocs",
        "author": "Sergiy Tymofiychuk",
        "date": "2012-12-27 17:50:50+02:00",
        "in_main_branch": true,
        "merge": false
    },
    "0aabd916f060d678b14e83d22f92dc782c3a1611": {
        "point": 1,
        "message": "fix exception when javadoc should not be generated",
        "author": "Sergey Timofiychuk",
        "date": "2012-12-28 00:20:01+02:00",
        "in_main_branch": true,
        "merge": false
    },
    "c04d300a5d84039ba78bd7bc565869d27070b40e": {
        "point": 1,
        "message": "fix issue with velocity.",
        "author": "Sergiy Tymofiychuk",
        "date": "2012-12-28 13:20:49+02:00",
        "in_main_branch": true,
        "merge": false
    },
    "94ba267e5df7e3cb2b99a59070da9552b48918b3": {
        "point": 1,
        "message": "fix issue #5",
        "author": "Sergey Timofiychuk",
        "date": "2012-12-28 22:29:09+02:00",
        "in_main_branch": true,
        "merge": false
    },
    "f3e745aba0b72de7ff393ff19e8c1fa8ddfe334d": {
        "point": 1,
        "message": "fix closing javadocs",
        "author": "Sergey Timofiychuk",
        "date": "2012-12-29 00:58:22+02:00",
        "in_main_branch": true,
        "merge": false
    },
    "2d3d439113854a83b7b3396d1ed3e6d4b276df00": {
        "point": 1,
        "message": "fix issue #3",
        "author": "Sergey Timofiychuk",
        "date": "2012-12-29 01:27:21+02:00",
        "in_main_branch": true,
        "merge": false
    },
    "8b07aca6d49cf28a0f3122b5ad3bbe1596ac8448": {
        "point": 1,
        "message": "fix spelling error",
        "author": "Sergiy Tymofiychuk",
        "date": "2013-01-03 17:45:59+02:00",
        "in_main_branch": true,
        "merge": false
    },
    "00db8332ba1dcc5badb7e3b0679ac98e79915dcf": {
        "point": 1,
        "message": "fix error on generating javadocs for class element that implements interface",
        "author": "Sergiy Tymofiychuk",
        "date": "2013-01-04 12:05:02+02:00",
        "in_main_branch": true,
        "merge": false
    },
    "05597d7424f2bc107a69dae263ffcef03c760c29": {
        "point": 1,
        "message": "fix errors on working with templates stored in settings storage",
        "author": "Sergey Timofiychuk",
        "date": "2013-01-06 08:45:14+02:00",
        "in_main_branch": true,
        "merge": false
    },
    "9cccc7eb7112781963bac0d7c2cc87384abe4e30": {
        "point": 1,
        "message": "imlement settings dialog: add/edit templates; fix some issues",
        "author": "Sergey Timofiychuk",
        "date": "2013-01-06 20:35:09+02:00",
        "in_main_branch": true,
        "merge": false
    },
    "4e5f012a32fc300ae8462a68ac8d0291f04b4072": {
        "point": 1,
        "message": "fix error on updating return value",
        "author": "Sergiy Tymofiychuk",
        "date": "2013-01-08 12:14:09+02:00",
        "in_main_branch": true,
        "merge": false
    },
    "79a2c54c296fbc1b8d1110a5f9b4a4c9f411d6bc": {
        "point": 1,
        "message": "fix related to generate incorrect type signature",
        "author": "Sergiy Tymofiychuk",
        "date": "2013-01-08 15:26:04+02:00",
        "in_main_branch": true,
        "merge": false
    },
    "0657c77034fb28af9bae32dad733c8a2f74c07fc": {
        "point": 1,
        "message": "fix issue related to escape html entities",
        "author": "Sergiy Tymofiychuk",
        "date": "2013-01-08 16:00:29+02:00",
        "in_main_branch": true,
        "merge": false
    },
    "c44aed6330b7fd0d32158255ca80bfa2aeb819fc": {
        "point": 1,
        "message": "fix issue on generate javadoc in case when template is not found",
        "author": "Sergiy Tymofiychuk",
        "date": "2013-01-08 16:12:30+02:00",
        "in_main_branch": true,
        "merge": false
    },
    "ea678cb0d79ff8754dec2d2afd1da1f046b076f6": {
        "point": 1,
        "message": "fix bug on load configuration on first start; fix bug with empty lines on javadocs",
        "author": "Sergiy Tymofiychuk",
        "date": "2013-01-10 16:37:02+02:00",
        "in_main_branch": true,
        "merge": false
    },
    "b5accc18cc8a57fe1a32544ad8e0d55afe6ad452": {
        "point": 1,
        "message": "fixed logging issue on different environemnt adding custom logging system implementation",
        "author": "Sergey Timofiychuk",
        "date": "2013-03-07 00:50:02+02:00",
        "in_main_branch": true,
        "merge": false
    },
    "13074c6da22398ccad08beb12e20ad6e8b94861d": {
        "point": 1,
        "message": "fix Issue #11",
        "author": "Sergey Timofiychuk",
        "date": "2013-04-16 19:18:49+03:00",
        "in_main_branch": true,
        "merge": false
    },
    "9f74f00e09f1baa9187ceb33eff37a41edb77fdd": {
        "point": 1,
        "message": "Fixed Issue #14",
        "author": "Sergey Timofiychuk",
        "date": "2013-04-16 19:33:23+03:00",
        "in_main_branch": true,
        "merge": false
    },
    "2cc273fbfef58b58196b828a1476e0b4b1df48e0": {
        "point": 1,
        "message": "fix issue# 15: add setting to allow generate splitted class names or not",
        "author": "Sergiy Tymofiychuk",
        "date": "2013-05-31 13:24:03+03:00",
        "in_main_branch": true,
        "merge": false
    },
    "092eda5459f6d32eabe088d9fb36907bb1cccb2d": {
        "point": 1,
        "message": "fix issue #17",
        "author": "Sergiy Tymofiychuk",
        "date": "2013-07-25 12:19:31+03:00",
        "in_main_branch": true,
        "merge": false
    },
    "8d9e0be5929a27e8554723951b0b915a1092f9e7": {
        "point": 1,
        "message": "fixed issue #16",
        "author": "Sergiy Tymofiychuk",
        "date": "2013-07-25 16:36:43+03:00",
        "in_main_branch": true,
        "merge": false
    },
    "df2e4d563182b202bc91bb4f751d6bfd35d9c522": {
        "point": 1,
        "message": "Fixed exception on try to generate javadoc on last line of class",
        "author": "Sergey Timofiychuk",
        "date": "2014-02-28 23:29:15+02:00",
        "in_main_branch": true,
        "merge": false
    },
    "58409d721c69b1ceb00238027ae3888dfdb87650": {
        "point": 1,
        "message": "fixed 21 issue: add generics support",
        "author": "Sergiy Tymofiychuk",
        "date": "2014-03-04 13:10:24+02:00",
        "in_main_branch": true,
        "merge": false
    },
    "638c795d5fe5513cc2c9e930cb5e468a723eb1dd": {
        "point": 1,
        "message": "fix issue #20 - remove javadocs menu items from resources that are not java classes",
        "author": "Sergiy Tymofiychuk",
        "date": "2014-04-23 15:12:24+03:00",
        "in_main_branch": true,
        "merge": false
    },
    "41500c1a7ac9b15b949d9ff98561423fe48319da": {
        "point": 1,
        "message": "fix critical issue on generate javadocs for interfaces",
        "author": "Sergiy Tymofiychuk",
        "date": "2014-04-28 15:08:50+03:00",
        "in_main_branch": true,
        "merge": false
    },
    "8baa55db7747384679fbd4b4a8c188392fd8aa88": {
        "point": 1,
        "message": "update supported idea build versions and fix file locked exception",
        "author": "Sergiy Tymofiychuk",
        "date": "2015-04-22 12:24:20+03:00",
        "in_main_branch": true,
        "merge": false
    },
    "3ef1b960922c5bd690969a825a4069809202460c": {
        "point": 1,
        "message": "fix Document is locked exception, change template engine to freemarker",
        "author": "Sergiy Tymofiychuk",
        "date": "2015-09-18 17:26:23+03:00",
        "in_main_branch": true,
        "merge": false
    },
    "c6c6344be9358f344299c0139b4046dd32f782da": {
        "point": 1,
        "message": "multiple fixes and improvements",
        "author": "Sergiy Tymofiychuk",
        "date": "2015-09-24 17:51:01+03:00",
        "in_main_branch": true,
        "merge": false
    },
    "3c8085c494a702642826ea6149a675598c252785": {
        "point": 1,
        "message": "fix for replace symbols",
        "author": "Sergiy Tymofiychuk",
        "date": "2015-09-25 13:35:30+03:00",
        "in_main_branch": true,
        "merge": false
    }
}