{
    "8e2d5b34055f15eefeb074d3be990b8fb23c1c5b": {
        "point": 1,
        "message": "Remove the get prefix from method names.",
        "author": "Stig Inge Lea Bj\u00f8rnsen",
        "date": "2014-09-15 19:26:24+02:00",
        "in_main_branch": true,
        "merge": false
    }
}