{
    "9e735de3f855f1f01842a3f759266c8527df5680": {
        "point": 1,
        "message": "source refactoring (seeking still buggy..)",
        "author": "Martin Schrodt",
        "date": "2015-04-04 14:10:03+02:00",
        "in_main_branch": true,
        "merge": false
    },
    "a24faa1152880f3d35e68a5a8b8d28f3164659f6": {
        "point": 1,
        "message": "remove stringtables example, fix pom.xml to have new seek example",
        "author": "Martin Schrodt",
        "date": "2015-04-04 22:51:14+02:00",
        "in_main_branch": true,
        "merge": false
    },
    "3b9b4e060eeef84db033af39755c3c54f1a88de1": {
        "point": 1,
        "message": "try to fix bug with ardm replay",
        "author": "Martin Schrodt",
        "date": "2015-04-05 19:57:54+02:00",
        "in_main_branch": true,
        "merge": false
    },
    "ab9712b101d24999a9f2c12f6cb5855f9f7c19ba": {
        "point": 1,
        "message": "added new parameter to @OnTickStart and @OnTickEnd:\n\nsynthetic: boolean, true if there was no data in the replay for this tick, false otherwise.\n\nalso fixed a bug with SimpleRunner emitting way too many @OnTickStart and @OnTickEnd events.",
        "author": "Martin Schrodt",
        "date": "2015-04-11 23:53:57+02:00",
        "in_main_branch": true,
        "merge": false
    },
    "618d5ebfbbef26c579edc61a2be6b8d211a1f2cc": {
        "point": 1,
        "message": "fix array members would always unpack as int",
        "author": "Martin Schrodt",
        "date": "2015-09-01 21:17:41+02:00",
        "in_main_branch": true,
        "merge": false
    },
    "ecf7ccaa867b677f1e72150a02884eec4527e683": {
        "point": 1,
        "message": "fix",
        "author": "Martin Schrodt",
        "date": "2015-09-05 18:19:08+02:00",
        "in_main_branch": true,
        "merge": false
    },
    "41e7f013f899c309eb215737bf57884b8cf29c4e": {
        "point": 1,
        "message": "fix",
        "author": "Martin Schrodt",
        "date": "2015-09-09 21:32:30+02:00",
        "in_main_branch": true,
        "merge": false
    },
    "f08d813b78ec27ecead61583a69e14eabd92acb6": {
        "point": 1,
        "message": "fix match id 1788648401",
        "author": "Martin Schrodt",
        "date": "2015-09-12 23:57:06+02:00",
        "in_main_branch": true,
        "merge": false
    },
    "c441f1e3f37c83431ae0633e513fbc0981a24ac3": {
        "point": 1,
        "message": "fix bug when decompressing string table updates",
        "author": "Martin Schrodt",
        "date": "2015-09-19 15:14:32+02:00",
        "in_main_branch": true,
        "merge": false
    },
    "195cc84d54e92a9a9bf0b4606d63a630b3e37247": {
        "point": 1,
        "message": "fix for old reborn replays",
        "author": "Martin Schrodt",
        "date": "2015-09-19 16:12:43+02:00",
        "in_main_branch": true,
        "merge": false
    },
    "624fbaa36570d7a55e5add2f61704d95f3d13202": {
        "point": 1,
        "message": "small fix",
        "author": "Martin Schrodt",
        "date": "2015-10-25 13:50:48+01:00",
        "in_main_branch": true,
        "merge": false
    },
    "4bb6f9ce957355860ff7dce3575fb3061bbe17bb": {
        "point": 1,
        "message": "fix spawngroup reader to correctly handle uncompressed packets",
        "author": "Martin Schrodt",
        "date": "2016-08-29 09:54:32+02:00",
        "in_main_branch": true,
        "merge": false
    },
    "f05e558e037cc8741f10bfb3886cc30bba427654": {
        "point": 1,
        "message": "port most examples to contextless calling convention\nfix particles example to work with source 2",
        "author": "Martin Schrodt",
        "date": "2016-09-18 18:29:35+02:00",
        "in_main_branch": true,
        "merge": false
    },
    "20cd0dbe0223b684f6336da739ff3dbc12c21527": {
        "point": 1,
        "message": "fix dumping of arrays",
        "author": "Martin Schrodt",
        "date": "2018-04-03 22:50:28+02:00",
        "in_main_branch": true,
        "merge": false
    }
}