{
    "97c6df3af44fbfd90266b98cb6f41a3b6dc91089": {
        "point": 1,
        "message": "Fix typo which hides IMMC option when missing EMMC",
        "author": "Daniel Bergl\u00f8v",
        "date": "2013-07-19 10:44:51+02:00",
        "in_main_branch": true,
        "merge": false
    },
    "ed01aa28ab91b5ee3648b0688f1b35050cab51a4": {
        "point": 1,
        "message": "Fix possible null pointer exceptions",
        "author": "Daniel Bergl\u00f8v",
        "date": "2013-08-07 09:52:13+02:00",
        "in_main_branch": true,
        "merge": false
    },
    "de429b1d6366a014b183e2ee71f3b0607160ab0e": {
        "point": 1,
        "message": "Settings: Fix a few small bugs",
        "author": "Daniel Bergl\u00f8v",
        "date": "2013-09-09 16:05:19+02:00",
        "in_main_branch": true,
        "merge": false
    },
    "89f568dcdef8fd0f2a1128dd9e41f7e4ecfad141": {
        "point": 1,
        "message": "Root: Fix masive nullPointerException issues",
        "author": "Daniel Bergl\u00f8v",
        "date": "2013-09-14 12:06:00+02:00",
        "in_main_branch": true,
        "merge": false
    },
    "aaa5818b320432817ac5764842948f8816446f20": {
        "point": 1,
        "message": "Fix sqlite3 installer to avoid boot loops",
        "author": "Daniel Bergl\u00f8v",
        "date": "2013-09-14 13:58:17+02:00",
        "in_main_branch": true,
        "merge": false
    },
    "a2ef1aa97f7f33ab42ab2cb58605195794d7de3e": {
        "point": 1,
        "message": "Preferences: Fix bug when sd-ext is not mounted",
        "author": "Daniel Bergl\u00f8v",
        "date": "2013-09-18 10:08:39+02:00",
        "in_main_branch": true,
        "merge": false
    },
    "9ea52c80a422a4bc8033a1bdff76023028ecc13b": {
        "point": 1,
        "message": "Preferences: Fix typo which breaks IMMC configs on MTD devices",
        "author": "Daniel Bergl\u00f8v",
        "date": "2013-09-18 10:20:04+02:00",
        "in_main_branch": true,
        "merge": false
    },
    "fbaf5987399cfe35f09234adfa92bcbae065d1c2": {
        "point": 1,
        "message": "Preferences: Fix reported nullPointerException",
        "author": "Daniel Bergl\u00f8v",
        "date": "2013-09-18 10:40:13+02:00",
        "in_main_branch": true,
        "merge": false
    },
    "9f81cbf278d8e0c71e77634d9c0ac4ff22e58293": {
        "point": 1,
        "message": "Fix internal busybox being restored on boot even thought it was removed",
        "author": "Daniel Bergl\u00f8v",
        "date": "2013-09-20 10:38:26+02:00",
        "in_main_branch": true,
        "merge": false
    },
    "08e46a606a10a75766397b3bc13d7ff6a7be53b5": {
        "point": 1,
        "message": "Preferences: Fix reported crash while loading configurations",
        "author": "Daniel Bergl\u00f8v",
        "date": "2013-09-20 10:38:59+02:00",
        "in_main_branch": true,
        "merge": false
    },
    "b9cfbaa2e43db14621396d8a4b8115b2ab82e1fc": {
        "point": 1,
        "message": "EventHandler: Fix reported crash",
        "author": "Daniel Bergl\u00f8v",
        "date": "2013-09-20 10:51:30+02:00",
        "in_main_branch": true,
        "merge": false
    },
    "135911f2238d7606ca136757455ac5538de155cf": {
        "point": 1,
        "message": "Preferences: Fix crash issues due to nullPointerException",
        "author": "Daniel Bergl\u00f8v",
        "date": "2013-09-24 09:33:10+02:00",
        "in_main_branch": true,
        "merge": false
    },
    "c99c1ec1703d7d855fb50355e74b8f0c4fd4c6bd": {
        "point": 1,
        "message": "Preferences: Fix nullPointerException issue",
        "author": "Daniel Bergl\u00f8v",
        "date": "2013-11-01 09:18:23+01:00",
        "in_main_branch": true,
        "merge": false
    }
}