{
    "f3064f5a04f09a65874232e9a79a93522614d570": {
        "point": 1,
        "message": "Fix javadoc checkstyle problem.",
        "author": "Marc Bruggmann",
        "date": "2016-03-13 10:49:23+01:00",
        "in_main_branch": true,
        "merge": false
    },
    "ce9dd526c72f14fad18b5f4af120b7328fb52cb7": {
        "point": 1,
        "message": "Fix tests that relied on CompletableFuture equality.",
        "author": "Marc Bruggmann",
        "date": "2016-03-17 20:26:41+01:00",
        "in_main_branch": true,
        "merge": false
    },
    "5fc9b1552d83b9421680ff7c147615e0c8d2cf16": {
        "point": 1,
        "message": "fix(compose): Prevent thread blocks by waiting on all futures\n\nThe tests expose that the thread will block indefinitely on an incomplete\nfuture for order-4 and order-5 composes.  The fix is to call Future.allOf\non all provided futures.",
        "author": "Chris Carpita",
        "date": "2016-03-19 12:48:43-04:00",
        "in_main_branch": true,
        "merge": false
    },
    "4ff8c48af3c9a7c987f67fa3b1c2896937883a12": {
        "point": 1,
        "message": "Use deterministic scheduler in test (fixes #43).\n\nWe used the ScheduledThreadPoolExecutor in the test before, which\ncould fail the test for timing issues. Swap it for the\ndeterministic scheduler instead, that'll give us predictable\nbehavior and still verifies that the polling future is cancelled.",
        "author": "Marc Bruggmann",
        "date": "2016-05-06 13:33:06+02:00",
        "in_main_branch": true,
        "merge": false
    },
    "dec7373e85ad330041ad62d190172c18bc07c1e7": {
        "point": 1,
        "message": "Fix all Javadoc warnings on CompletableFutures",
        "author": "David Flemstr\u00f6m",
        "date": "2016-05-08 16:40:34+02:00",
        "in_main_branch": true,
        "merge": false
    },
    "06af851211d335de98fa501f0eb26086b6520888": {
        "point": 1,
        "message": "fix: corrected Function6 javadoc (#58)",
        "author": "George Gastaldi",
        "date": "2018-07-04 00:21:24+02:00",
        "in_main_branch": true,
        "merge": false
    }
}