{
    "01b968aaac9d2b85af8852a080f0e398af3b972a": {
        "point": 1,
        "message": "fix whiskey build",
        "author": "Bill Gallagher",
        "date": "2015-02-25 12:35:00-05:00",
        "in_main_branch": true,
        "merge": false
    },
    "1164680c0021b91fa7cc95389a65fba7e13970c9": {
        "point": 1,
        "message": "build fix:  HeadersFuture.release() doesn't exist\n\nRB_ID=592890",
        "author": "Bill Gallagher",
        "date": "2015-02-27 10:03:08-05:00",
        "in_main_branch": true,
        "merge": false
    },
    "43eb9813790186deb64c694d0463ff4a78d2207f": {
        "point": 1,
        "message": "fix connect bug where Socket was being registered on RunLoop before connect was called\nadd SocketTest\nsplit out RunLoop.loop() for easier testing\n\nRB_ID=594602",
        "author": "Bill Gallagher",
        "date": "2015-02-27 16:02:46-05:00",
        "in_main_branch": true,
        "merge": false
    },
    "9a7938b31c4fe4e70a18d50edf2d1c2489cac5bd": {
        "point": 1,
        "message": "more Socket tests and bug fixes\n\nRB_ID=610232",
        "author": "Bill Gallagher",
        "date": "2015-03-18 13:40:47-04:00",
        "in_main_branch": true,
        "merge": false
    },
    "d13744d2c25cf9be18cf1377108837becbe9d2fc": {
        "point": 1,
        "message": "fix SSL bug in Origin and add tests\n\nRB_ID=611632",
        "author": "Bill Gallagher",
        "date": "2015-03-18 17:48:35-04:00",
        "in_main_branch": true,
        "merge": false
    },
    "3ca21c1994f4d369e60649e637f44ef64cc4f7ef": {
        "point": 1,
        "message": "fix bug on close\n\nRB_ID=611518",
        "author": "Bill Gallagher",
        "date": "2015-03-18 17:49:28-04:00",
        "in_main_branch": true,
        "merge": false
    },
    "6b2a6b170449293cec7ae1f5148cc0e74320193c": {
        "point": 1,
        "message": "Add header encoding and decoding\nImplement ZlibDeflater to support gzip, zlib and deflate streams\nFix buffering issues\n\nRB_ID=634376",
        "author": "Mike Schore",
        "date": "2015-04-14 12:52:46-07:00",
        "in_main_branch": true,
        "merge": false
    },
    "91bbfab7728fc92e06517091786f6259e601b60b": {
        "point": 1,
        "message": "Fix CME and NPE\n\nRB_ID=684352",
        "author": "Mike Schore",
        "date": "2015-06-05 10:57:08-07:00",
        "in_main_branch": true,
        "merge": false
    },
    "95d018835f971f28ffb5495cdcb08509d761719d": {
        "point": 1,
        "message": "Fix NPE when response body is empty\n\nRB_ID=684352",
        "author": "Mike Schore",
        "date": "2015-06-05 10:57:20-07:00",
        "in_main_branch": true,
        "merge": false
    },
    "c4dd4116e1f065a1655546ce349ed3f932d687f5": {
        "point": 1,
        "message": "Fix ClientConfiguration permissions\nAvoid usage of emptyIterator\n\nRB_ID=684352",
        "author": "Mike Schore",
        "date": "2015-06-05 10:57:26-07:00",
        "in_main_branch": true,
        "merge": false
    },
    "babc64a572a7f926ede62b5aee8de564d397f699": {
        "point": 1,
        "message": "Avoid throwing unnecessary exceptions in Future implementations\nFix missing completion in blocking iteration over a ReactiveFuture\n\nRB_ID=684352",
        "author": "Mike Schore",
        "date": "2015-06-05 10:57:41-07:00",
        "in_main_branch": true,
        "merge": false
    },
    "447b2a0975dc98b436f28c206785ee591e50bf1b": {
        "point": 1,
        "message": "Fix NPE when draining the response body; also, ignore invalid headers instead of throwing\n\nRB_ID=684352",
        "author": "Jie Jin",
        "date": "2015-06-05 11:01:04-07:00",
        "in_main_branch": true,
        "merge": false
    },
    "ab57cd82d294e8ec5051c91eb40fad19bd9f6a05": {
        "point": 1,
        "message": "Fix typo",
        "author": "Mike Schore",
        "date": "2015-06-14 17:20:07-07:00",
        "in_main_branch": true,
        "merge": false
    },
    "330623cdd71c01b35e1449bacb2e75365fe53ccc": {
        "point": 1,
        "message": "Fix NPE in ReactiveFuture",
        "author": "Mike Schore",
        "date": "2015-06-14 23:06:22-07:00",
        "in_main_branch": true,
        "merge": false
    },
    "69c78e1114018b57768d0276a67db19db5454566": {
        "point": 1,
        "message": "Fix typo\n\ncorrect spelling to monotonically",
        "author": "Ning Xia",
        "date": "2015-08-28 02:51:34-07:00",
        "in_main_branch": true,
        "merge": false
    },
    "c2031e75d742c5a45348da7e7857dd8941eb823c": {
        "point": 1,
        "message": "Fix bugs in UniqMultiMap & handle UnresolvedAddressException in RunLoop",
        "author": "Madhu Palani",
        "date": "2015-11-09 17:28:58-08:00",
        "in_main_branch": true,
        "merge": false
    }
}