{
    "140b07eab58a715920ef7f44799ea9f0e91e5255": {
        "point": 1,
        "message": "fix photos\n\nSigned-off-by: Walker Crouse <walkercrouse@hotmail.com>",
        "author": "Walker Crouse",
        "date": "2014-02-12 19:14:35-05:00",
        "in_main_branch": true,
        "merge": false
    },
    "43fe991f01693ec9d6b039316888f740f294a83e": {
        "point": 1,
        "message": "multiple bug fixes and change the way images are handled\n\nSigned-off-by: Walker Crouse <walkercrouse@hotmail.com>",
        "author": "Walker Crouse",
        "date": "2014-02-13 21:22:33-05:00",
        "in_main_branch": true,
        "merge": false
    },
    "fe773b1d11df9247334d109352921a130b4e0788": {
        "point": 1,
        "message": "Fixed a critical bug where Event IDs were being set to Place IDs\n\nSigned-off-by: Walker Crouse <walkercrouse@hotmail.com>",
        "author": "Walker Crouse",
        "date": "2014-02-17 19:55:36-05:00",
        "in_main_branch": true,
        "merge": false
    },
    "67e2d9be7a51153381702812ce53ad5247f9c479": {
        "point": 1,
        "message": "Fix radar search and deprecate sensor parameter\n\nSigned-off-by: Walker Crouse <walkercrouse@hotmail.com>",
        "author": "Walker Crouse",
        "date": "2014-10-19 15:24:09-04:00",
        "in_main_branch": true,
        "merge": false
    },
    "604d6c6b29442306895fdf4397d8a7ec3286fd14": {
        "point": 1,
        "message": "Fix issue #21.",
        "author": "Tercio Gaudencio Filho",
        "date": "2015-09-24 17:07:01-03:00",
        "in_main_branch": true,
        "merge": false
    },
    "fb2447d7901b34e5139c50791c962375bc23dc8c": {
        "point": 1,
        "message": "Fix Pull Request #39.",
        "author": "Tercio Gaudencio Filho",
        "date": "2015-10-09 17:30:01-03:00",
        "in_main_branch": true,
        "merge": false
    }
}