<!DOCTYPE svg PUBLIC "-//W3C//DTD SVG 1.1//EN"
 "http://www.w3.org/Graphics/SVG/1.1/DTD/svg11.dtd">
<svg version="1.1"
 width="1200px" height="673px"
 viewBox="0 0 1200 673"
 xmlns="http://www.w3.org/2000/svg" shape-rendering="crispEdges"
 stroke-width="1" text-rendering="geometricPrecision">
<polygon fill="white" points="95,7 143,7 143,16 95,16"/>
<text x="120" y="16" textLength="47" font-family="Helvetica" font-size="12" fill="black" text-anchor="middle">

projector
</text>
<polygon fill="white" points="343,7 375,7 375,16 343,16"/>
<text x="360" y="16" textLength="31" font-family="Helvetica" font-size="12" fill="black" text-anchor="middle">

router
</text>
<polygon fill="white" points="575,7 623,7 623,16 575,16"/>
<text x="600" y="16" textLength="46" font-family="Helvetica" font-size="12" fill="black" text-anchor="middle">

indexer1
</text>
<polygon fill="white" points="815,7 863,7 863,16 815,16"/>
<text x="840" y="16" textLength="46" font-family="Helvetica" font-size="12" fill="black" text-anchor="middle">

indexer2
</text>
<polygon fill="white" points="1048,7 1110,7 1110,16 1048,16"/>
<text x="1080" y="16" textLength="60" font-family="Helvetica" font-size="12" fill="black" text-anchor="middle">

coordinator
</text>
<line x1="120" y1="22" x2="120" y2="39" stroke="blue"/>
<line x1="360" y1="22" x2="360" y2="39" stroke="red"/>
<line x1="600" y1="22" x2="600" y2="39" stroke="green"/>
<line x1="840" y1="22" x2="840" y2="39" stroke="green"/>
<line x1="1080" y1="22" x2="1080" y2="39" stroke="#D02090"/>
<line x1="120" y1="39" x2="120" y2="122" stroke="blue"/>
<line x1="360" y1="39" x2="360" y2="122" stroke="red"/>
<line x1="600" y1="39" x2="600" y2="122" stroke="green"/>
<line x1="840" y1="39" x2="840" y2="122" stroke="green"/>
<line x1="1080" y1="39" x2="1080" y2="122" stroke="#D02090"/>
<polygon fill="#C0C0C0" points="8,39 232,39 232,116 8,116"/>
<line x1="8" y1="39" x2="232" y2="39" stroke="black"/>
<line x1="8" y1="116" x2="232" y2="116" stroke="black"/>
<line x1="8" y1="39" x2="8" y2="116" stroke="black"/>
<line x1="232" y1="39" x2="232" y2="116" stroke="black"/>
<polygon fill="#C0C0C0" points="118,40 120,40 120,49 118,49"/>
<text x="119" y="49" textLength="0" font-family="Helvetica" font-size="12" fill="black">

</text>
<polygon fill="#C0C0C0" points="45,51 194,51 194,60 45,60"/>
<text x="46" y="60" textLength="147" font-family="Helvetica" font-size="12" fill="black">
1. receive UPR MUTATION
</text>
<polygon fill="#C0C0C0" points="118,62 120,62 120,71 118,71"/>
<text x="119" y="71" textLength="0" font-family="Helvetica" font-size="12" fill="black">

</text>
<polygon fill="#C0C0C0" points="49,73 190,73 190,82 49,82"/>
<text x="50" y="82" textLength="139" font-family="Helvetica" font-size="12" fill="black">
 2. extract secondary keys
</text>
<polygon fill="#C0C0C0" points="118,84 120,84 120,93 118,93"/>
<text x="119" y="93" textLength="0" font-family="Helvetica" font-size="12" fill="black">

</text>
<polygon fill="#C0C0C0" points="36,95 202,95 202,104 36,104"/>
<text x="37" y="104" textLength="164" font-family="Helvetica" font-size="12" fill="black">
 3. extract older keys (optional)
</text>
<polygon fill="#C0C0C0" points="118,106 120,106 120,115 118,115"/>
<text x="119" y="115" textLength="0" font-family="Helvetica" font-size="12" fill="black">

</text>
<line x1="120" y1="122" x2="120" y2="150" stroke="blue"/>
<line x1="360" y1="122" x2="360" y2="150" stroke="red"/>
<line x1="600" y1="122" x2="600" y2="150" stroke="green"/>
<line x1="840" y1="122" x2="840" y2="150" stroke="green"/>
<line x1="1080" y1="122" x2="1080" y2="150" stroke="#D02090"/>
<line x1="120" y1="133" x2="360" y2="133" stroke="black"/>
<line x1="360" y1="133" x2="350" y2="139" stroke="black"/>
<polygon fill="white" points="167,123 312,123 312,132 167,132"/>
<text x="168" y="132" textLength="143" font-family="Helvetica" font-size="12" fill="black">
4. Send mutation to Router
</text>
<line x1="120" y1="150" x2="120" y2="200" stroke="blue"/>
<line x1="360" y1="150" x2="360" y2="200" stroke="red"/>
<line x1="600" y1="150" x2="600" y2="200" stroke="green"/>
<line x1="840" y1="150" x2="840" y2="200" stroke="green"/>
<line x1="1080" y1="150" x2="1080" y2="200" stroke="#D02090"/>
<polygon fill="#C0C0C0" points="248,150 472,150 472,194 248,194"/>
<line x1="248" y1="150" x2="472" y2="150" stroke="black"/>
<line x1="248" y1="194" x2="472" y2="194" stroke="black"/>
<line x1="248" y1="150" x2="248" y2="194" stroke="black"/>
<line x1="472" y1="150" x2="472" y2="194" stroke="black"/>
<polygon fill="#C0C0C0" points="358,151 360,151 360,160 358,160"/>
<text x="359" y="160" textLength="0" font-family="Helvetica" font-size="12" fill="black">

</text>
<polygon fill="#C0C0C0" points="254,162 465,162 465,171 254,171"/>
<text x="255" y="171" textLength="209" font-family="Helvetica" font-size="12" fill="black">
5. partition algorithm identifies indexer1
</text>
<polygon fill="#C0C0C0" points="316,173 402,173 402,182 316,182"/>
<text x="317" y="182" textLength="84" font-family="Helvetica" font-size="12" fill="black">
hosting the key 
</text>
<polygon fill="#C0C0C0" points="358,184 360,184 360,193 358,193"/>
<text x="359" y="193" textLength="0" font-family="Helvetica" font-size="12" fill="black">

</text>
<line x1="120" y1="200" x2="120" y2="228" stroke="blue"/>
<line x1="360" y1="200" x2="360" y2="228" stroke="red"/>
<line x1="600" y1="200" x2="600" y2="228" stroke="green"/>
<line x1="840" y1="200" x2="840" y2="228" stroke="green"/>
<line x1="1080" y1="200" x2="1080" y2="228" stroke="#D02090"/>
<line x1="360" y1="211" x2="600" y2="211" stroke="black"/>
<line x1="600" y1="211" x2="590" y2="217" stroke="black"/>
<polygon fill="white" points="438,201 520,201 520,210 438,210"/>
<text x="439" y="210" textLength="80" font-family="Helvetica" font-size="12" fill="black">
5. Send Upsert
</text>
<line x1="120" y1="228" x2="120" y2="256" stroke="blue"/>
<line x1="360" y1="228" x2="360" y2="256" stroke="red"/>
<line x1="600" y1="228" x2="600" y2="256" stroke="green"/>
<line x1="840" y1="228" x2="840" y2="256" stroke="green"/>
<line x1="1080" y1="228" x2="1080" y2="256" stroke="#D02090"/>
<line x1="360" y1="239" x2="600" y2="239" stroke="black"/>
<line x1="600" y1="239" x2="590" y2="245" stroke="black"/>
<polygon fill="white" points="416,229 542,229 542,238 416,238"/>
<text x="417" y="238" textLength="124" font-family="Helvetica" font-size="12" fill="black">
6. Send UpsertDeletion
</text>
<line x1="120" y1="256" x2="120" y2="328" stroke="blue"/>
<line x1="360" y1="256" x2="360" y2="328" stroke="red"/>
<line x1="600" y1="256" x2="600" y2="328" stroke="green"/>
<line x1="840" y1="256" x2="840" y2="328" stroke="green"/>
<line x1="1080" y1="256" x2="1080" y2="328" stroke="#D02090"/>
<polygon fill="#C0C0C0" points="488,256 712,256 712,322 488,322"/>
<line x1="488" y1="256" x2="712" y2="256" stroke="black"/>
<line x1="488" y1="322" x2="712" y2="322" stroke="black"/>
<line x1="488" y1="256" x2="488" y2="322" stroke="black"/>
<line x1="712" y1="256" x2="712" y2="322" stroke="black"/>
<polygon fill="#C0C0C0" points="598,257 600,257 600,266 598,266"/>
<text x="599" y="266" textLength="0" font-family="Helvetica" font-size="12" fill="black">

</text>
<polygon fill="#C0C0C0" points="507,268 691,268 691,277 507,277"/>
<text x="508" y="277" textLength="182" font-family="Helvetica" font-size="12" fill="black">
7. Add Upsert, UpsertDeletion into
</text>
<polygon fill="#C0C0C0" points="557,279 642,279 642,288 557,288"/>
<text x="558" y="288" textLength="83" font-family="Helvetica" font-size="12" fill="black">
mutation queue
</text>
<polygon fill="#C0C0C0" points="598,290 600,290 600,299 598,299"/>
<text x="599" y="299" textLength="0" font-family="Helvetica" font-size="12" fill="black">

</text>
<polygon fill="#C0C0C0" points="511,301 688,301 688,310 511,310"/>
<text x="512" y="310" textLength="175" font-family="Helvetica" font-size="12" fill="black">
 8.Update High-Water timestamp
</text>
<polygon fill="#C0C0C0" points="598,312 600,312 600,321 598,321"/>
<text x="599" y="321" textLength="0" font-family="Helvetica" font-size="12" fill="black">

</text>
<line x1="120" y1="328" x2="120" y2="356" stroke="blue"/>
<line x1="360" y1="328" x2="360" y2="356" stroke="red"/>
<line x1="600" y1="328" x2="600" y2="356" stroke="green"/>
<line x1="840" y1="328" x2="840" y2="356" stroke="green"/>
<line x1="1080" y1="328" x2="1080" y2="356" stroke="#D02090"/>
<line x1="360" y1="339" x2="840" y2="339" stroke="black"/>
<line x1="840" y1="339" x2="830" y2="345" stroke="black"/>
<polygon fill="white" points="536,329 662,329 662,338 536,338"/>
<text x="537" y="338" textLength="124" font-family="Helvetica" font-size="12" fill="black">
6. Send UpsertDeletion
</text>
<line x1="120" y1="356" x2="120" y2="428" stroke="blue"/>
<line x1="360" y1="356" x2="360" y2="428" stroke="red"/>
<line x1="600" y1="356" x2="600" y2="428" stroke="green"/>
<line x1="840" y1="356" x2="840" y2="428" stroke="green"/>
<line x1="1080" y1="356" x2="1080" y2="428" stroke="#D02090"/>
<polygon fill="#C0C0C0" points="728,356 952,356 952,422 728,422"/>
<line x1="728" y1="356" x2="952" y2="356" stroke="black"/>
<line x1="728" y1="422" x2="952" y2="422" stroke="black"/>
<line x1="728" y1="356" x2="728" y2="422" stroke="black"/>
<line x1="952" y1="356" x2="952" y2="422" stroke="black"/>
<polygon fill="#C0C0C0" points="838,357 840,357 840,366 838,366"/>
<text x="839" y="366" textLength="0" font-family="Helvetica" font-size="12" fill="black">

</text>
<polygon fill="#C0C0C0" points="747,368 931,368 931,377 747,377"/>
<text x="748" y="377" textLength="182" font-family="Helvetica" font-size="12" fill="black">
7. Add Upsert, UpsertDeletion into
</text>
<polygon fill="#C0C0C0" points="797,379 882,379 882,388 797,388"/>
<text x="798" y="388" textLength="83" font-family="Helvetica" font-size="12" fill="black">
mutation queue
</text>
<polygon fill="#C0C0C0" points="838,390 840,390 840,399 838,399"/>
<text x="839" y="399" textLength="0" font-family="Helvetica" font-size="12" fill="black">

</text>
<polygon fill="#C0C0C0" points="751,401 928,401 928,410 751,410"/>
<text x="752" y="410" textLength="175" font-family="Helvetica" font-size="12" fill="black">
 8.Update High-Water timestamp
</text>
<polygon fill="#C0C0C0" points="838,412 840,412 840,421 838,421"/>
<text x="839" y="421" textLength="0" font-family="Helvetica" font-size="12" fill="black">

</text>
<line x1="120" y1="428" x2="120" y2="456" stroke="blue"/>
<line x1="360" y1="428" x2="360" y2="456" stroke="red"/>
<line x1="600" y1="428" x2="600" y2="456" stroke="green"/>
<line x1="840" y1="428" x2="840" y2="456" stroke="green"/>
<line x1="1080" y1="428" x2="1080" y2="456" stroke="#D02090"/>
<line x1="360" y1="439" x2="1080" y2="439" stroke="black"/>
<line x1="1080" y1="439" x2="1070" y2="445" stroke="black"/>
<polygon fill="white" points="656,429 782,429 782,438 656,438"/>
<text x="657" y="438" textLength="124" font-family="Helvetica" font-size="12" fill="black">
6. Send UpsertDeletion
</text>
<line x1="120" y1="456" x2="120" y2="495" stroke="blue"/>
<line x1="360" y1="456" x2="360" y2="495" stroke="red"/>
<line x1="600" y1="456" x2="600" y2="495" stroke="green"/>
<line x1="840" y1="456" x2="840" y2="495" stroke="green"/>
<line x1="1080" y1="456" x2="1080" y2="495" stroke="#D02090"/>
<polygon fill="#C0C0C0" points="968,456 1192,456 1192,489 968,489"/>
<line x1="968" y1="456" x2="1192" y2="456" stroke="black"/>
<line x1="968" y1="489" x2="1192" y2="489" stroke="black"/>
<line x1="968" y1="456" x2="968" y2="489" stroke="black"/>
<line x1="1192" y1="456" x2="1192" y2="489" stroke="black"/>
<polygon fill="#C0C0C0" points="1078,457 1080,457 1080,466 1078,466"/>
<text x="1079" y="466" textLength="0" font-family="Helvetica" font-size="12" fill="black">

</text>
<polygon fill="#C0C0C0" points="999,468 1160,468 1160,477 999,477"/>
<text x="1000" y="477" textLength="159" font-family="Helvetica" font-size="12" fill="black">
9. promote stability timestamp
</text>
<polygon fill="#C0C0C0" points="1078,479 1080,479 1080,488 1078,488"/>
<text x="1079" y="488" textLength="0" font-family="Helvetica" font-size="12" fill="black">

</text>
<line x1="120" y1="495" x2="120" y2="523" stroke="blue"/>
<line x1="360" y1="495" x2="360" y2="523" stroke="red"/>
<line x1="600" y1="495" x2="600" y2="523" stroke="green"/>
<line x1="840" y1="495" x2="840" y2="523" stroke="green"/>
<line x1="1080" y1="495" x2="1080" y2="523" stroke="#D02090"/>
<line x1="1080" y1="506" x2="600" y2="506" stroke="black"/>
<line x1="600" y1="506" x2="610" y2="512" stroke="black"/>
<polygon fill="white" points="754,496 925,496 925,505 754,505"/>
<text x="755" y="505" textLength="169" font-family="Helvetica" font-size="12" fill="black">
10. broadcast stability timetamp
</text>
<line x1="120" y1="523" x2="120" y2="584" stroke="blue"/>
<line x1="360" y1="523" x2="360" y2="584" stroke="red"/>
<line x1="600" y1="523" x2="600" y2="584" stroke="green"/>
<line x1="840" y1="523" x2="840" y2="584" stroke="green"/>
<line x1="1080" y1="523" x2="1080" y2="584" stroke="#D02090"/>
<polygon fill="#C0C0C0" points="488,523 712,523 712,578 488,578"/>
<line x1="488" y1="523" x2="712" y2="523" stroke="black"/>
<line x1="488" y1="578" x2="712" y2="578" stroke="black"/>
<line x1="488" y1="523" x2="488" y2="578" stroke="black"/>
<line x1="712" y1="523" x2="712" y2="578" stroke="black"/>
<polygon fill="#C0C0C0" points="598,524 600,524 600,533 598,533"/>
<text x="599" y="533" textLength="0" font-family="Helvetica" font-size="12" fill="black">

</text>
<polygon fill="#C0C0C0" points="502,535 697,535 697,544 502,544"/>
<text x="503" y="544" textLength="193" font-family="Helvetica" font-size="12" fill="black">
12. Message are applied or skipped.
</text>
<polygon fill="#C0C0C0" points="598,546 600,546 600,555 598,555"/>
<text x="599" y="555" textLength="0" font-family="Helvetica" font-size="12" fill="black">

</text>
<polygon fill="#C0C0C0" points="521,557 678,557 678,566 521,566"/>
<text x="522" y="566" textLength="155" font-family="Helvetica" font-size="12" fill="black">
 13. Process Mutation Queue
</text>
<polygon fill="#C0C0C0" points="598,568 600,568 600,577 598,577"/>
<text x="599" y="577" textLength="0" font-family="Helvetica" font-size="12" fill="black">

</text>
<line x1="120" y1="584" x2="120" y2="612" stroke="blue"/>
<line x1="360" y1="584" x2="360" y2="612" stroke="red"/>
<line x1="600" y1="584" x2="600" y2="612" stroke="green"/>
<line x1="840" y1="584" x2="840" y2="612" stroke="green"/>
<line x1="1080" y1="584" x2="1080" y2="612" stroke="#D02090"/>
<line x1="1080" y1="595" x2="840" y2="595" stroke="black"/>
<line x1="840" y1="595" x2="850" y2="601" stroke="black"/>
<polygon fill="white" points="874,585 1045,585 1045,594 874,594"/>
<text x="875" y="594" textLength="169" font-family="Helvetica" font-size="12" fill="black">
10. broadcast stability timetamp
</text>
<polygon fill="white" points="958,596 960,596 960,605 958,605"/>
<text x="959" y="605" textLength="0" font-family="Helvetica" font-size="12" fill="black">

</text>
<line x1="120" y1="612" x2="120" y2="673" stroke="blue"/>
<line x1="360" y1="612" x2="360" y2="673" stroke="red"/>
<line x1="600" y1="612" x2="600" y2="673" stroke="green"/>
<line x1="840" y1="612" x2="840" y2="673" stroke="green"/>
<line x1="1080" y1="612" x2="1080" y2="673" stroke="#D02090"/>
<polygon fill="#C0C0C0" points="728,612 952,612 952,667 728,667"/>
<line x1="728" y1="612" x2="952" y2="612" stroke="black"/>
<line x1="728" y1="667" x2="952" y2="667" stroke="black"/>
<line x1="728" y1="612" x2="728" y2="667" stroke="black"/>
<line x1="952" y1="612" x2="952" y2="667" stroke="black"/>
<polygon fill="#C0C0C0" points="838,613 840,613 840,622 838,622"/>
<text x="839" y="622" textLength="0" font-family="Helvetica" font-size="12" fill="black">

</text>
<polygon fill="#C0C0C0" points="742,624 937,624 937,633 742,633"/>
<text x="743" y="633" textLength="193" font-family="Helvetica" font-size="12" fill="black">
12. Message are applied or skipped.
</text>
<polygon fill="#C0C0C0" points="838,635 840,635 840,644 838,644"/>
<text x="839" y="644" textLength="0" font-family="Helvetica" font-size="12" fill="black">

</text>
<polygon fill="#C0C0C0" points="761,646 918,646 918,655 761,655"/>
<text x="762" y="655" textLength="155" font-family="Helvetica" font-size="12" fill="black">
 13. Process Mutation Queue
</text>
<polygon fill="#C0C0C0" points="838,657 840,657 840,666 838,666"/>
<text x="839" y="666" textLength="0" font-family="Helvetica" font-size="12" fill="black">

</text>
<line x1="120" y1="667" x2="120" y2="673" stroke="blue"/>
<line x1="360" y1="667" x2="360" y2="673" stroke="red"/>
<line x1="600" y1="667" x2="600" y2="673" stroke="green"/>
<line x1="840" y1="667" x2="840" y2="673" stroke="green"/>
<line x1="1080" y1="667" x2="1080" y2="673" stroke="#D02090"/>
</svg>
