<!DOCTYPE svg PUBLIC "-//W3C//DTD SVG 1.1//EN"
 "http://www.w3.org/Graphics/SVG/1.1/DTD/svg11.dtd">
<svg version="1.1"
 width="1200px" height="579px"
 viewBox="0 0 1200 579"
 xmlns="http://www.w3.org/2000/svg" shape-rendering="crispEdges"
 stroke-width="1" text-rendering="geometricPrecision">
<polygon fill="white" points="95,7 143,7 143,16 95,16"/>
<text x="120" y="16" textLength="47" font-family="Helvetica" font-size="12" fill="black" text-anchor="middle">

projector
</text>
<polygon fill="white" points="343,7 375,7 375,16 343,16"/>
<text x="360" y="16" textLength="31" font-family="Helvetica" font-size="12" fill="black" text-anchor="middle">

router
</text>
<polygon fill="white" points="575,7 623,7 623,16 575,16"/>
<text x="600" y="16" textLength="46" font-family="Helvetica" font-size="12" fill="black" text-anchor="middle">

indexer1
</text>
<polygon fill="white" points="815,7 863,7 863,16 815,16"/>
<text x="840" y="16" textLength="46" font-family="Helvetica" font-size="12" fill="black" text-anchor="middle">

indexer2
</text>
<polygon fill="white" points="1048,7 1110,7 1110,16 1048,16"/>
<text x="1080" y="16" textLength="60" font-family="Helvetica" font-size="12" fill="black" text-anchor="middle">

coordinator
</text>
<line x1="120" y1="22" x2="120" y2="39" stroke="blue"/>
<line x1="360" y1="22" x2="360" y2="39" stroke="red"/>
<line x1="600" y1="22" x2="600" y2="39" stroke="green"/>
<line x1="840" y1="22" x2="840" y2="39" stroke="green"/>
<line x1="1080" y1="22" x2="1080" y2="39" stroke="#D02090"/>
<line x1="120" y1="39" x2="120" y2="78" stroke="blue"/>
<line x1="360" y1="39" x2="360" y2="78" stroke="red"/>
<line x1="600" y1="39" x2="600" y2="78" stroke="green"/>
<line x1="840" y1="39" x2="840" y2="78" stroke="green"/>
<line x1="1080" y1="39" x2="1080" y2="78" stroke="#D02090"/>
<polygon fill="#C0C0C0" points="8,39 232,39 232,72 8,72"/>
<line x1="8" y1="39" x2="232" y2="39" stroke="black"/>
<line x1="8" y1="72" x2="232" y2="72" stroke="black"/>
<line x1="8" y1="39" x2="8" y2="72" stroke="black"/>
<line x1="232" y1="39" x2="232" y2="72" stroke="black"/>
<polygon fill="#C0C0C0" points="118,40 120,40 120,49 118,49"/>
<text x="119" y="49" textLength="0" font-family="Helvetica" font-size="12" fill="black">

</text>
<polygon fill="#C0C0C0" points="53,51 186,51 186,60 53,60"/>
<text x="54" y="60" textLength="131" font-family="Helvetica" font-size="12" fill="black">
receive UPR DELETION
</text>
<polygon fill="#C0C0C0" points="118,62 120,62 120,71 118,71"/>
<text x="119" y="71" textLength="0" font-family="Helvetica" font-size="12" fill="black">

</text>
<line x1="120" y1="78" x2="120" y2="106" stroke="blue"/>
<line x1="360" y1="78" x2="360" y2="106" stroke="red"/>
<line x1="600" y1="78" x2="600" y2="106" stroke="green"/>
<line x1="840" y1="78" x2="840" y2="106" stroke="green"/>
<line x1="1080" y1="78" x2="1080" y2="106" stroke="#D02090"/>
<line x1="120" y1="89" x2="360" y2="89" stroke="black"/>
<line x1="360" y1="89" x2="350" y2="95" stroke="black"/>
<polygon fill="white" points="180,79 298,79 298,88 180,88"/>
<text x="181" y="88" textLength="116" font-family="Helvetica" font-size="12" fill="black">
Send delete message
</text>
<line x1="120" y1="106" x2="120" y2="156" stroke="blue"/>
<line x1="360" y1="106" x2="360" y2="156" stroke="red"/>
<line x1="600" y1="106" x2="600" y2="156" stroke="green"/>
<line x1="840" y1="106" x2="840" y2="156" stroke="green"/>
<line x1="1080" y1="106" x2="1080" y2="156" stroke="#D02090"/>
<polygon fill="#C0C0C0" points="248,106 472,106 472,150 248,150"/>
<line x1="248" y1="106" x2="472" y2="106" stroke="black"/>
<line x1="248" y1="150" x2="472" y2="150" stroke="black"/>
<line x1="248" y1="106" x2="248" y2="150" stroke="black"/>
<line x1="472" y1="106" x2="472" y2="150" stroke="black"/>
<polygon fill="#C0C0C0" points="358,107 360,107 360,116 358,116"/>
<text x="359" y="116" textLength="0" font-family="Helvetica" font-size="12" fill="black">

</text>
<polygon fill="#C0C0C0" points="260,118 459,118 459,127 260,127"/>
<text x="261" y="127" textLength="197" font-family="Helvetica" font-size="12" fill="black">
partition algorithm identifies all nodes
</text>
<polygon fill="#C0C0C0" points="313,129 406,129 406,138 313,138"/>
<text x="314" y="138" textLength="91" font-family="Helvetica" font-size="12" fill="black">
hosting the index
</text>
<polygon fill="#C0C0C0" points="358,140 360,140 360,149 358,149"/>
<text x="359" y="149" textLength="0" font-family="Helvetica" font-size="12" fill="black">

</text>
<line x1="120" y1="156" x2="120" y2="184" stroke="blue"/>
<line x1="360" y1="156" x2="360" y2="184" stroke="red"/>
<line x1="600" y1="156" x2="600" y2="184" stroke="green"/>
<line x1="840" y1="156" x2="840" y2="184" stroke="green"/>
<line x1="1080" y1="156" x2="1080" y2="184" stroke="#D02090"/>
<line x1="360" y1="167" x2="600" y2="167" stroke="black"/>
<line x1="600" y1="167" x2="590" y2="173" stroke="black"/>
<polygon fill="white" points="431,157 528,157 528,166 431,166"/>
<text x="432" y="166" textLength="95" font-family="Helvetica" font-size="12" fill="black">
Send UprDeletion
</text>
<line x1="120" y1="184" x2="120" y2="245" stroke="blue"/>
<line x1="360" y1="184" x2="360" y2="245" stroke="red"/>
<line x1="600" y1="184" x2="600" y2="245" stroke="green"/>
<line x1="840" y1="184" x2="840" y2="245" stroke="green"/>
<line x1="1080" y1="184" x2="1080" y2="245" stroke="#D02090"/>
<polygon fill="#C0C0C0" points="488,184 712,184 712,239 488,239"/>
<line x1="488" y1="184" x2="712" y2="184" stroke="black"/>
<line x1="488" y1="239" x2="712" y2="239" stroke="black"/>
<line x1="488" y1="184" x2="488" y2="239" stroke="black"/>
<line x1="712" y1="184" x2="712" y2="239" stroke="black"/>
<polygon fill="#C0C0C0" points="598,185 600,185 600,194 598,194"/>
<text x="599" y="194" textLength="0" font-family="Helvetica" font-size="12" fill="black">

</text>
<polygon fill="#C0C0C0" points="500,196 699,196 699,205 500,205"/>
<text x="501" y="205" textLength="197" font-family="Helvetica" font-size="12" fill="black">
Add UprDeletion into mutation queue
</text>
<polygon fill="#C0C0C0" points="598,207 600,207 600,216 598,216"/>
<text x="599" y="216" textLength="0" font-family="Helvetica" font-size="12" fill="black">

</text>
<polygon fill="#C0C0C0" points="516,218 683,218 683,227 516,227"/>
<text x="517" y="227" textLength="165" font-family="Helvetica" font-size="12" fill="black">
 Update High-Water timestamp
</text>
<polygon fill="#C0C0C0" points="598,229 600,229 600,238 598,238"/>
<text x="599" y="238" textLength="0" font-family="Helvetica" font-size="12" fill="black">

</text>
<line x1="120" y1="245" x2="120" y2="273" stroke="blue"/>
<line x1="360" y1="245" x2="360" y2="273" stroke="red"/>
<line x1="600" y1="245" x2="600" y2="273" stroke="green"/>
<line x1="840" y1="245" x2="840" y2="273" stroke="green"/>
<line x1="1080" y1="245" x2="1080" y2="273" stroke="#D02090"/>
<line x1="360" y1="256" x2="840" y2="256" stroke="black"/>
<line x1="840" y1="256" x2="830" y2="262" stroke="black"/>
<polygon fill="white" points="551,246 648,246 648,255 551,255"/>
<text x="552" y="255" textLength="95" font-family="Helvetica" font-size="12" fill="black">
Send UprDeletion
</text>
<line x1="120" y1="273" x2="120" y2="334" stroke="blue"/>
<line x1="360" y1="273" x2="360" y2="334" stroke="red"/>
<line x1="600" y1="273" x2="600" y2="334" stroke="green"/>
<line x1="840" y1="273" x2="840" y2="334" stroke="green"/>
<line x1="1080" y1="273" x2="1080" y2="334" stroke="#D02090"/>
<polygon fill="#C0C0C0" points="728,273 952,273 952,328 728,328"/>
<line x1="728" y1="273" x2="952" y2="273" stroke="black"/>
<line x1="728" y1="328" x2="952" y2="328" stroke="black"/>
<line x1="728" y1="273" x2="728" y2="328" stroke="black"/>
<line x1="952" y1="273" x2="952" y2="328" stroke="black"/>
<polygon fill="#C0C0C0" points="838,274 840,274 840,283 838,283"/>
<text x="839" y="283" textLength="0" font-family="Helvetica" font-size="12" fill="black">

</text>
<polygon fill="#C0C0C0" points="740,285 939,285 939,294 740,294"/>
<text x="741" y="294" textLength="197" font-family="Helvetica" font-size="12" fill="black">
Add UprDeletion into mutation queue
</text>
<polygon fill="#C0C0C0" points="838,296 840,296 840,305 838,305"/>
<text x="839" y="305" textLength="0" font-family="Helvetica" font-size="12" fill="black">

</text>
<polygon fill="#C0C0C0" points="756,307 923,307 923,316 756,316"/>
<text x="757" y="316" textLength="165" font-family="Helvetica" font-size="12" fill="black">
 Update High-Water timestamp
</text>
<polygon fill="#C0C0C0" points="838,318 840,318 840,327 838,327"/>
<text x="839" y="327" textLength="0" font-family="Helvetica" font-size="12" fill="black">

</text>
<line x1="120" y1="334" x2="120" y2="362" stroke="blue"/>
<line x1="360" y1="334" x2="360" y2="362" stroke="red"/>
<line x1="600" y1="334" x2="600" y2="362" stroke="green"/>
<line x1="840" y1="334" x2="840" y2="362" stroke="green"/>
<line x1="1080" y1="334" x2="1080" y2="362" stroke="#D02090"/>
<line x1="360" y1="345" x2="1080" y2="345" stroke="black"/>
<line x1="1080" y1="345" x2="1070" y2="351" stroke="black"/>
<polygon fill="white" points="663,335 776,335 776,344 663,344"/>
<text x="664" y="344" textLength="111" font-family="Helvetica" font-size="12" fill="black">
Send UpsertDeletion
</text>
<line x1="120" y1="362" x2="120" y2="401" stroke="blue"/>
<line x1="360" y1="362" x2="360" y2="401" stroke="red"/>
<line x1="600" y1="362" x2="600" y2="401" stroke="green"/>
<line x1="840" y1="362" x2="840" y2="401" stroke="green"/>
<line x1="1080" y1="362" x2="1080" y2="401" stroke="#D02090"/>
<polygon fill="#C0C0C0" points="968,362 1192,362 1192,395 968,395"/>
<line x1="968" y1="362" x2="1192" y2="362" stroke="black"/>
<line x1="968" y1="395" x2="1192" y2="395" stroke="black"/>
<line x1="968" y1="362" x2="968" y2="395" stroke="black"/>
<line x1="1192" y1="362" x2="1192" y2="395" stroke="black"/>
<polygon fill="#C0C0C0" points="1078,363 1080,363 1080,372 1078,372"/>
<text x="1079" y="372" textLength="0" font-family="Helvetica" font-size="12" fill="black">

</text>
<polygon fill="#C0C0C0" points="1005,374 1153,374 1153,383 1005,383"/>
<text x="1006" y="383" textLength="146" font-family="Helvetica" font-size="12" fill="black">
promote stability timestamp
</text>
<polygon fill="#C0C0C0" points="1078,385 1080,385 1080,394 1078,394"/>
<text x="1079" y="394" textLength="0" font-family="Helvetica" font-size="12" fill="black">

</text>
<line x1="120" y1="401" x2="120" y2="429" stroke="blue"/>
<line x1="360" y1="401" x2="360" y2="429" stroke="red"/>
<line x1="600" y1="401" x2="600" y2="429" stroke="green"/>
<line x1="840" y1="401" x2="840" y2="429" stroke="green"/>
<line x1="1080" y1="401" x2="1080" y2="429" stroke="#D02090"/>
<line x1="1080" y1="412" x2="600" y2="412" stroke="black"/>
<line x1="600" y1="412" x2="610" y2="418" stroke="black"/>
<polygon fill="white" points="764,402 915,402 915,411 764,411"/>
<text x="765" y="411" textLength="149" font-family="Helvetica" font-size="12" fill="black">
broadcast stability timetamp
</text>
<line x1="120" y1="429" x2="120" y2="490" stroke="blue"/>
<line x1="360" y1="429" x2="360" y2="490" stroke="red"/>
<line x1="600" y1="429" x2="600" y2="490" stroke="green"/>
<line x1="840" y1="429" x2="840" y2="490" stroke="green"/>
<line x1="1080" y1="429" x2="1080" y2="490" stroke="#D02090"/>
<polygon fill="#C0C0C0" points="488,429 712,429 712,484 488,484"/>
<line x1="488" y1="429" x2="712" y2="429" stroke="black"/>
<line x1="488" y1="484" x2="712" y2="484" stroke="black"/>
<line x1="488" y1="429" x2="488" y2="484" stroke="black"/>
<line x1="712" y1="429" x2="712" y2="484" stroke="black"/>
<polygon fill="#C0C0C0" points="598,430 600,430 600,439 598,439"/>
<text x="599" y="439" textLength="0" font-family="Helvetica" font-size="12" fill="black">

</text>
<polygon fill="#C0C0C0" points="512,441 687,441 687,450 512,450"/>
<text x="513" y="450" textLength="173" font-family="Helvetica" font-size="12" fill="black">
Message are applied or skipped.
</text>
<polygon fill="#C0C0C0" points="598,452 600,452 600,461 598,461"/>
<text x="599" y="461" textLength="0" font-family="Helvetica" font-size="12" fill="black">

</text>
<polygon fill="#C0C0C0" points="531,463 668,463 668,472 531,472"/>
<text x="532" y="472" textLength="135" font-family="Helvetica" font-size="12" fill="black">
 Process Mutation Queue
</text>
<polygon fill="#C0C0C0" points="598,474 600,474 600,483 598,483"/>
<text x="599" y="483" textLength="0" font-family="Helvetica" font-size="12" fill="black">

</text>
<line x1="120" y1="490" x2="120" y2="518" stroke="blue"/>
<line x1="360" y1="490" x2="360" y2="518" stroke="red"/>
<line x1="600" y1="490" x2="600" y2="518" stroke="green"/>
<line x1="840" y1="490" x2="840" y2="518" stroke="green"/>
<line x1="1080" y1="490" x2="1080" y2="518" stroke="#D02090"/>
<line x1="1080" y1="501" x2="840" y2="501" stroke="black"/>
<line x1="840" y1="501" x2="850" y2="507" stroke="black"/>
<polygon fill="white" points="884,491 1035,491 1035,500 884,500"/>
<text x="885" y="500" textLength="149" font-family="Helvetica" font-size="12" fill="black">
broadcast stability timetamp
</text>
<polygon fill="white" points="958,502 960,502 960,511 958,511"/>
<text x="959" y="511" textLength="0" font-family="Helvetica" font-size="12" fill="black">

</text>
<line x1="120" y1="518" x2="120" y2="579" stroke="blue"/>
<line x1="360" y1="518" x2="360" y2="579" stroke="red"/>
<line x1="600" y1="518" x2="600" y2="579" stroke="green"/>
<line x1="840" y1="518" x2="840" y2="579" stroke="green"/>
<line x1="1080" y1="518" x2="1080" y2="579" stroke="#D02090"/>
<polygon fill="#C0C0C0" points="728,518 952,518 952,573 728,573"/>
<line x1="728" y1="518" x2="952" y2="518" stroke="black"/>
<line x1="728" y1="573" x2="952" y2="573" stroke="black"/>
<line x1="728" y1="518" x2="728" y2="573" stroke="black"/>
<line x1="952" y1="518" x2="952" y2="573" stroke="black"/>
<polygon fill="#C0C0C0" points="838,519 840,519 840,528 838,528"/>
<text x="839" y="528" textLength="0" font-family="Helvetica" font-size="12" fill="black">

</text>
<polygon fill="#C0C0C0" points="752,530 927,530 927,539 752,539"/>
<text x="753" y="539" textLength="173" font-family="Helvetica" font-size="12" fill="black">
Message are applied or skipped.
</text>
<polygon fill="#C0C0C0" points="838,541 840,541 840,550 838,550"/>
<text x="839" y="550" textLength="0" font-family="Helvetica" font-size="12" fill="black">

</text>
<polygon fill="#C0C0C0" points="771,552 908,552 908,561 771,561"/>
<text x="772" y="561" textLength="135" font-family="Helvetica" font-size="12" fill="black">
 Process Mutation Queue
</text>
<polygon fill="#C0C0C0" points="838,563 840,563 840,572 838,572"/>
<text x="839" y="572" textLength="0" font-family="Helvetica" font-size="12" fill="black">

</text>
<line x1="120" y1="573" x2="120" y2="579" stroke="blue"/>
<line x1="360" y1="573" x2="360" y2="579" stroke="red"/>
<line x1="600" y1="573" x2="600" y2="579" stroke="green"/>
<line x1="840" y1="573" x2="840" y2="579" stroke="green"/>
<line x1="1080" y1="573" x2="1080" y2="579" stroke="#D02090"/>
</svg>
