id;repo_id;reporter_id;assignee_id;pull_request;pull_request_id;created_at;issue_id
92034;10276;38576;;0;;2012-11-16 05:08:13;35
638266;10276;38576;;0;;2012-10-17 18:10:48;33
638275;10276;38576;;0;;2012-09-06 19:05:12;31
638276;10276;38576;;0;;2012-09-06 18:57:48;30
638288;10276;38576;;0;;2012-03-15 03:23:02;16
638290;10276;38576;;0;;2012-02-02 18:24:49;14
638292;10276;38576;;0;;2012-02-01 04:48:05;12
638296;10276;143669;;0;;2011-08-11 19:00:42;4
1617719;10276;38576;;0;;2013-02-19 23:54:54;40
1676830;10276;38576;;0;;2013-02-25 17:24:06;41
14076593;10276;3439996;;0;;2014-12-30 23:58:34;64
15515388;10276;3439996;;0;;2015-02-22 01:09:09;70
