id;repo_id;reporter_id;assignee_id;pull_request;pull_request_id;created_at;issue_id
8480684;8297382;1748017;2720337;0;;2014-04-08 09:50:08;81
8508944;8297382;1748017;2720337;0;;2014-04-09 15:56:07;82
8634745;8297382;2479418;;0;;2014-04-15 07:49:16;84
8773251;8297382;2720337;1748017;0;;2014-04-24 17:03:55;89
8773285;8297382;2720337;1748017;0;;2014-04-24 17:06:17;90
